Name,Sex,WeightClassKg,Equipment,Division,BirthYear,BodyweightKg,Squat1Kg,Squat2Kg,Squat3Kg,Best3SquatKg,Bench1Kg,Bench2Kg,Bench3Kg,Best3BenchKg,Deadlift1Kg,Deadlift2Kg,Deadlift3Kg,Best3DeadliftKg,Place,TotalKg,Event
Ritika Bhargava,F,47,Raw,Open,1987,45.66,65,-70,70,70,37.5,-40,40,40,75,85,90,90,1,200,SBD
Ali Gascoine,F,52,Raw,Open,1963,51.44,-92.5,95,102.5,102.5,60,-62.5,-62.5,60,140,150,155,155,1,317.5,SBD
Danielle de Silva,F,52,Raw,Open,1986,48.22,75,80,-82.5,80,42.5,-45,-45,42.5,-90,90,95,95,3,217.5,SBD
Joana de Peralta,F,52,Raw,Open,1987,47.68,50,55,-60,55,30,32.5,-35,32.5,80,87.5,95,95,2,182.5,SBD
Linh Le,F,57,Raw,Open,1990,56.08,110,115,-120,115,47.5,50,-52.5,50,130,135,140,140,1,305,SBD
Edwine Clayton,F,57,Raw,Open,1991,56.5,95,-100,102.5,102.5,45,47.5,50,50,105,112.5,117.5,117.5,4,270,SBD
Barbara Lyon,F,57,Raw,Open,1980,56.62,72.5,77.5,80,80,60,,,60,127.5,-132.5,,127.5,2,267.5,SBD
Suzan Premji,F,57,Raw,Open,1984,53.26,85,-95,-102.5,85,50,57.5,-60,57.5,105,120,-125,120,3,262.5,SBD
Erin Feldman,F,57,Raw,Open,1988,56.2,65,-70,70,70,52.5,55,-57.5,55,92.5,100,-105,100,5,225,SBD
Carolina Dillen,F,63,Raw,Open,1983,63,115,120,-125,120,-70,70,-72.5,70,135,145,150,150,1,340,SBD
Katie Lin,F,63,Raw,Open,1989,60,115,122.5,127.5,127.5,55,60,,60,130,137.5,140,140,2,327.5,SBD
Laura Wilson-Sims,F,63,Raw,Open,1976,60.16,-100,-100,100,100,60,62.5,-65,62.5,115,125,132.5,132.5,3,295,SBD
Carolyne Read,F,63,Raw,Open,1985,57.9,-90,95,-102.5,95,50,60,67.5,67.5,110,112.5,-120,112.5,4,275,SBD
Kelly Young,F,63,Raw,Open,1983,60.02,77.5,80,82.5,82.5,47.5,-50,-50,47.5,97.5,100,105,105,5,235,SBD
Tatiana Tahana,F,72,Raw,Open,1980,68.72,70,80,85,85,55,-62.5,-62.5,55,115,125,135,135,1,275,SBD
Davina Thompson,F,72,Raw,Open,1978,67.12,-97.5,97.5,102.5,102.5,57.5,60,-62.5,60,115,120,125,125,2,287.5,SBD
Minette Steyn,F,84,Raw,Open,1990,79.52,-65,65,70,70,50,55,-57.5,55,80,85,87.5,87.5,2,212.5,SBD
Carolina Schwager,F,84,Raw,Open,1988,78.44,-105,-105,-105,,50,-52.5,52.5,52.5,115,120,125,125,DQ,,SBD
Kyla Laban,F,84,Raw,Sub-Juniors,1999,75.66,80,92.5,105,105,40,-50,-50,40,90,100,110,110,1,255,SBD
Charlotte Moss,F,52,Raw,Juniors,1995,51.5,95,100,-105,100,35,40,42.5,42.5,95,100,105,105,1,247.5,SBD
Lisa Lethbridge,F,63,Raw,Juniors,1992,62.92,-115,115,-122.5,115,60,65,-67.5,65,140,150,160,160,1,340,SBD
Sonia Chung,F,63,Raw,Juniors,1992,62.44,120,130,135,135,50,-55,-55,50,110,120,-125,120,3,305,SBD
Amie Limbrick,F,63,Raw,Juniors,1995,61.98,102.5,107.5,-112.5,107.5,57.5,62.5,65,65,105,112.5,120,120,2,292.5,SBD
Siuea Cocker,F,84,Raw,Juniors,1993,75.42,130,-140,-145,130,60,-65,-65,60,130,140,-150,140,1,330,SBD
Cathy Halforty,F,57,Raw,Masters 1,1969,55.22,75,80,85,85,47.5,52.5,-55,52.5,115,120,125,125,1,262.5,SBD
Caron Kaveney,F,57,Raw,Masters 1,1966,53.56,75,82.5,-90,82.5,50,52.5,55,55,95,105,112.5,112.5,2,250,SBD
Phillipa Fischer,F,84,Raw,Masters 1,1973,77.14,80,85,90,90,55,57.5,60,60,125,130,135,135,1,285,SBD
Rachel Duggan,F,84+,Raw,Masters 1,1972,92.94,-95,105,110,110,52.5,57.5,62.5,62.5,-100,115,127.5,127.5,1,300,SBD
Steven Shi,M,66,Raw,Open,1991,64.04,170,182.5,187.5,187.5,95,102.5,-110,102.5,185,-200,200,200,2,490,SBD
Reagan Dear,M,66,Raw,Open,1990,65.58,157.5,165,167.5,167.5,105,107.5,112.5,112.5,200,-210,-215,200,3,480,SBD
Jarrod Lee,M,66,Raw,Open,1990,63.2,150,160,167.5,167.5,97.5,102.5,-107.5,102.5,190,200,-207.5,200,1,470,SBD
Andrei Richardson,M,66,Raw,Open,1978,63.9,130,140,-142.5,140,100,105,-107.5,105,175,-185,-185,175,4,420,SBD
John Strachan,M,74,Raw,Open,1988,73.18,187.5,200,210,210,135,145,-150,145,220,240,250,250,1,605,SBD
Aidan Kiely,M,83,Raw,Open,1983,81.64,195,210,-220,210,112.5,122.5,127.5,127.5,210,227.5,240,240,1,577.5,SBD
Aravind Rudrale,M,83,Raw,Open,1984,82.76,180,-190,-190,180,100,-105,-105,100,215,225,230,230,2,510,SBD
Kevin Chan,M,83,Raw,Open,1978,82.16,165,172.5,-180,172.5,85,-90,-92.5,85,170,-180,-180,170,3,427.5,SBD
Eric Helms,M,93,Raw,Open,1983,89.22,210,220,222.5,222.5,137.5,142.5,145,145,235,245,250,250,3,617.5,SBD
Jason Clarke #3,M,93,Raw,Open,1991,86.9,-200,200,-210,200,130,140,-145,140,240,260,-272.5,260,1,600,SBD
Jack Barr,M,93,Raw,Open,1990,89.9,195,207.5,215,215,127.5,135,-140,135,245,-255,-255,245,4,595,SBD
Patrick Gamble,M,93,Raw,Open,1981,92.26,-180,180,,180,-142.5,142.5,-152.5,142.5,235,250,260,260,2,582.5,SBD
Patrick Patau,M,93,Raw,Open,1982,90.42,190,195,205,205,120,127.5,-132.5,127.5,230,240,-245,240,7,572.5,SBD
Phindai Gapara,M,93,Raw,Open,1986,88.08,175,185,195,195,-117.5,117.5,-120,117.5,215,230,240,240,6,552.5,SBD
Luke Dunn,M,93,Raw,Open,1991,92.92,140,150,-160,150,95,102.5,107.5,107.5,185,195,205,205,8,462.5,SBD
Des Fuiono,M,93,Raw,Open,1980,91.9,175,-180,180,180,-120,-120,-120,,230,-240,245,245,DQ,,SBD
Angus Blair,M,105,Raw,Open,1982,100.96,205,220,230,230,127.5,-135,-140,127.5,245,255,262.5,262.5,1,620,SBD
Edwin Ng,M,105,Raw,Open,1979,103.4,210,225,-245,225,120,-130,-130,120,227.5,240,260,260,2,605,SBD
Paul Clarke,M,105,Raw,Open,1989,101.92,-200,200,-210,200,-155,155,-165,155,230,240,-250,240,3,595,SBD
Darren Neves,M,105,Single-ply,Open,1980,102.7,240,260,285,285,182.5,192.5,-202.5,192.5,230,250,267.5,267.5,1,745,SBD
Rory Finnemore,M,120,Raw,Open,1982,117.1,250,-271,-271,250,150,160,-165,160,260,-281,-281,260,2,670,SBD
Manu Pihama,M,120,Raw,Open,1977,107.92,215,225,235,235,135,142.5,-150,142.5,240,260,265,265,1,642.5,SBD
Argo Pahetogia,M,120,Raw,Open,1978,110.56,180,200,210,210,140,150,160,160,200,220,230,230,4,600,SBD
Junior Kaiuha,M,120,Raw,Open,1988,114.44,220,-225,-225,220,145,-155,155,155,-255,-255,-255,,DQ,,SBD
Jared Bradbury,M,120,Single-ply,Open,1981,119.7,210,220,-230,220,180,-190,-190,180,230,240,250,250,3,650,SBD
Cameron Moss,M,66,Raw,Sub-Juniors,1997,65.4,145,150,155,155,60,65,70,70,150,155,160,160,1,385,SBD
Zain Solanki,M,74,Raw,Sub-Juniors,1998,70.8,112.5,120,127.5,127.5,75,80,-82.5,80,130,142.5,150,150,1,357.5,SBD
Ivan Madsen,M,83,Raw,Sub-Juniors,1997,82.26,185,195,-200,195,100,105,-107.5,105,220,230,235,235,1,535,SBD
Nico Notman,M,83,Raw,Sub-Juniors,1997,78.42,135,-150,160,160,100,115,125,125,180,200,210,210,2,495,SBD
Chris Hall,M,93,Raw,Sub-Juniors,1997,92.44,-210,210,220,220,125,130,135,135,230,245,-255,245,1,600,SBD
Brendon Chaithoo,M,53,Raw,Juniors,1995,50.04,100,110,-120,110,60,75,85,85,145,155,160,160,1,355,SBD
John Duran,M,59,Raw,Juniors,1993,57.24,130,137.5,-145,137.5,65,,,65,200,205,,205,1,407.5,SBD
Chris Tan,M,66,Raw,Juniors,1992,63.68,155,165,172.5,172.5,102.5,107.5,112.5,112.5,220,-232.5,-232.5,220,1,505,SBD
Jak Tan,M,74,Raw,Juniors,1993,70.68,180,192.5,205,205,110,-115,-115,110,215,-225,225,225,2,540,SBD
Kane McKenzie,M,74,Raw,Juniors,1994,69.62,170,182.5,-190,182.5,110,117.5,-122.5,117.5,-215,215,-225,215,3,515,SBD
Riagan Loomes,M,74,Raw,Juniors,1992,73.08,155,170,-182.5,170,95,-102.5,107.5,107.5,190,205,-217.5,205,4,482.5,SBD
Lyle Cardy,M,74,Raw,Juniors,1992,72.92,125,130,135,135,-110,110,115,115,150,160,-177.5,160,6,410,SBD
Matthew Richards,M,74,Raw,Juniors,1993,71.8,135,145,-150,145,92.5,-100,-100,92.5,155,165,-172.5,165,5,402.5,SBD
De Lacey Harry,M,74,Single-ply,Juniors,1993,73.7,180,190,-195,190,102.5,107.5,110,110,225,240,-245,240,1,540,SBD
Dean Price,M,83,Raw,Juniors,1995,81.16,210,220,225,225,160,170,-175,170,220,230,240,240,1,635,SBD
Alex Orwin,M,83,Raw,Juniors,1992,80.64,185,192.5,-195,192.5,115,-120,,115,225,-235,-245,225,3,532.5,SBD
Michael Chung,M,83,Raw,Juniors,1992,81.22,160,175,-185,175,110,-120,-120,110,220,230,240,240,2,525,SBD
Sumner Maxwell-Brown,M,83,Raw,Juniors,1995,76.1,165,175,180,180,102.5,107.5,-110,107.5,200,210,215,215,5,502.5,SBD
Kamil Rahman,M,83,Raw,Juniors,1994,81.94,170,180,-187.5,180,105,-112.5,-112.5,105,185,200,207.5,207.5,7,492.5,SBD
Spencer Sandridge,M,83,Raw,Juniors,1992,77.44,-165,165,,165,-95,102.5,-110,102.5,210,222.5,-227.5,222.5,4,490,SBD
John Chang,M,83,Raw,Juniors,1993,81.86,-160,167.5,-175,167.5,115,120,122.5,122.5,190,-200,200,200,8,490,SBD
Sebastian Batts,M,83,Raw,Juniors,1996,80.68,130,140,145,145,100,102.5,-105,102.5,175,185,195,195,9,442.5,SBD
Andrew Robinson,M,83,Raw,Juniors,1992,80.46,140,150,152.5,152.5,95,100,-105,100,165,170,175,175,10,427.5,SBD
Thomas Botica,M,83,Raw,Juniors,1994,79.72,150,160,170,170,92.5,-100,-100,92.5,195,205,215,215,6,477.5,SBD
Jonathan Curry,M,93,Raw,Juniors,1992,92.22,230,240,-245,240,140,150,155,155,235,245,255,255,1,650,SBD
Keith Miller,M,93,Raw,Juniors,1995,88.86,170,185,195,195,115,125,132.5,132.5,220,232.5,245,245,3,572.5,SBD
Rory Lynch,M,93,Raw,Juniors,1994,90.34,165,175,-180,175,127.5,-132.5,-132.5,127.5,200,212.5,220,220,5,522.5,SBD
Cameron Ambler,M,93,Raw,Juniors,1996,85.1,170,180,-190,180,105,115,-117.5,115,-200,220,-230,220,4,515,SBD
Sam Tilby,M,93,Raw,Juniors,1993,92.84,170,175,-180,175,130,137.5,-140,137.5,190,200,-210,200,7,512.5,SBD
Tom Hart,M,93,Raw,Juniors,1994,89.08,210,220,-227.5,220,120,127.5,130,130,235,245,250,250,2,600,SBD
Himmat Singh,M,93,Raw,Juniors,1995,91,-180,-185,-185,,110,117.5,-122.5,117.5,190,200,210,210,DQ,,SBD
Simon Wilson,M,93,Raw,Juniors,1992,91.58,-167.5,170,177.5,177.5,-130,-135,-135,,-207.5,,,,DQ,,SBD
Josh Wilks,M,105,Raw,Juniors,1993,103.86,232.5,237.5,-242.5,237.5,132.5,-142.5,142.5,142.5,265,-270,-270,265,1,645,SBD
Norman Tepa Jr,M,105,Raw,Juniors,1995,103.52,242.5,-252.5,-252.5,242.5,140,147.5,-152.5,147.5,245,-255,-255,245,2,635,SBD
Finau Laurenson,M,105,Raw,Juniors,1996,100.52,180,-190,190,190,115,120,-125,120,200,210,220,220,3,530,SBD
Leethan Tau,M,120,Raw,Juniors,1993,115.56,205,215,225,225,120,127.5,-132.5,127.5,225,235,-240,235,1,587.5,SBD
Lucas Mansell,M,120+,Raw,Juniors,1993,127.96,225,240,242.5,242.5,132.5,140,-142.5,140,237.5,252.5,260,260,1,642.5,SBD
Brendan Paramore,M,93,Raw,Masters 1,1971,91.9,-165,165,-180,165,95,102.5,-107.5,102.5,210,225,-240,225,1,492.5,SBD
Craig Winter,M,93,Raw,Masters 1,1973,92.52,170,-180,-185,170,110,115,120,120,180,190,200,200,2,490,SBD
Simon Kelsall,M,93,Raw,Masters 1,1970,91.7,130,-150,150,150,90,102.5,107.5,107.5,142.5,160,175,175,3,432.5,SBD
Sani Sanileva,M,105,Raw,Masters 1,1974,102.7,225,-232.5,232.5,232.5,135,145,-150,145,220,230,-232.5,230,2,607.5,SBD
Les Laban,M,105,Raw,Masters 1,1969,97.56,170,-182.5,185,185,115,120,125,125,210,230,250,250,1,560,SBD
Frank Harold,M,105,Raw,Masters 1,1966,100.88,150,157.5,165,165,120,-132.5,-132.5,120,180,195,207.5,207.5,3,492.5,SBD
Gwion Thornley,M,120,Raw,Masters 1,1971,117.38,120,135,150,150,95,105,-110,105,210,230,250,250,2,505,SBD
Phil Middleton,M,120,Single-ply,Masters 1,1972,117.68,295,312.5,325,325,-200,205,-210,205,250,280,-295,280,1,810,SBD
Stephen King,M,83,Raw,Masters 2,1962,82.32,175,195,207.5,207.5,90,100,105,105,190,205,213,213,1,525.5,SBD
Norman Tepa Sr,M,83,Raw,Masters 2,1960,82.28,167.5,-175,175,175,125,132.5,-140,132.5,180,190,-213,190,2,497.5,SBD
Roger Gedye,M,93,Raw,Masters 2,1956,90.18,122.5,-127.5,130,130,110,112.5,-115,112.5,182.5,190,195,195,1,437.5,SBD
Adrian Snelgrove,M,105,Raw,Masters 2,1964,100.2,190,202.5,215,215,135,142.5,150,150,240,252.5,265,265,1,630,SBD
Carl Chambers,M,105,Raw,Masters 2,1964,100.3,115,125,135,135,100,-110,-110,100,150,165,-180,165,2,400,SBD
Jeff Madsen,M,66,Raw,Masters 3,1955,61.38,120,130,-135,130,55,60,,60,150,160,,160,1,350,SBD
Kevin Strachan,M,74,Raw,Masters 3,1954,72.5,125,132.5,-140,132.5,65,72.5,,72.5,150,160,170,170,1,375,SBD
Clarry Parsons,M,83,Raw,Masters 4,1941,81.92,150,160,170,170,80,85,90,90,170,180,185,185,1,445,SBD
Tony Thomas,M,83,Single-ply,Masters 4,1945,82.1,140,150,160,160,90,100,110,110,120,130,150,150,2,420,SBD
