Division,WeightClassKg,Place,Name,Team,BodyweightKg,Best3SquatKg,Best3BenchKg,Best3DeadliftKg,TotalKg,Equipment,Event,Sex
Div 2 Boys,52,1,Dylan Elkins,Needville,50.98,154.22,108.86,156.49,419.57,Single-ply,SBD,M
Div 2 Boys,52,2,Miguel Hernandez,Emory Rains,50.35,163.29,92.99,147.42,403.7,Single-ply,SBD,M
Div 2 Boys,52,3,Matthew Palmer,Bonham,50.89,149.69,88.45,161.03,399.16,Single-ply,SBD,M
Div 2 Boys,52,4,Jermaine Mendiola,Somerset,51.53,158.76,63.5,174.63,396.89,Single-ply,SBD,M
Div 2 Boys,52,5,Josh Estrada,Gonzales,51.62,142.88,92.99,158.76,394.63,Single-ply,SBD,M
Div 2 Boys,52,6,Kais Cooper,Center,51.71,151.95,79.38,156.49,387.82,Single-ply,SBD,M
Div 2 Boys,52,7,Paul Arocha,Devine,51.44,136.08,90.72,151.95,378.75,Single-ply,SBD,M
Div 2 Boys,52,8,Miguel Contreras,Robinson,51.89,149.69,81.65,147.42,378.75,Single-ply,SBD,M
Div 2 Boys,52,9,Darius Jackson,Robinson,50.98,117.93,90.72,147.42,356.07,Single-ply,SBD,M
Div 2 Boys,52,10,Juan Duran,Lubbock Cooper,48.63,129.27,70.31,142.88,342.46,Single-ply,SBD,M
Div 2 Boys,52,11,Derrick Williams,Kennedale,51.8,127.01,79.38,136.08,342.46,Single-ply,SBD,M
Div 2 Boys,52,12,Kz Smith,Coldspring-Oakhurst,51.71,120.2,68.04,142.88,331.12,Single-ply,SBD,M
Div 2 Boys,52,13,Landon Nail,Lubbock Cooper,49.8,108.86,54.43,131.54,294.84,Single-ply,SBD,M
Div 2 Boys,56,1,Jerry Lopez,Port Isabel,53.89,204.12,106.59,183.7,494.42,Single-ply,SBD,M
Div 2 Boys,56,2,Ricky Guerra,Poteet,54.16,185.97,108.86,190.51,485.34,Single-ply,SBD,M
Div 2 Boys,56,3,Darius Rivera,Princeton,55.43,170.1,106.59,183.7,460.4,Single-ply,SBD,M
Div 2 Boys,56,4,Reid Clanton,Midland Greenwood,54.07,163.29,104.33,183.7,451.32,Single-ply,SBD,M
Div 2 Boys,56,5,Willie Ihlenfeldt,Caldwell,55.97,163.29,99.79,183.7,446.79,Single-ply,SBD,M
Div 2 Boys,56,6,Jose Rodriguez,Athens,55.79,172.37,104.33,167.83,444.52,Single-ply,SBD,M
Div 2 Boys,56,7,Daniel Porras,Orange Grove,54.34,158.76,86.18,185.97,430.91,Single-ply,SBD,M
Div 2 Boys,56,8,Kevin Huynh,Kennedale,54.88,156.49,83.91,183.7,424.11,Single-ply,SBD,M
Div 2 Boys,56,9,Grady Rhoden,Alvarado,55.07,154.22,72.57,163.29,390.09,Single-ply,SBD,M
Div 2 Boys,56,10,Tyler Narin,Big Spring,55.25,140.61,92.99,154.22,387.82,Single-ply,SBD,M
Div 2 Boys,56,11,Tucker Stout,Bridge City,55.07,129.27,92.99,147.42,369.68,Single-ply,SBD,M
Div 2 Boys,56,DQ,Brett Butler,Mabank,55.52,183.7,102.06,,,Single-ply,SBD,M
Div 2 Boys,60,1,Victor Aguilar,Caldwell,57.79,249.48,131.54,199.58,580.6,Single-ply,SBD,M
Div 2 Boys,60,2,Yandell Sawyer,Devine,60,226.8,102.06,219.99,548.85,Single-ply,SBD,M
Div 2 Boys,60,3,Taylor Kibodeaux,Buna,60,233.6,117.93,195.04,546.58,Single-ply,SBD,M
Div 2 Boys,60,4,Jonathan Juarez,Celina,59.6,199.58,99.79,195.04,494.42,Single-ply,SBD,M
Div 2 Boys,60,5,Steffan Brown,Columbus,59.51,172.37,108.86,204.12,485.34,Single-ply,SBD,M
Div 2 Boys,60,6,Juan Mendez,Emory Rains,59.78,176.9,104.33,204.12,485.34,Single-ply,SBD,M
Div 2 Boys,60,7,Darius Mallard,Navasota,60,165.56,99.79,190.51,455.86,Single-ply,SBD,M
Div 2 Boys,60,8,Gashia Moua,Quinlan Ford,59.6,158.76,90.72,181.44,430.91,Single-ply,SBD,M
Div 2 Boys,60,9,Reagan Ficken,Orangefield,58.69,167.83,92.99,154.22,415.04,Single-ply,SBD,M
Div 2 Boys,60,10,Justin Workman,Pecos,59.87,147.42,92.99,163.29,403.7,Single-ply,SBD,M
Div 2 Boys,60,11,Cole Byerly,Midland Greenwood,58.42,145.15,102.06,151.95,399.16,Single-ply,SBD,M
Div 2 Boys,67.5,1,Deroddrick Hadnot,Jasper,65.32,217.72,131.54,219.99,569.26,Single-ply,SBD,M
Div 2 Boys,67.5,2,Clemetra Bailey,Paris,67.13,197.31,140.61,226.8,564.72,Single-ply,SBD,M
Div 2 Boys,67.5,3,Cody Brooks,Robinson,66.68,208.65,133.81,208.65,551.11,Single-ply,SBD,M
Div 2 Boys,67.5,4,Andrew Alvidrez,Seminole,66.22,204.12,127.01,215.46,546.58,Single-ply,SBD,M
Div 2 Boys,67.5,5,Juan Martinez,Graham,64.59,199.58,129.27,206.38,535.24,Single-ply,SBD,M
Div 2 Boys,67.5,6,Franteric Powell,Navasota,66.86,204.12,113.4,208.65,526.17,Single-ply,SBD,M
Div 2 Boys,67.5,7,Blake McCraken,Yoakum,66.32,210.92,92.99,210.92,514.83,Single-ply,SBD,M
Div 2 Boys,67.5,8,Zachary Ornelas,Pearsall,67.31,217.72,86.18,208.65,512.56,Single-ply,SBD,M
Div 2 Boys,67.5,9,Dylan Serna,Krum,65.95,188.24,111.13,210.92,510.29,Single-ply,SBD,M
Div 2 Boys,67.5,10,Donald Baker,Sweetwater,66.77,199.58,111.13,197.31,508.02,Single-ply,SBD,M
Div 2 Boys,67.5,11,Tino Elias,Mineola,67.22,204.12,97.52,199.58,501.22,Single-ply,SBD,M
Div 2 Boys,67.5,12,Nate Jones,Shepherd,65.05,197.31,108.86,179.17,485.34,Single-ply,SBD,M
Div 2 Boys,75,1,Travis Cooke,China Spring,73.84,233.6,163.29,235.87,632.76,Single-ply,SBD,M
Div 2 Boys,75,2,Rene Rivas,Venus,73.66,240.4,131.54,242.67,614.62,Single-ply,SBD,M
Div 2 Boys,75,3,Chase McGee,Gatesville,72.12,238.14,147.42,226.8,612.35,Single-ply,SBD,M
Div 2 Boys,75,4,Josue Valdez,Zapata,74.48,229.06,142.88,238.14,610.08,Single-ply,SBD,M
Div 2 Boys,75,5,Cailer Woolam,Lubbock Cooper,73.94,226.8,138.35,238.14,603.28,Single-ply,SBD,M
Div 2 Boys,75,6,Dk Calloway,Carthage,72.94,235.87,129.27,233.6,598.74,Single-ply,SBD,M
Div 2 Boys,75,7,Alex Scallion,Castleberry,73.21,222.26,124.74,222.26,569.26,Single-ply,SBD,M
Div 2 Boys,75,8,Michael Mitchell,Wichita Falls Hirschi,74.39,199.58,127.01,208.65,535.24,Single-ply,SBD,M
Div 2 Boys,75,9,Guillermo Davila,Dalhart,74.21,206.38,115.67,199.58,521.63,Single-ply,SBD,M
Div 2 Boys,75,10,Josh Courvelle,Shepherd,68.13,181.44,111.13,188.24,480.81,Single-ply,SBD,M
Div 2 Boys,75,11,Luis Guzman,Cleveland,74.75,201.85,,,201.85,Single-ply,S,M
Div 2 Boys,75,DQ,Jerry Alaniz,La Feria,74.3,229.06,149.69,,,Single-ply,SBD,M
Div 2 Boys,75,DQ,Leonard Rameriez,Raymondville,73.39,,,,,Single-ply,SBD,M
Div 2 Boys,75,DQ,Kyle Kiser,Quinlan Ford,73.94,,,,,Single-ply,SBD,M
Div 2 Boys,82.5,1,Fili Jaquez,Lubbock Cooper,79.92,265.35,161.03,272.16,698.53,Single-ply,SBD,M
Div 2 Boys,82.5,2,Ramon Sauceda,La Feria,82.01,265.35,156.49,256.28,678.12,Single-ply,SBD,M
Div 2 Boys,82.5,3,Arthur Maxwell,Shepherd,79.92,272.16,149.69,238.14,659.98,Single-ply,SBD,M
Div 2 Boys,82.5,4,Martin Balderas,Groesbeck,80.92,244.94,145.15,267.62,657.71,Single-ply,SBD,M
Div 2 Boys,82.5,5,Pedro Molina,Somerset,79.47,222.26,136.08,254.01,612.35,Single-ply,SBD,M
Div 2 Boys,82.5,6,Thomas Ewing,Giddings,80.65,244.94,129.27,238.14,612.35,Single-ply,SBD,M
Div 2 Boys,82.5,7,Zach Holladay,Bullard,80.83,235.87,142.88,226.8,605.55,Single-ply,SBD,M
Div 2 Boys,82.5,8,Bradley Arnold,Buna,82.1,210.92,170.1,219.99,601.01,Single-ply,SBD,M
Div 2 Boys,82.5,9,Joseph Clark,Tyler Chapel Hill,81.1,226.8,145.15,226.8,598.74,Single-ply,SBD,M
Div 2 Boys,82.5,10,Michael Elmore,Graham,82.01,199.58,138.35,208.65,546.58,Single-ply,SBD,M
Div 2 Boys,82.5,11,Hector Ontiveros,Fort Stockton,80.92,197.31,113.4,213.19,523.9,Single-ply,SBD,M
Div 2 Boys,82.5,DQ,Travis Mallory,Mineral Wells,80.2,208.65,,,,Single-ply,SBD,M
Div 2 Boys,90,1,Jamie Czajkowski,Rockdale,88.36,281.23,201.85,231.33,714.41,Single-ply,SBD,M
Div 2 Boys,90,2,Jeremiah Bottoms,Celina,88.45,283.5,163.29,213.19,659.98,Single-ply,SBD,M
Div 2 Boys,90,3,Kiounis Williams,Center,87.18,251.74,138.35,258.55,648.64,Single-ply,SBD,M
Div 2 Boys,90,4,Desmond Payton,College Station,83.55,276.69,108.86,258.55,644.1,Single-ply,SBD,M
Div 2 Boys,90,5,Fernando Rivera,Port Isabel,87.72,249.48,161.03,229.06,639.57,Single-ply,SBD,M
Div 2 Boys,90,6,Jon Ventura,Pearsall,87.45,238.14,138.35,258.55,635.03,Single-ply,SBD,M
Div 2 Boys,90,7,Howard Horn,Navasota,89.99,204.12,167.83,251.74,623.69,Single-ply,SBD,M
Div 2 Boys,90,8,Luis Escobedo,Needville,89.27,242.67,163.29,215.46,621.42,Single-ply,SBD,M
Div 2 Boys,90,9,Gerald Horne II,Waco La Vega,89.99,222.26,158.76,235.87,616.89,Single-ply,SBD,M
Div 2 Boys,90,10,Orlando Haymon,Vernon,89.99,204.12,127.01,272.16,603.28,Single-ply,SBD,M
Div 2 Boys,90,11,Mathew Sellers,Texarkana Liberty-Eylau,89.45,260.82,140.61,190.51,591.94,Single-ply,SBD,M
Div 2 Boys,90,12,Derek Shelby,Sanger,89.27,213.19,145.15,213.19,571.53,Single-ply,SBD,M
Div 2 Boys,90,13,Dustin Rea,Midland Greenwood,83.64,210.92,129.27,206.38,546.58,Single-ply,SBD,M
Div 2 Boys,90,DQ,Ty Tamplin,Buna,87.72,258.55,142.88,,,Single-ply,SBD,M
Div 2 Boys,100,1,Nick Trevino,Kingsville King,99.06,274.42,161.03,281.23,716.68,Single-ply,SBD,M
Div 2 Boys,100,2,Terrance Cuney,Jasper,98.16,260.82,176.9,272.16,709.87,Single-ply,SBD,M
Div 2 Boys,100,3,Chris Robinson,Waco Connally,99.97,274.42,156.49,263.08,694,Single-ply,SBD,M
Div 2 Boys,100,4,D'Andre Minnitt,Waco La Vega,97.61,263.08,145.15,278.96,687.19,Single-ply,SBD,M
Div 2 Boys,100,5,Shawn Jones,Jasper,99.52,256.28,149.69,272.16,678.12,Single-ply,SBD,M
Div 2 Boys,100,6,Cody Sell,Fairfield,98.16,263.08,161.03,244.94,669.05,Single-ply,SBD,M
Div 2 Boys,100,7,Justin Lomas,Crystal City,98.79,272.16,145.15,229.06,646.37,Single-ply,SBD,M
Div 2 Boys,100,8,William Wayne,Texarkana Liberty-Eylau,97.52,226.8,147.42,240.4,614.62,Single-ply,SBD,M
Div 2 Boys,100,9,Mikey Dobbles,Bonham,98.88,240.4,142.88,219.99,603.28,Single-ply,SBD,M
Div 2 Boys,100,10,Marcus Trujillo,Dalhart,98.97,249.48,122.47,215.46,587.4,Single-ply,SBD,M
Div 2 Boys,100,DQ,Azel Alvidrez,Andrews,97.25,,,,,Single-ply,SBD,M
Div 2 Boys,100,DQ,Trey McGahan,Kennedale,92.44,,,,,Single-ply,SBD,M
Div 2 Boys,110,1,Michael Rodriguez,Kingsville King,109.23,365.14,215.46,269.89,850.49,Single-ply,SBD,M
Div 2 Boys,110,2,Sal Marines,Somerset,103.96,294.84,142.88,294.84,732.55,Single-ply,SBD,M
Div 2 Boys,110,3,Trae Taylor,Levelland,105.96,294.84,151.95,278.96,725.75,Single-ply,SBD,M
Div 2 Boys,110,4,Matt Aguilar,Mineral Wells,107.23,294.84,170.1,247.21,712.14,Single-ply,SBD,M
Div 2 Boys,110,5,Morocco Arnold,Texarkana Liberty-Eylau,104.51,254.01,158.76,288.03,700.8,Single-ply,SBD,M
Div 2 Boys,110,6,Seth White,Alvarado,107.14,276.69,172.37,226.8,675.85,Single-ply,SBD,M
Div 2 Boys,110,7,Deanthony Cuney,Jasper,103.6,235.87,181.44,217.72,635.03,Single-ply,SBD,M
Div 2 Boys,110,8,Kevin Houston,Jasper,107.68,249.48,145.15,217.72,612.35,Single-ply,SBD,M
Div 2 Boys,110,9,Jorge Rosas,Madisonville,109.5,247.21,136.08,226.8,610.08,Single-ply,SBD,M
Div 2 Boys,110,10,Garrett Ford,Monahans,109.95,226.8,136.08,222.26,585.13,Single-ply,SBD,M
Div 2 Boys,110,DQ,Erik Zavala,Hillsboro,107.86,251.74,115.67,,,Single-ply,SBD,M
Div 2 Boys,110,DQ,Derek Baynes,Graham,105.41,,,,,Single-ply,SBD,M
Div 2 Boys,125,1,Jerod Thames,Glen Rose,118.39,317.51,199.58,281.23,798.32,Single-ply,SBD,M
Div 2 Boys,125,2,Aaron Liker,Center,113.94,290.3,217.72,267.62,775.64,Single-ply,SBD,M
Div 2 Boys,125,3,Richie Salinas,Kingsville King,124.01,288.03,226.8,251.74,766.57,Single-ply,SBD,M
Div 2 Boys,125,4,Dalton Ford,Buna,118.21,301.64,190.51,272.16,764.3,Single-ply,SBD,M
Div 2 Boys,125,5,Bobby Gonzalez,Raymondville,113.49,317.51,165.56,247.21,730.28,Single-ply,SBD,M
Div 2 Boys,125,6,Brian Pullen,China Spring,123.56,303.91,176.9,249.48,730.28,Single-ply,SBD,M
Div 2 Boys,125,7,Zach Monreal,Devine,121.56,281.23,174.63,263.08,718.94,Single-ply,SBD,M
Div 2 Boys,125,8,Dillen Kilpatrick,Fairfield,110.68,285.76,185.97,226.8,698.53,Single-ply,SBD,M
Div 2 Boys,125,9,Matt Diaz,Stephenville,123.56,281.23,181.44,226.8,689.46,Single-ply,SBD,M
Div 2 Boys,125,10,Ethan Watson,Bonham,122.92,283.5,174.63,226.8,684.92,Single-ply,SBD,M
Div 2 Boys,125,11,Nolan Walker,Coldspring-Oakhurst,123.92,238.14,158.76,272.16,669.05,Single-ply,SBD,M
Div 2 Boys,125,12,Jeremy Garza,Snyder,120.29,235.87,161.03,217.72,614.62,Single-ply,SBD,M
Div 2 Boys,125,13,Michael Powers,Fort Stockton,110.68,199.58,124.74,222.26,546.58,Single-ply,SBD,M
Div 2 Boys,125,DQ,Ricky Clark,Burkburnett,121.56,,,,,Single-ply,SBD,M
Div 2 Boys,125+,1,Willie Hights,Yoakum,157.67,340.19,215.46,249.48,805.13,Single-ply,SBD,M
Div 2 Boys,125+,2,Omar Tebo,Liberty,145.06,299.37,185.97,290.3,775.64,Single-ply,SBD,M
Div 2 Boys,125+,3,Shane Murphy,Robinson,163.93,299.37,208.65,256.28,764.3,Single-ply,SBD,M
Div 2 Boys,125+,4,Jordan Wells,Navasota,127.1,278.96,176.9,281.23,737.09,Single-ply,SBD,M
Div 2 Boys,125+,5,Nate Brown,Kennedale,153.31,272.16,167.83,272.16,712.14,Single-ply,SBD,M
Div 2 Boys,125+,6,Chris Paul,Texarkana Liberty-Eylau,127.82,278.96,185.97,244.94,709.87,Single-ply,SBD,M
Div 2 Boys,125+,7,John Arellano,Athens,132.27,285.76,167.83,249.48,703.07,Single-ply,SBD,M
Div 2 Boys,125+,8,Luis Lopez,Kingsville King,142.79,294.84,151.95,240.4,687.19,Single-ply,SBD,M
Div 2 Boys,125+,9,Garrett Jarrell,Buna,148.23,242.67,158.76,249.48,650.91,Single-ply,SBD,M
Div 2 Boys,125+,10,Nicholas Franco,Pecos,156.94,272.16,158.76,206.38,637.3,Single-ply,SBD,M
Div 2 Boys,125+,11,Nick Ward,Iowa Park,142.79,249.48,142.88,226.8,619.15,Single-ply,SBD,M
Div 2 Boys,125+,12,Byron Lara,Lubbock Cooper,142.43,65.77,242.67,70.31,378.75,Single-ply,SBD,M
Div 2 Boys,,DQ,Jacob Ryder,Needville,,,,,,Single-ply,SBD,M
