Sex,Equipment,Division,WeightClassKg,Name,BodyweightKg,Best3SquatKg,Best3BenchKg,Best3DeadliftKg,TotalKg,Event,Place
F,Wraps,Amateur Submaster,52,Dianne Ciro,51.62,88.45,47.63,106.59,242.67,SBD,1
F,Wraps,Amateur Open,56,Araliya Ming Senerat,54.61,102.06,47.63,124.74,274.42,SBD,1
F,Wraps,Amateur Submaster,56,Brooke L. Feingold,52.53,70.31,52.16,104.33,226.8,SBD,1
F,Raw,Amateur Junior 20-23,60,Pierina Ortiz,58.88,90.72,52.16,113.4,256.28,SBD,1
F,Raw,Amateur Open,60,Pierina Ortiz,58.88,90.72,52.16,113.4,256.28,SBD,1
F,Wraps,Amateur Open,60,Taylor Cannon,59.78,113.4,65.77,151.95,331.12,SBD,1
F,Raw,Amateur Junior 20-23,67.5,Margaret O'Callaghan,62.69,77.11,52.16,120.2,249.48,SBD,1
F,Raw,Amateur Master 40-44,67.5,Jennifer Woodruff,64.86,58.97,43.09,77.11,179.17,SBD,1
F,Raw,Amateur Open,67.5,Sari Woods,66.04,120.2,56.7,138.35,315.25,SBD,1
F,Raw,Amateur Submaster,67.5,Chrisi Stockdale,65.41,86.18,45.36,113.4,244.94,SBD,1
F,Raw,Pro Open,67.5,Nicole Rinaldi,64.68,156.49,104.33,195.04,455.86,SBD,1
F,Wraps,Amateur Open,67.5,Gina Martinez,67.13,106.59,54.43,117.93,278.96,SBD,2
F,Wraps,Amateur Open,67.5,Melissa H Hoff,64.59,133.81,81.65,147.42,362.87,SBD,1
F,Wraps,Amateur Submaster,67.5,Melissa H Hoff,64.59,133.81,81.65,147.42,362.87,SBD,1
F,Wraps,Amateur Teen 14-15,67.5,Faith Lodise,65.95,79.38,40.82,95.25,215.46,SBD,1
F,Raw,Amateur Master 55-59,75,Marcia Brandeau,73.57,81.65,56.7,122.47,260.82,SBD,1
F,Raw,Amateur Open,75,Elyse Velardi,72.03,102.06,63.5,142.88,308.44,SBD,1
F,Raw,Amateur Submaster,75,Autumn Garcia,74.66,90.72,68.04,122.47,281.23,SBD,1
F,Wraps,Amateur Junior 20-23,75,Krystal Ayala,71.49,102.06,45.36,124.74,272.16,SBD,1
F,Wraps,Amateur Master 60-64,75,Faith Yunitis,70.13,83.91,49.9,113.4,247.21,SBD,1
F,Wraps,Amateur Open,75,Sherine Marcelle,74.84,170.1,70.31,167.83,408.23,SBD,1
F,Wraps,Amateur Open,82.5,Shatira Frasier,77.2,120.2,63.5,142.88,326.59,SBD,2
F,Wraps,Amateur Open,82.5,Suzanne Gluck,82.46,142.88,79.38,154.22,376.48,SBD,1
F,Raw,Amateur Open,90,Claudia Law,87.91,161.03,68.04,179.17,408.23,SBD,1
M,Raw,Amateur Master 40-44,60,Justin Klenosky,58.42,29.48,61.23,86.18,176.9,SBD,1
M,Raw,Amateur Master 40-44,67.5,Kevin Woodruff,63.87,127.01,90.72,170.1,387.82,SBD,1
M,Raw,Amateur Master 50-54,67.5,Jeffrey Evans,67.22,117.93,86.18,165.56,369.68,SBD,1
M,Raw,Amateur Open,67.5,Tan Nguyen,63.41,138.35,120.2,172.37,430.91,SBD,2
M,Raw,Amateur Open,67.5,Eric Adolph,67.31,172.37,122.47,231.33,526.17,SBD,1
M,Wraps,Amateur Open,67.5,Nick Vogelsang,67.49,210.92,138.35,224.53,573.79,SBD,1
M,Wraps,Amateur Teen 16-17,67.5,Javier Martinez,65.23,95.25,83.91,151.95,331.12,SBD,1
M,Raw,Amateur Teen 16-17,75,Evan Glasgold,73.94,192.78,127.01,201.85,521.63,SBD,1
M,Raw,Military Amateur Master 45-49,82.5,Hector Diaz,81.01,102.06,72.57,124.74,299.37,SBD,1
M,Raw,Police Amateur Master 45-49,82.5,Hector Diaz,81.01,102.06,72.57,124.74,299.37,SBD,1
M,Wraps,Amateur Teen 16-17,82.5,Kenny Leitch III,80.47,179.17,90.72,204.12,474,SBD,1
M,Wraps,Amateur Teen 18-19,82.5,Kareem El Sayed,79.74,129.27,102.06,165.56,396.89,SBD,1
M,Raw,Amateur Teen 18-19,90,Islam Ibrahim,84.19,204.12,113.4,206.38,523.9,SBD,1
M,Raw,Amateur Teen 18-19,100,Keaton Simmons,97.43,136.08,127.01,158.76,421.84,SBD,3
M,Raw,Amateur Teen 18-19,100,Philip Kandel,96.89,183.7,154.22,233.6,571.53,SBD,2
M,Raw,Amateur Teen 18-19,100,Michael Panas,94.8,219.99,165.56,222.26,607.81,SBD,1
M,Wraps,Amateur Teen 16-17,110,Michael Samson #1,106.5,199.58,111.13,208.65,519.36,SBD,1
M,Wraps,Amateur Teen 18-19,110,Massimo Visca,108.32,222.26,138.35,242.67,603.28,SBD,1
M,Raw,Amateur Junior 20-23,75,Kevin Ganan,73.66,179.17,106.59,226.8,512.56,SBD,1
M,Raw,Amateur Master 40-44,75,Michael D'Alessio,73.3,,120.2,,120.2,B,1
M,Raw,Amateur Open,75,Ioannis Tolis,72.21,90.72,68.04,154.22,312.98,SBD,1
M,Wraps,Amateur Junior 20-23,75,Steven Premus,71.76,138.35,104.33,192.78,435.45,SBD,1
M,Wraps,Amateur Master 50-54,75,Rob Rawn,72.3,185.97,113.4,170.1,469.47,SBD,1
M,Raw,Amateur Open,75,Aaron Bennett,74.3,,149.69,204.12,353.8,BD,2
M,Wraps,Amateur Open,75,Donovan Lee,73.66,161.03,124.74,215.46,501.22,SBD,1
M,Wraps,Crossfit Submaster,75,Sean Queller,73.12,174.63,83.91,226.8,485.34,SBD,1
M,Raw,Amateur Junior 20-23,82.5,Steven Kahn,78.93,165.56,113.4,195.04,474,SBD,1
M,Raw,Amateur Open,82.5,David McCune,80.29,192.78,124.74,197.31,514.83,SBD,1
M,Raw,Police Amateur Open,82.5,Alexander T Vu,78.38,158.76,104.33,190.51,453.59,SBD,1
M,Wraps,Amateur Junior 20-23,82.5,Kevin Quintana,81.74,161.03,129.27,208.65,498.95,SBD,1
M,Wraps,Amateur Master 40-44,82.5,James Davis,82.46,167.83,113.4,213.19,494.42,SBD,1
M,Wraps,Amateur Open,82.5,Vadim Novik,80.29,170.1,117.93,197.31,485.34,SBD,4
M,Wraps,Amateur Open,82.5,Danny Padilla,79.11,183.7,127.01,222.26,532.97,SBD,3
M,Wraps,Amateur Open,82.5,Brian Fama,81.01,188.24,142.88,226.8,557.92,SBD,2
M,Wraps,Amateur Open,82.5,Doug Riley,79.92,208.65,124.74,226.8,560.19,SBD,1
M,Wraps,Amateur Submaster,82.5,Jose Martinez,77.11,235.87,127.01,258.55,621.42,SBD,1
M,Wraps,Pro Open,82.5,Richard Rizzo,80.01,235.87,133.81,272.16,641.83,SBD,2
M,Wraps,Pro Open,82.5,Jerry G Gawel,79.92,226.8,165.56,272.16,664.51,SBD,1
M,Raw,Amateur Junior 20-23,90,Shaquille Coke,89.36,258.55,154.22,256.28,669.05,SBD,2
M,Raw,Amateur Junior 20-23,90,Patrick Pozzi,88,235.87,161.03,272.16,669.05,SBD,1
M,Raw,Amateur Open,90,Rodnel Janvier,87.63,165.56,117.93,233.6,517.1,SBD,4
M,Raw,Amateur Open,90,Chris Nardoni,86.91,204.12,131.54,249.48,585.13,SBD,3
M,Raw,Amateur Open,90,Shaquille Coke,89.36,258.55,154.22,256.28,669.05,SBD,2
M,Raw,Amateur Open,90,Patrick Pozzi,88,235.87,161.03,272.16,669.05,SBD,1
M,Raw,Pro Submaster,90,Greg Hellman,88.72,224.53,185.97,258.55,669.05,SBD,1
M,Wraps,Amateur Junior 20-23,90,Andonios Kouninis,88.18,192.78,97.52,215.46,505.76,SBD,4
M,Wraps,Amateur Junior 20-23,90,Paul Ganim,88,181.44,115.67,226.8,523.9,SBD,3
M,Wraps,Amateur Junior 20-23,90,John Bencio-Medina,86.55,172.37,149.69,226.8,548.85,SBD,2
M,Wraps,Amateur Junior 20-23,90,Louis Ban,88.63,258.55,129.27,272.16,659.98,SBD,1
M,Wraps,Amateur Open,90,James Herrera,88.09,165.56,113.4,183.7,462.66,SBD,8
M,Wraps,Amateur Open,90,Raul Gonzalez,88.63,181.44,117.93,199.58,498.95,SBD,7
M,Wraps,Amateur Open,90,Alexander Perkins,87.63,165.56,95.25,240.4,501.22,SBD,6
M,Wraps,Amateur Open,90,Ben Curran,83.37,176.9,131.54,215.46,523.9,SBD,5
M,Wraps,Amateur Open,90,Ariel Francisco,89.09,170.1,131.54,229.06,530.7,SBD,4
M,Wraps,Amateur Open,90,Anthony Bacarella,89.45,199.58,140.61,244.94,585.13,SBD,3
M,Wraps,Amateur Open,90,Alex Gourlay,89.81,210.92,138.35,276.69,625.96,SBD,2
M,Wraps,Amateur Open,90,Jose Vidal,88.36,242.67,145.15,258.55,646.37,SBD,1
M,Wraps,Pro Open,90,Dave Duprey,87.82,249.48,174.63,283.5,707.6,SBD,1
M,Wraps,Pro Submaster,90,Dave Duprey,87.82,249.48,174.63,283.5,707.6,SBD,1
M,Wraps,Pro Junior 20-23,100,Rob Thomas,96.8,254.01,188.24,240.4,682.66,SBD,1
M,Wraps,Pro Open,100,Rob Thomas,96.8,254.01,188.24,240.4,682.66,SBD,1
M,Wraps,Amateur Submaster,140+,Greg Nardone,149.5,219.99,124.74,260.82,605.55,SBD,1
M,Raw,Amateur Open,140+,Karsten Luca,181.71,,188.24,,188.24,B,1
M,Raw,Amateur Open,100,Peter Baker,97.43,197.31,138.35,226.8,562.45,SBD,3
M,Raw,Amateur Open,100,Christopher Lynch,97.43,204.12,145.15,242.67,591.94,SBD,2
M,Raw,Amateur Open,100,Richard P Tejada,96.34,204.12,145.15,249.48,598.74,SBD,1
M,Wraps,Amateur Open,100,Lamar Robinson,99.06,210.92,151.95,240.4,603.28,SBD,3
M,Wraps,Amateur Open,100,Frank Sergio,97.89,233.6,158.76,219.99,612.35,SBD,2
M,Wraps,Amateur Open,100,Michael Calderone,94.62,238.14,181.44,260.82,680.39,SBD,1
M,Wraps,Pro Submaster,100,Frank D'Angelo,97.79,317.51,210.92,294.84,823.27,SBD,1
M,Multi-ply,Amateur Open,110,Mike Skiba,106.32,362.87,249.48,274.42,886.77,SBD,1
M,Multi-ply,Pro Open,110,Nick Puorro,104.96,374.21,294.84,288.03,957.08,SBD,1
M,Raw,Amateur Open,110,Jacob Cohen,107.41,204.12,138.35,224.53,566.99,SBD,4
M,Raw,Amateur Open,110,Jose Mondolis,107.59,224.53,158.76,226.8,610.08,SBD,3
M,Raw,Amateur Open,110,Wilkins Petitfrere,100.61,204.12,167.83,240.4,612.35,SBD,2
M,Raw,Amateur Open,110,Everett Keller,109.04,219.99,156.49,263.08,639.57,SBD,1
M,Raw,Police Amateur Open,110,Joshua Gluck,108.23,199.58,115.67,208.65,523.9,SBD,1
M,Wraps,Amateur Open,110,Nick Dewig,107.68,208.65,142.88,238.14,589.67,SBD,3
M,Wraps,Amateur Open,110,Donald Bracciodieta Jr,109.68,272.16,158.76,254.01,684.92,SBD,2
M,Wraps,Amateur Open,110,Jeremy Reichling,106.32,240.4,172.37,285.76,698.53,SBD,1
M,Wraps,Crossfit Open,110,Adam Gaudette,108.14,161.03,102.06,195.04,458.13,SBD,1
M,Wraps,Military Amateur Open,110,Adam Gaudette,108.14,161.03,102.06,195.04,458.13,SBD,1
M,Wraps,Police Pro Master 40-44,110,Joseph Albergo,107.59,219.99,174.63,181.44,576.06,SBD,1
M,Wraps,Pro Junior 20-23,110,Daniel V Ryjov,108.86,285.76,215.46,290.3,791.52,SBD,1
M,Wraps,Pro Master 40-44,110,Joseph Albergo,107.59,219.99,174.63,181.44,576.06,SBD,1
M,Raw,Amateur Open,125,Dave Brown #3,123.83,247.21,192.78,303.91,743.89,SBD,1
M,Wraps,Amateur Open,125,Danny DeMichael,115.21,219.99,145.15,238.14,603.28,SBD,2
M,Wraps,Amateur Open,125,Vadim Grel,120.11,306.17,170.1,297.1,773.37,SBD,1
M,Raw,Pro Open,140,Nicholas Lavin,139.8,265.35,156.49,206.38,628.23,SBD,1
M,Wraps,Amateur Open,140,John Bracciodieta,136.53,242.67,111.13,215.46,569.26,SBD,3
M,Wraps,Amateur Open,140,Shaun McDaniel,126.55,249.48,165.56,276.69,691.73,SBD,2
M,Wraps,Amateur Open,140,Stephen Urban,127.64,244.94,183.7,290.3,718.94,SBD,1
M,Wraps,Pro Master 40-44,140,Jack Cucci,131.18,317.51,204.12,294.84,816.47,SBD,1
M,Wraps,Pro Open,140,Peter Skipp,132.63,317.51,210.92,288.03,816.47,SBD,1
M,Wraps,Pro Open,140+,Benjamin Dewig,146.87,285.76,181.44,310.71,777.91,SBD,1
M,Raw,Amateur Master 70-74,90,Artie Miller,88.72,,90.72,161.03,251.74,BD,1
M,Raw,Amateur Master 50-54,125,TD Sarner,114.85,,158.76,238.14,396.89,BD,1
