Place,Sex,Name,Event,Division,WeightClassKg,Equipment,BodyweightKg,Best3SquatKg,Best3BenchKg,Best3DeadliftKg,TotalKg,BirthYear
1,M,Kyle Smith,B,R-T3,90,Raw,85.6,,150,,150,1984
1,M,David Hall,B,R-JR,60,Raw,59,,65,,65,1991
1,M,Michael Parsons,B,R-JR,90,Raw,88.9,,160,,160,1990
1,M,Adam Bell #2,B,R-O,67.5,Raw,63.9,,30,,30,1975
1,M,Shawn Doll,B,R-O,82.5,Raw,78.4,,142.5,,142.5,1985
2,M,Cornaid Rice,B,R-O,82.5,Raw,82.4,,125,,125,1987
1,M,Joshua Pierce,B,R-O,125,Raw,111.6,,182.5,,182.5,1981
1,M,Kelby Sanders,B,R-M1a,90,Raw,87.7,,62.5,,62.5,1973
1,M,Michael Cline,B,R-M1a,100,Raw,97.1,,77.5,,77.5,1974
1,M,Neil Frazier,B,R-M1a,110,Raw,107.5,,72.5,,72.5,1971
1,M,Tony Medaris,B,R-M1a,125+,Raw,141.1,,80,,80,
1,M,Tim Womack,B,R-M2a,110,Raw,108.3,,160,,160,1961
1,M,James Lemon,B,R-M2b,90,Raw,87.5,,40,,40,1956
1,M,Rick Watson,B,R-M3a,82.5,Raw,81.9,,110,,110,1952
1,F,Tamara Ranger,B,R-JR,90+,Raw,91.2,,30,,30,
1,F,Laura Cardell,B,R-O,75,Raw,74.8,,25,,25,1985
1,F,Marsha Long,B,R-M2a,56,Raw,55.3,,87.5,,87.5,1960
1,F,Bea Smith,B,R-M2a,90,Raw,82.6,,30,,30,1961
1,F,Martha Smith,B,R-M2a,90+,Raw,113.9,,30,,30,1963
1,M,Shon Paul Dukes,BD,R-T1,60,Raw,59.8,,65,115,180,
1,M,DeKendrick Graves,SBD,R-T1,67.5,Raw,61.3,37.5,42.5,87.5,167.5,
1,M,Connor McDonald,SBD,R-T1,75,Raw,68,100,75,137.5,312.5,1999
1,M,Seth Strickland,SBD,R-T1,82.5,Raw,77.8,190,130,205,525,1998
1,M,Errol Hurston,SBD,R-T1,100,Raw,96.5,125,75,130,330,1999
1,M,Brandon Donley,SBD,R-T3,67.5,Raw,66.7,157.5,85,220,462.5,1994
1,M,Kyle Smith,SBD,R-T3,90,Raw,85.6,172.5,150,205,527.5,1984
1,M,Blake Powell,SBD,R-T3,100,Raw,96.4,182.5,97.5,205,485,1995
1,M,Steven Lambert,SBD,R-T3,125+,Raw,125.5,52.5,52.5,97.5,202.5,
1,M,Christopher Beggs,SBD,R-Y,52,Raw,39,20,25,62.5,107.5,
1,M,Sean Correia,SBD,R-Y,67.5,Raw,66.1,87.5,55,120,262.5,2000
2,M,Liam McDonald,SBD,R-Y,67.5,Raw,63,20,27.5,62.5,110,2003
1,M,Garrett McDonald,SBD,R-Y,82.5,Raw,79.6,37.5,32.5,85,155,2001
1,M,Ryan Parmer,SBD,T3,67.5,Single-ply,64.3,112.5,67.5,160,340,1994
1,M,David Hall,SBD,R-JR,60,Raw,59,62.5,65,127.5,255,1991
1,M,Jonathan DeCurtis,SBD,R-JR,67.5,Raw,65.8,135,102.5,177.5,415,1992
1,M,Alexander Seguin,SBD,R-JR,82.5,Raw,80.5,170,102.5,212.5,485,1991
1,M,Michael Parsons,SBD,R-JR,90,Raw,88.9,192.5,160,212.5,565,1990
1,M,Aaron Christopher,SBD,R-JR,100,Raw,91.6,122.5,85,122.5,330,1993
2,M,Casey Hutchins,SBD,R-JR,100,Raw,95.5,77.5,70,155,302.5,1990
1,M,Tervelle Lee,SBD,O,75,Single-ply,72.6,147.5,147.5,172.5,467.5,1981
1,M,Travis Greer,SBD,O,100,Single-ply,99.1,237.5,172.5,205,615,1985
1,M,Timothy Helton,S,O,110,Single-ply,107.6,250,,,250,1988
1,M,Thomas Henriques,SBD,R-O,67.5,Raw,65.1,125,112.5,150,387.5,1987
2,M,Josue Macias,SBD,R-O,67.5,Raw,65.4,122.5,87.5,170,380,1986
3,M,James Harmon,SBD,R-O,67.5,Raw,62.4,92.5,72.5,145,310,
1,M,Hoot Gibson,SBD,R-O,75,Raw,73.3,157.5,115,217.5,490,1978
1,M,Dr. Huaiyu Tan,SBD,R-O,82.5,Raw,81.2,172.5,120,200,492.5,
2,M,Ramiro Macias,SBD,R-O,82.5,Raw,81.3,155,105,195,455,1987
3,M,Rocky Ryan,BD,R-O,82.5,Raw,78.2,,67.5,155,222.5,1987
4,M,Allen Hall,S,R-O,82.5,Raw,80.2,82.5,,,82.5,1979
1,M,Jason Webber,SBD,R-O,90,Raw,89,240,137.5,250,627.5,1975
2,M,Christopher Hambre,SBD,R-O,90,Raw,86.4,192.5,120,220,532.5,1987
3,M,Ian Singletary,SBD,R-O,90,Raw,83.9,167.5,135,202.5,505,
4,M,Matthew Sexton,SBD,R-O,90,Raw,87.1,150,125,217.5,492.5,1986
1,M,Chris Slater,SBD,R-O,100,Raw,97.5,240,187.5,277.5,705,1982
2,M,Mark Melancon,SBD,R-O,100,Raw,94.3,227.5,165,255,647.5,1978
3,M,John Malinauskas,SBD,R-O,100,Raw,99.8,215,130,260,605,1984
4,M,Dennis Guinn,SBD,R-O,100,Raw,91.9,157.5,97.5,182.5,437.5,1985
5,M,Carlos Henderson,SBD,R-O,100,Raw,91.6,100,82.5,155,337.5,
1,M,Chris Davis,SBD,R-O,110,Raw,109.1,232.5,175,272.5,680,
2,M,William Holm,SBD,R-O,110,Raw,106.1,227.5,125,232.5,585,1989
3,M,Robbie Dixon,SBD,R-O,110,Raw,107.8,135,75,137.5,347.5,1988
4,M,Sheldon Morris,SBD,R-O,110,Raw,103.5,90,100,150,340,
1,M,Kendrick Rhodes,SBD,R-O,125,Raw,123.7,182.5,137.5,260,580,1986
2,M,Brock Cole,SBD,R-O,125,Raw,112.5,147.5,125,170,442.5,1977
3,M,Austin Young,SBD,R-O,125,Raw,121.6,120,80,165,365,1981
1,M,Terrance Platt,SBD,R-O,125+,Raw,206.4,205,172.5,230,607.5,1984
2,M,Joshua Sprouse,SBD,R-O,125+,Raw,225,125,95,165,385,1984
1,M,Chris McDonald,SBD,M1a,100,Single-ply,94.5,160,127.5,205,492.5,1970
1,M,Donald Bigham,SBD,R-M1a,82.5,Raw,81.9,232.5,150,245,627.5,1972
1,M,Joel Legard,SBD,R-M1a,90,Raw,89.4,195,152.5,245,592.5,1970
2,M,Kelby Sanders,SBD,R-M1a,90,Raw,87.7,82.5,62.5,137.5,282.5,1973
1,M,Chip Holston,SBD,R-M1a,100,Raw,95.8,262.5,162.5,275,700,1974
2,M,Chad Lapp,SBD,R-M1a,100,Raw,96.9,162.5,102.5,195,460,1971
3,M,Michael Cline,SBD,R-M1a,100,Raw,97.1,100,77.5,127.5,305,1974
1,M,Neil Frazier,SBD,R-M1a,110,Raw,107.5,65,72.5,122.5,260,1971
1,M,Jason Brooks,SBD,R-M1a,125+,Raw,141,167.5,127.5,235,530,1973
2,M,Tony Medaris,SBD,R-M1a,125+,Raw,141.1,115,80,145,340,
1,M,Tim Miller,S,M2a,110,Single-ply,106.6,195,,,195,1987
1,M,Terry Stewart,SBD,R-M1b,56,Raw,55.1,15,27.5,47.5,90,1967
1,M,Willard Johnson,SBD,R-M2a,90,Raw,88.7,160,115,182.5,457.5,1964
1,M,David Dunnam,SB,R-M2a,100,Raw,93,182.5,120,,302.5,1964
1,M,Tim Womack,SBD,R-M2a,110,Raw,108.3,75,160,125,360,1961
1,M,James Lemon,SBD,R-M2b,90,Raw,87.4,30,40,80,150,1956
1,M,Curtis Wainwright,SBD,R-M3a,125,Raw,119.9,227.5,147.5,235,610,1954
1,M,Robert Humphreys,SBD,R-M3b,75,Raw,74.6,110,75,135,320,1946
1,M,Thomas Kalen,SBD,R-M4a,82.5,Raw,81.2,147.5,100,150,397.5,1943
1,F,Ashley Zamudio,SBD,R-T2,56,Raw,53.3,80,40,75,195,1997
1,F,Alex Jackson,SBD,R-T2,75,Raw,72.8,170,117.5,200,487.5,1991
1,F,Brittney Sellers,SBD,R-O,67.5,Raw,64.9,75,57.5,130,262.5,1984
1,M,Colin Lapp,D,R-T1,82.5,Raw,75.1,,,142.5,142.5,1998
1,M,Colten Mapoles,BD,R-T3,100,Raw,97.6,,135,217.5,352.5,
1,M,Wheeler Fisher,BD,R-Y,90,Raw,89.9,,27.5,85,112.5,2000
1,M,Samuel Bennett,BD,R-O,60,Raw,56.9,,77.5,155,232.5,1989
1,M,Zach Chism,BD,R-O,67.5,Raw,65.2,,110,150,260,
2,M,Adam Bell #2,BD,R-O,67.5,Raw,63.8,,30,85,115,1975
3,M,Jeffery Brown,BD,R-O,67.5,Raw,62.5,,35,75,110,1976
1,M,Rodrick Powe,BD,R-O,100,Raw,95.8,,167.5,205,372.5,1988
2,M,Justin Murphy,BD,R-O,100,Raw,90.9,,52.5,95,147.5,1986
1,M,Moe Rucker,BD,R-O,125,Raw,124.6,,97.5,157.5,255,
2,M,Rashad Henry,BD,R-O,125,Raw,118.8,,60,145,205,1988
1,M,Jacob Bennett,BD,R-O,125+,Raw,136.2,,72.5,145,217.5,1986
1,M,Peter O'Leary,BD,R-M1b,125,Raw,121.8,,82.5,147.5,230,
1,M,Willard Johnson,BD,R-M2a,90,Raw,88.7,,115,182.5,297.5,1964
1,F,Jerrica Perry,BD,R-T3,67.5,Raw,60.6,,45,125,170,1995
1,F,Tamara Ranger,BD,R-JR,90+,Raw,91.2,,30,75,105,
1,F,Melanie Doll,BD,R-O,56,Raw,54.4,,52.5,102.5,155,1989
1,F,Laura Cardell,BD,R-O,75,Raw,74.8,,25,70,95,1985
1,F,Bea Smith,BD,R-M2a,90,Raw,82.6,,30,70,100,1961
1,F,Martha Smith,BD,R-M2a,90+,Raw,113.9,,30,67.5,97.5,1963
