Place,Name,BirthYear,Country,BodyweightKg,Squat1Kg,Squat2Kg,Squat3Kg,Best3SquatKg,Bench1Kg,Bench2Kg,Bench3Kg,Best3BenchKg,Deadlift1Kg,Deadlift2Kg,Deadlift3Kg,Best3DeadliftKg,TotalKg,WeightClassKg,Division,Equipment,Sex,Event
1,Dariusz Wszoła,1978,Poland,58.66,205,212.5,217.5,217.5,140,147.5,-150,147.5,192.5,200,207.5,207.5,572.5,59,Open,Raw,M,SBD
2,Evgeniy Mukhomedyanov,1981,Russia,58.6,180,195,205,205,120,127.5,-132.5,127.5,205,220,-240,220,552.5,59,Open,Raw,M,SBD
3,Slawomir Sledz,1976,Poland,58.6,170,180,-185,180,130,137.5,-142.5,137.5,185,195,200,200,517.5,59,Open,Raw,M,SBD
4,Oleksii Hlushenkov,1992,Ukraine,58.84,-170,170,-177.5,170,122.5,127.5,-130,127.5,200,-212.5,-212.5,200,497.5,59,Open,Raw,M,SBD
1,Antti Savolainen,1978,Finland,65.8,200,207.5,210,210,145,-150,-150,145,260,270,-283,270,625,66,Open,Raw,M,SBD
2,Sergey Skochek,1983,Russia,65.44,185,-195,-195,185,157.5,162.5,167.5,167.5,210,220,230,230,582.5,66,Open,Raw,M,SBD
3,Sarunas Tolvaisa,1990,Lithuania,65.52,177.5,187.5,195,195,125,132.5,-135,132.5,212.5,222.5,-232.5,222.5,550,66,Open,Raw,M,SBD
DQ,Ryhor Tsiareshchanka,1989,Belarus,65.3,210,217.5,-222.5,217.5,-122.5,122.5,127.5,127.5,-255,-255,-255,,,66,Open,Raw,M,SBD
1,Aliaksandr Hrynkevich-Sudnik,1976,Belarus,73.84,240,245,250,250,120,135,145,145,285,295,300,300,695,74,Open,Raw,M,SBD
2,Oleksandr Makhov,1990,Ukraine,73.24,232.5,242.5,250,250,142.5,150,152.5,152.5,262.5,282.5,-287.5,282.5,685,74,Open,Raw,M,SBD
3,Alexey Bakhirev,1981,Russia,73.84,215,230,-235,230,155,165,-167.5,165,-262.5,267.5,290,290,685,74,Open,Raw,M,SBD
4,Sami Nieminen,1975,Finland,73.64,-217.5,217.5,230,230,147.5,152.5,-155,152.5,285,300,-305,300,682.5,74,Open,Raw,M,SBD
5,Piotr Jakimiuk,1987,Poland,73.7,235,-245,245,245,155,160,162.5,162.5,255,262.5,-277.5,262.5,670,74,Open,Raw,M,SBD
6,Dimitri Didon,1991,France,73.36,225,240,-245,240,130,-135,-135,130,275,285,-290,285,655,74,Open,Raw,M,SBD
7,Chris Wong,1985,UK,71.88,227.5,-235,-235,227.5,130,135,137.5,137.5,267.5,277.5,285,285,650,74,Open,Raw,M,SBD
8,Jorge Pérez Córdoba,1991,Spain,73.24,215,225,230,230,130,140,,140,260,280,-290,280,650,74,Open,Raw,M,SBD
9,Pasi Sipiläinen,1978,Finland,73.42,200,205,-210,205,152.5,157.5,-160,157.5,270,287.5,-292.5,287.5,650,74,Open,Raw,M,SBD
10,Tomáš Juříček,1992,Czechia,72.46,202.5,215,225,225,150,157.5,160,160,240,252.5,-260,252.5,637.5,74,Open,Raw,M,SBD
11,Urban Mur,1993,Slovenia,73.2,210,222.5,230,230,140,145,150,150,227.5,242.5,-252.5,242.5,622.5,74,Open,Raw,M,SBD
12,Sergey Asaturov,1984,Armenia,73.5,-205,-205,205,205,157.5,160,162.5,162.5,220,235,245,245,612.5,74,Open,Raw,M,SBD
13,Carlos Hernández de la Vega,1993,Spain,71.36,215,227.5,-232.5,227.5,122.5,130,135,135,225,237.5,-242.5,237.5,600,74,Open,Raw,M,SBD
14,Sven Sigrist,1988,Switzerland,72.76,190,205,-210,205,122.5,130,135,135,230,245,255,255,595,74,Open,Raw,M,SBD
15,Alexander Khounani,1992,Germany,73.04,205,217.5,-225,217.5,135,145,-147.5,145,210,225,-235,225,587.5,74,Open,Raw,M,SBD
16,Jonas Moell,1989,Denmark,73.4,190,200,-202.5,200,107.5,112.5,-115,112.5,240,255,-260,255,567.5,74,Open,Raw,M,SBD
17,Lukas Degen,1991,Switzerland,73.28,187.5,200,-207.5,200,115,120,122.5,122.5,200,212.5,222.5,222.5,545,74,Open,Raw,M,SBD
18,Žiga Našič,1982,Slovenia,73.82,-190,190,-200,190,122.5,-130,-130,122.5,180,195,-212.5,195,507.5,74,Open,Raw,M,SBD
1,Jure Rus,1991,Slovenia,82.26,260,271.5,275.5,275.5,160,-165,-165,160,285,305,315,315,750.5,83,Open,Raw,M,SBD
2,Jacek Spychała,1978,Poland,82.65,245,252.5,260,260,165,172.5,177.5,177.5,290,305,312.5,312.5,750,83,Open,Raw,M,SBD
3,Konstantin Dyashkin,1984,Russia,82.66,255,-260,260,260,160,167.5,172.5,172.5,290,302.5,-320,302.5,735,83,Open,Raw,M,SBD
4,Anton Karachentsev,1983,Ukraine,78.18,225,235,242.5,242.5,160,170,172.5,172.5,280,300,-320,300,715,83,Open,Raw,M,SBD
5,Romain Picot-Guéraud,1987,France,82.38,250,-260,-260,250,160,167.5,-170,167.5,270,285,-290,285,702.5,83,Open,Raw,M,SBD
6,Simon Svedin,1989,Sweden,82.62,230,240,-245,240,175,182.5,-185,182.5,270,280,-285,280,702.5,83,Open,Raw,M,SBD
7,Daniel Worsley,1993,UK,82.52,240,250,-255,250,160,167.5,170,170,260,270,280,280,700,83,Open,Raw,M,SBD
8,Joris Quai,1992,France,81.76,-250,250,-260,250,155,-160,-160,155,-287.5,287.5,-290,287.5,692.5,83,Open,Raw,M,SBD
9,Joey Ma,1993,Netherlands,82.46,235,245,252.5,252.5,135,140,,140,285,297.5,-307.5,297.5,690,83,Open,Raw,M,SBD
10,Lukasz Matwin,1983,Poland,82.92,235,-242.5,-242.5,235,140,145,-147.5,145,290,305,-312.5,305,685,83,Open,Raw,M,SBD
11,Johan Henriksson,1984,Finland,82.4,247.5,257.5,-262.5,257.5,150,152.5,-155,152.5,265,272.5,-277.5,272.5,682.5,83,Open,Raw,M,SBD
12,Jakob Škarabot,1991,Slovenia,80.8,230,245,252.5,252.5,130,-137.5,137.5,137.5,265,280,290,290,680,83,Open,Raw,M,SBD
13,Giuseppe Manca,1990,Italy,81.6,230,247.5,-260,247.5,137.5,147.5,155,155,245,260,270,270,672.5,83,Open,Raw,M,SBD
14,Carlo Princic,1981,Italy,82.5,220,227.5,-235,227.5,145,152.5,155,155,270,287.5,-292.5,287.5,670,83,Open,Raw,M,SBD
15,Fabian Gerritzen,1987,Germany,81.72,220,230,-240,230,120,125,127.5,127.5,300,-305,305,305,662.5,83,Open,Raw,M,SBD
16,Adam Keane,1993,Ireland,82.34,235,242.5,247.5,247.5,117.5,125,130,130,250,262.5,-272.5,262.5,640,83,Open,Raw,M,SBD
17,Peter Hornyak,1979,Hungary,81.94,207.5,220,-225,220,157.5,-162.5,-162.5,157.5,240,250,257.5,257.5,635,83,Open,Raw,M,SBD
18,Eddie Prizeman,1986,Switzerland,82.04,-217.5,217.5,235,235,157.5,-167.5,-167.5,157.5,-242.5,-242.5,242.5,242.5,635,83,Open,Raw,M,SBD
19,Mark Comiskey,1986,Ireland,79.94,215,220,225,225,145,150,-155,150,230,240,247.5,247.5,622.5,83,Open,Raw,M,SBD
20,Eskild Steenberg Larsen,1988,Denmark,82.5,200,210,-215,210,135,142.5,-145,142.5,-250,260,-272.5,260,612.5,83,Open,Raw,M,SBD
DQ,Óscar Sánchez Mora,1992,Spain,81.1,-190,190,-202.5,190,-130,,,,,,,,,83,Open,Raw,M,SBD
1,Jakub Sedláček,1988,Czechia,90.22,280,297.5,305.5,305.5,210,217.5,220.5,220.5,265,282.5,-295,282.5,808.5,93,Open,Raw,M,SBD
2,Sergey Lupin,1991,Russia,92,270,282.5,292.5,292.5,180,187.5,-195,187.5,280,295,-305,295,775,93,Open,Raw,M,SBD
3,Emil Johansson,1986,Sweden,92.72,240,260,-267.5,260,187.5,195,197.5,197.5,282.5,300,305,305,762.5,93,Open,Raw,M,SBD
4,Nicki Lentz Nielsen,1992,Denmark,91.8,265,282.5,290,290,160,167.5,172.5,172.5,260,272.5,282.5,282.5,745,93,Open,Raw,M,SBD
5,Barry Pigott,1991,Ireland,92.44,-250,255,262.5,262.5,190,197.5,200,200,282.5,-292.5,-295,282.5,745,93,Open,Raw,M,SBD
6,Tanno de Pender,1992,Netherlands,92.06,240,250,255,255,175,180,-182.5,180,280,-302.5,302.5,302.5,737.5,93,Open,Raw,M,SBD
7,Pierre Shillingford,1988,UK,91.84,237.5,247.5,255,255,162.5,-172.5,172.5,172.5,277.5,292.5,300,300,727.5,93,Open,Raw,M,SBD
8,Niklas Jaeggi,1987,Switzerland,88.04,212.5,225,232.5,232.5,140,152.5,160,160,270,290,300,300,692.5,93,Open,Raw,M,SBD
9,Adrián Solana Guerrero,1993,Spain,90.18,227.5,-235,-240,227.5,145,152.5,155,155,295,310,-315,310,692.5,93,Open,Raw,M,SBD
10,Dimitrios Aslanidis,1992,Greece,89.12,290,300,-302.5,300,130,140,-145,140,200,235,247.5,247.5,687.5,93,Open,Raw,M,SBD
11,Kristian Ott Jaari,1993,Germany,91.78,225,237.5,245,245,155,167.5,-170,167.5,255,270,-282.5,270,682.5,93,Open,Raw,M,SBD
12,Alexander Christensen,1992,Denmark,92.5,220,-232.5,232.5,232.5,175,180,-182.5,180,-255,260,270,270,682.5,93,Open,Raw,M,SBD
13,Luka Jelšnik,1992,Slovenia,92.9,230,250,255,255,170,180,-185,180,-240,245,-255,245,680,93,Open,Raw,M,SBD
14,Panagiotis-Athanasios Perentis,1993,Greece,88.68,-240,240,250,250,137.5,142.5,147.5,147.5,255,267.5,275,275,672.5,93,Open,Raw,M,SBD
15,Alexander Taschner,1989,Austria,92.76,210,220,-225,220,140,150,-155,150,250,265,270,270,640,93,Open,Raw,M,SBD
16,Denis Leider,1989,Luxembourg,89.94,192.5,200,205,205,135,140,142.5,142.5,272.5,282.5,287.5,287.5,635,93,Open,Raw,M,SBD
17,Benjamin Gaši,1991,Slovenia,91.44,-205,205,217.5,217.5,125,-130,130,130,270,-280,-280,270,617.5,93,Open,Raw,M,SBD
DQ,Mikalai Haravoi,1990,Belarus,92.2,-290,-290,-290,,,,,,,,,,,93,Open,Raw,M,SBD
DQ,Borislav Adov,1987,Bulgaria,92.64,-280,-290,-290,,,,,,,,,,,93,Open,Raw,M,SBD
1,Krzysztof Wierzbicki,1990,Poland,99.8,290,300,305,305,190,195,-197.5,195,-370,370,390,390,890,105,Open,Raw,M,SBD
2,Ali Ben Hadj Ali,1989,France,102.92,280,300,305,305,180,187.5,190,190,330,350,-370.5,350,845,105,Open,Raw,M,SBD
3,Mikael Gullander,1983,Sweden,103.68,270,282.5,-287.5,282.5,187.5,192.5,-195,192.5,300,312.5,320,320,795,105,Open,Raw,M,SBD
4,Filip Lindström,1989,Sweden,103.8,280,290,-295,290,-190,-190,190,190,290,307.5,315,315,795,105,Open,Raw,M,SBD
5,Ernst Gross,1987,Russia,104.76,-300,300,-310,300,180,190,-192.5,190,295,305,-312.5,305,795,105,Open,Raw,M,SBD
6,Benoit Carole,1987,France,103,270,290,-292.5,290,190,197.5,200,200,285,300,-305,300,790,105,Open,Raw,M,SBD
7,Michael Pennington,1988,UK,104.6,-270,270,-285,270,-190,190,200,200,300,317.5,-327.5,317.5,787.5,105,Open,Raw,M,SBD
8,Mateusz Grzesik,1989,Poland,104.58,270,280,-290,280,185,192.5,-200,192.5,290,300,-325,300,772.5,105,Open,Raw,M,SBD
9,Tim Daniel Konertz,1989,Germany,103.92,252.5,265,272.5,272.5,155,162.5,-170,162.5,300,320,-337.5,320,755,105,Open,Raw,M,SBD
10,Rene Brunner,1976,Austria,104.02,-280,280,-292.5,280,180,-190,-190,180,260,-270,,260,720,105,Open,Raw,M,SBD
11,Karel Rada,1973,Czechia,104.04,260,-275,-275,260,160,165,170,170,270,290,-295,290,720,105,Open,Raw,M,SBD
12,Oliver Zamzow,1978,Germany,103.66,250,257.5,-262.5,257.5,155,-160,-160,155,290,305,-320,305,717.5,105,Open,Raw,M,SBD
13,Mykhailo Hrytsenko,1991,Ukraine,97.16,240,252.5,-257.5,252.5,-175,175,-185,175,280,-300,-300,280,707.5,105,Open,Raw,M,SBD
14,Ádám Gulyás,1988,Hungary,104.5,230,240,-245,240,155,160,-165,160,280,300,305,305,705,105,Open,Raw,M,SBD
15,Emil Therkelsen,1983,Denmark,104.68,240,255,-262.5,255,185,-192.5,,185,240,255,262.5,262.5,702.5,105,Open,Raw,M,SBD
16,Jaka Kržišnik,1992,Slovenia,104.94,237.5,-252.5,-252.5,237.5,160,165,-170,165,270,290,-300,290,692.5,105,Open,Raw,M,SBD
17,Jensen Bo Hoenholt,1986,Denmark,104,225,237.5,-245,237.5,162.5,172.5,-175,172.5,255,275,-282.5,275,685,105,Open,Raw,M,SBD
DQ,Balazs Dr Budai,1979,Hungary,99.28,-185,-185,-185,,135,140,-142.5,140,,,,,,105,Open,Raw,M,SBD
1,Tony Cliffe,1984,UK,119.96,305,-325,325,325,210,222.5,-227.5,222.5,305,325,-363,325,872.5,120,Open,Raw,M,SBD
2,Piotr Sadowski,1993,Poland,118.94,320,-335.5,338,338,200,210,212.5,212.5,300,320,-322.5,320,870.5,120,Open,Raw,M,SBD
3,Viktor Marynenko,1987,Ukraine,119.82,290,302.5,307.5,307.5,192.5,197.5,200,200,302.5,312.5,315,315,822.5,120,Open,Raw,M,SBD
4,Dominik Olexa,1989,Slovakia,118.14,285,305,312.5,312.5,180,190,197.5,197.5,290,305,310,310,820,120,Open,Raw,M,SBD
5,Pavol Demčák,1977,Czechia,117.94,265,280,290,290,215,-220,220,220,270,290,-297.5,290,800,120,Open,Raw,M,SBD
6,Aleksandrs Grigorjevs,1985,Latvia,119.4,-295,295,305,305,-195,195,-200,195,300,-310,-322.5,300,800,120,Open,Raw,M,SBD
7,Michael Schrems,1984,Austria,118.98,272.5,-282.5,282.5,282.5,210,217.5,-222.5,217.5,272.5,285,295,295,795,120,Open,Raw,M,SBD
8,Jørgen Andreas Hansen,1986,Norway,119.64,290,-302.5,-302.5,290,205,210,-215,210,290,295,-300,295,795,120,Open,Raw,M,SBD
9,Iain MacConnachie,1985,UK,117.5,300,320,-337.5,320,180,190,195,195,275,-290,-290,275,790,120,Open,Raw,M,SBD
10,Martin Šafář,1981,Czechia,112.3,265,280,287.5,287.5,180,192.5,-202.5,192.5,262.5,280,-290,280,760,120,Open,Raw,M,SBD
11,Alexander Puerzel,1983,Austria,118.72,250,,,250,150,,,150,310,330,-340,330,730,120,Open,Raw,M,SBD
12,Casper Futtrup,1989,Denmark,114.82,250,260,265,265,170,177.5,-182.5,177.5,260,267.5,272.5,272.5,715,120,Open,Raw,M,SBD
1,Martins Kruze,1988,Latvia,160.68,370,-390,390,390,215,222.5,-225,222.5,315,330,342.5,342.5,955,120+,Open,Raw,M,SBD
2,Siim Rast,1988,Estonia,182.88,335,342.5,,342.5,-230,230,-235,230,330,345,355,355,927.5,120+,Open,Raw,M,SBD
3,Christophe Rebreyend,1988,Netherlands,156.42,315,330,335,335,192.5,-200,200,200,332.5,350,-355,350,885,120+,Open,Raw,M,SBD
4,Rubén Rico Martín,1984,Spain,164.02,-315,-335,335,335,200,215,-225,215,-310,327.5,-337.5,327.5,877.5,120+,Open,Raw,M,SBD
5,Steve Ringoot,1989,Belgium,150.08,307.5,317.5,327.5,327.5,202.5,212.5,220,220,305,315,322.5,322.5,870,120+,Open,Raw,M,SBD
6,Jari Saario,1985,Finland,135.18,-312.5,-317.5,320,320,185,190,195,195,325,-347.5,347.5,347.5,862.5,120+,Open,Raw,M,SBD
7,Kim Gustafsson,1986,Sweden,144.76,267.5,280,290,290,182.5,190,-192.5,190,350,370.5,-383,370.5,850.5,120+,Open,Raw,M,SBD
8,Jordan McLaughlin,1993,UK,140.58,305,320,-327.5,320,210,-222.5,-222.5,210,295,305,312.5,312.5,842.5,120+,Open,Raw,M,SBD
9,Kai Haarala,1982,Finland,145.56,277.5,292.5,-300,292.5,197.5,207.5,-215,207.5,322.5,-345,-345,322.5,822.5,120+,Open,Raw,M,SBD
10,Tadas Gecas,1977,Lithuania,130.28,-267.5,267.5,282.5,282.5,187.5,197.5,-202.5,197.5,-310,310,322.5,322.5,802.5,120+,Open,Raw,M,SBD
DQ,Petros Triantafyllidis,1987,Greece,132.36,-280,-300,-300,,,,,,,,,,,120+,Open,Raw,M,SBD
1,Ilya Marichev,2001,Russia,51.98,125,137.5,-150,137.5,85,92.5,-97.5,92.5,170,178,-185.5,178,408,53,Sub-Juniors,Raw,M,SBD
2,Albert Stankevich,2002,Belarus,52.92,115,-120,-120,115,60,62.5,-67.5,62.5,65,,,65,242.5,53,Sub-Juniors,Raw,M,SBD
1,Vadym Hutnyk,1999,Ukraine,58.92,140,147.5,152.5,152.5,95,100,105.5,105.5,170,180,182.5,182.5,440.5,59,Sub-Juniors,Raw,M,SBD
2,Dylan Potter,1999,Ireland,57.36,140,145,147.5,147.5,95,100,-106,100,162.5,170,175,175,422.5,59,Sub-Juniors,Raw,M,SBD
3,Bartosz Warszczuk,2001,Poland,58.72,140,150,-155,150,72.5,80,82.5,82.5,162.5,172.5,180,180,412.5,59,Sub-Juniors,Raw,M,SBD
4,Jere Kirkanen,2000,Finland,58.96,142.5,-150,-150,142.5,82.5,85,87.5,87.5,162.5,-172.5,-172.5,162.5,392.5,59,Sub-Juniors,Raw,M,SBD
5,Jacob Melvin,1999,UK,57.1,125,132.5,-137.5,132.5,75,80,-85,80,160,-170,-170,160,372.5,59,Sub-Juniors,Raw,M,SBD
1,Vladyslav Makarevych,2000,Ukraine,65.58,152.5,160,165,165,105,112.5,117.5,117.5,-215,215,230.5,230.5,513,66,Sub-Juniors,Raw,M,SBD
2,Malev Petar,2000,Bulgaria,65.28,155,165,-172.5,165,130,135,137.5,137.5,187.5,202.5,210,210,512.5,66,Sub-Juniors,Raw,M,SBD
3,Vyacheslav Pereezchikov,2000,Russia,65.6,160,170,-177.5,170,120,125,-127.5,125,200,210,-220,210,505,66,Sub-Juniors,Raw,M,SBD
4,Julien Berndt,2001,France,64.08,152.5,160,-165,160,105,-110,-110,105,185,195,-202.5,195,460,66,Sub-Juniors,Raw,M,SBD
5,Chris Marshall,1999,UK,60.54,125,132.5,140,140,92.5,97.5,-100,97.5,170,177.5,182.5,182.5,420,66,Sub-Juniors,Raw,M,SBD
6,Grzegorz Gwiazdoń,2000,Poland,65.3,130,-140,140,140,72.5,80,-85,80,170,185,-190,185,405,66,Sub-Juniors,Raw,M,SBD
7,Josef Klíma,1999,Czechia,63.46,145,-155,-155,145,80,-87.5,-87.5,80,167.5,-185,-185,167.5,392.5,66,Sub-Juniors,Raw,M,SBD
8,Jesper Munk Pedersen,2000,Denmark,63.5,95,102.5,-110,102.5,70,72.5,75,75,125,-132.5,-132.5,125,302.5,66,Sub-Juniors,Raw,M,SBD
1,Vitalii Konovaltsev,1999,Russia,72.32,190,200,205,205,107.5,115,-117.5,115,240,250,256,256,576,74,Sub-Juniors,Raw,M,SBD
2,Martin Wilkens,1999,Denmark,73.14,190,200,210,210,97.5,105,110,110,-230,-245,252.5,252.5,572.5,74,Sub-Juniors,Raw,M,SBD
3,Ignas Karaliunas,1999,Lithuania,73.5,-180,185,192.5,192.5,110,115,120,120,210,220,225,225,537.5,74,Sub-Juniors,Raw,M,SBD
4,Jakub Lenart,2001,Poland,73.18,-185,-185,190,190,125,132.5,137.5,137.5,190,200,207.5,207.5,535,74,Sub-Juniors,Raw,M,SBD
5,Yevhenii Kasyanchuk,1999,Ukraine,70,160,167.5,175,175,122.5,130,-135,130,180,200,-210,200,505,74,Sub-Juniors,Raw,M,SBD
6,Sam Kuti,1999,UK,73.3,150,160,-165,160,95,100,105,105,-217.5,217.5,227.5,227.5,492.5,74,Sub-Juniors,Raw,M,SBD
7,Rado Bohinc Rene,2000,Slovenia,71.2,-130,-130,130,130,95,100,105,105,165,180,-190,180,415,74,Sub-Juniors,Raw,M,SBD
8,Harrison Wall,2000,UK,70.3,127.5,137.5,-145,137.5,80,85,90,90,150,160,165,165,392.5,74,Sub-Juniors,Raw,M,SBD
1,Karel Rada,2001,Czechia,81.72,200,215,220,220,107.5,115,120,120,215,230,235,235,575,83,Sub-Juniors,Raw,M,SBD
2,Sverre Van Geeteruyen,2000,Belgium,81.14,190,-200,200,200,140,145,-150.5,145,210,217.5,-225,217.5,562.5,83,Sub-Juniors,Raw,M,SBD
3,Stivan Garov,1999,Bulgaria,80.54,180,190,195,195,120,130,-135,130,220,235,-250,235,560,83,Sub-Juniors,Raw,M,SBD
4,Marshall Packer,2001,UK,82.04,175,185,192.5,192.5,95,102.5,-105,102.5,192.5,-205,205,205,500,83,Sub-Juniors,Raw,M,SBD
5,Nicholas Grasmeder,1999,UK,79.22,155,162.5,-170,162.5,92.5,97.5,-105,97.5,160,170,175,175,435,83,Sub-Juniors,Raw,M,SBD
1,Ali Hamdan,1999,Norway,92.96,235,248,263,263,145,152.5,160,160,257.5,-272.5,-272.5,257.5,680.5,93,Sub-Juniors,Raw,M,SBD
2,Antons Putnis,2000,Latvia,92.5,-217.5,-220,225,225,147.5,152.5,157.5,157.5,230,240,247.5,247.5,630,93,Sub-Juniors,Raw,M,SBD
3,Jesper Steenstrup Vogelius,2000,Denmark,91.98,210,230,235,235,140,150,,150,240,-260,-260,240,625,93,Sub-Juniors,Raw,M,SBD
4,Pawel Przybojewski,1999,Poland,88.92,210,220,227.5,227.5,120,130,137.5,137.5,235,247.5,-260,247.5,612.5,93,Sub-Juniors,Raw,M,SBD
5,Anton Biruk,2000,Ukraine,89.1,212.5,222.5,230,230,120,125,130,130,235,250,-265,250,610,93,Sub-Juniors,Raw,M,SBD
6,Marcus Kruse,1999,Denmark,91.88,180,195,200,200,130,142.5,-150,142.5,220,235,242.5,242.5,585,93,Sub-Juniors,Raw,M,SBD
7,Kalvis Daukste,1999,Latvia,92.2,190,200,-205,200,125,130,132.5,132.5,230,-240,-240,230,562.5,93,Sub-Juniors,Raw,M,SBD
8,Mihaly Szimcsina,1999,Hungary,91.96,185,-200,200,200,110,-120,-120,110,235,245,-250,245,555,93,Sub-Juniors,Raw,M,SBD
1,Uladzislau Papelski,1999,Belarus,101.68,220,227.5,-232.5,227.5,175,180,183,183,260,265,-270,265,675.5,105,Sub-Juniors,Raw,M,SBD
2,Vladyslav Denysiuk,1999,Ukraine,103.82,230,-242.5,-242.5,230,145,152.5,157.5,157.5,260,280,-290,280,667.5,105,Sub-Juniors,Raw,M,SBD
3,Edwin Lord,1999,UK,99.32,175,187.5,197.5,197.5,125,132.5,140,140,235,250,260,260,597.5,105,Sub-Juniors,Raw,M,SBD
4,Alex Dietz,1999,Denmark,101.08,175,185,192.5,192.5,115,122.5,130,130,180,190,195,195,517.5,105,Sub-Juniors,Raw,M,SBD
5,Ray Bowring,2002,UK,103.7,140,152.5,160,160,75,80,85,85,140,155,165,165,410,105,Sub-Juniors,Raw,M,SBD
6,Fillip Andersen,2000,Denmark,100.74,130,140,147.5,147.5,77.5,82.5,87.5,87.5,147.5,155,165,165,400,105,Sub-Juniors,Raw,M,SBD
1,Marcus Boesen,1999,Denmark,118.84,240,260,276,276,162.5,170,175,175,260,270.5,282.5,282.5,733.5,120,Sub-Juniors,Raw,M,SBD
2,Bradley May,1999,UK,118.08,240,-257.5,-257.5,240,137.5,-145,145,145,-235,235,252.5,252.5,637.5,120,Sub-Juniors,Raw,M,SBD
3,Frederik Siebtsen,1999,Denmark,116.58,217.5,222.5,-230,222.5,127.5,-132.5,-132.5,127.5,250,-255,,250,600,120,Sub-Juniors,Raw,M,SBD
1,Ihor Orobets,2000,Ukraine,120.94,155,165,170,170,115,125,130,130,185,200,210,210,510,120+,Sub-Juniors,Raw,M,SBD
1,Egidijus Valčiukas,1998,Lithuania,52.62,175,-191,191,191,105,115,-125,115,125,135,-142.5,135,441,53,Juniors,Raw,M,SBD
1,Vladyslav Yermishyn,1994,Ukraine,58.66,160,167.5,172.5,172.5,-120,120,127.5,127.5,205,212.5,-223,212.5,512.5,59,Juniors,Raw,M,SBD
2,Boris Komissarov,1998,Russia,56.62,-180,180,-190,180,120,125,127.5,127.5,175,185,192.5,192.5,500,59,Juniors,Raw,M,SBD
3,Alejandro Ivars Amor,1994,Spain,58.02,150,-162.5,-162.5,150,95,100,-105,100,215.5,222.5,-223.5,222.5,472.5,59,Juniors,Raw,M,SBD
4,Michal Anuszek,1998,Poland,58.78,160,170,175,175,95,100,-102.5,100,180,192.5,-200,192.5,467.5,59,Juniors,Raw,M,SBD
5,Nicolas Ame,1998,France,58.38,155,162.5,-165,162.5,105,110,-112.5,110,170,180,-205,180,452.5,59,Juniors,Raw,M,SBD
1,Eddie Berglund,1995,Sweden,65.74,205,217.5,-225,217.5,-182.5,182.5,-190,182.5,205,-217.5,217.5,217.5,617.5,66,Juniors,Raw,M,SBD
2,Frédéric Mannequin,1994,France,65.38,205,-210,,205,130,135,,135,220,232.5,-237.5,232.5,572.5,66,Juniors,Raw,M,SBD
3,Sebastian Preine,1995,Germany,65.74,185,-195,195,195,112.5,-117.5,-117.5,112.5,230,-253,-253,230,537.5,66,Juniors,Raw,M,SBD
4,Tom Chang,1994,UK,65.32,167.5,-177.5,-177.5,167.5,120,127.5,-130,127.5,215,230,-237.5,230,525,66,Juniors,Raw,M,SBD
5,Lukas Moesgaard,1994,Denmark,65.16,172.5,182.5,185,185,122.5,127.5,132.5,132.5,192.5,205,-210,205,522.5,66,Juniors,Raw,M,SBD
6,Florian Nativel,1998,France,65.44,175,182.5,187.5,187.5,140,-145,-145,140,190,-200,-200,190,517.5,66,Juniors,Raw,M,SBD
1,Matti Christensen,1995,Denmark,73.94,230,240,-245,240,185,190,-195.5,190,210,220,227.5,227.5,657.5,74,Juniors,Raw,M,SBD
2,Daniel Ilczyszyn,1994,Poland,73.84,215,222.5,-225,222.5,-152.5,152.5,157.5,157.5,245,255,260,260,640,74,Juniors,Raw,M,SBD
3,Alexander Kapturov,1995,Russia,73.78,225,235,240,240,125,-130,130,130,242.5,250,255,255,625,74,Juniors,Raw,M,SBD
4,Jack Suljevic,1996,UK,73.98,-217.5,217.5,225,225,117.5,-125,125,125,250,-260,-260,250,600,74,Juniors,Raw,M,SBD
5,David Racz,1996,Hungary,73.46,185,192.5,197.5,197.5,145,152.5,155,155,215,227.5,230,230,582.5,74,Juniors,Raw,M,SBD
6,Cédric Letellier,1995,France,72.4,-217.5,217.5,-222.5,217.5,137.5,142.5,-145,142.5,220,-230,-230,220,580,74,Juniors,Raw,M,SBD
7,Eligijus Greviskis,1995,Lithuania,73.46,200,210,-217.5,210,140,-145,-145,140,-215,215,-235,215,565,74,Juniors,Raw,M,SBD
8,Albertas Motiecius,1994,Lithuania,72.3,180,190,-197.5,190,147.5,152.5,155,155,-180,190,210,210,555,74,Juniors,Raw,M,SBD
9,Corneilius-Bruno Lehnart,1994,Germany,72.94,165,180,190,190,-115,115,120,120,225,-245,-245,225,535,74,Juniors,Raw,M,SBD
1,Stanislav Zdrobylko,1995,Ukraine,82.48,240,247.5,252.5,252.5,172.5,177.5,-180,177.5,245,-250,-250,245,675,83,Juniors,Raw,M,SBD
2,Salman Khan,1995,UK,81.08,210,222.5,-227.5,222.5,142.5,150,155,155,260,275,282.5,282.5,660,83,Juniors,Raw,M,SBD
3,Martin Engquist,1996,Sweden,82.74,230,-240,-240,230,130,135,,135,270,288,290.5,290.5,655.5,83,Juniors,Raw,M,SBD
4,Radomil Vašík,1994,Czechia,81.78,-237.5,237.5,242.5,242.5,132.5,-137.5,137.5,137.5,262.5,275,-282.5,275,655,83,Juniors,Raw,M,SBD
5,Eric Mata,1996,UK,82.6,-235,-235,235,235,-150,150,-157.5,150,-260,-260,260,260,645,83,Juniors,Raw,M,SBD
6,Matias Kulmala,1994,Finland,82.7,-215,215,225,225,177.5,185,-187.5,185,235,-245,-247.5,235,645,83,Juniors,Raw,M,SBD
7,Chido Nnoli,1997,Norway,81.82,210,220,225,225,120,127.5,132.5,132.5,270,285,-290,285,642.5,83,Juniors,Raw,M,SBD
8,Jan Kobek,1995,Germany,81.34,217.5,230,-237.5,230,127.5,132.5,135,135,240,250,260,260,625,83,Juniors,Raw,M,SBD
9,Paulius Pupinis,1994,Lithuania,77.98,210,-220,222.5,222.5,145,150,-155,150,230,250,-270,250,622.5,83,Juniors,Raw,M,SBD
10,Teemu Hällfors,1995,Finland,80.24,170,205,220,220,172.5,-177.5,-177.5,172.5,210,230,-232.5,230,622.5,83,Juniors,Raw,M,SBD
11,Patryk Bolek,1994,Denmark,82.3,205,210,215,215,135,-140,-140,135,250,260,-285,260,610,83,Juniors,Raw,M,SBD
12,Lorcan Everard,1997,Ireland,79.72,207.5,215,222.5,222.5,117.5,122.5,127.5,127.5,235,250,-255,250,600,83,Juniors,Raw,M,SBD
13,Damian Maslinski,1995,Poland,80.78,230,-235,-235,230,130,-140,-140,130,230,-245,-245,230,590,83,Juniors,Raw,M,SBD
14,Jordan Konczak,1998,Ireland,81.96,200,207.5,-210,207.5,117.5,125,130,130,220,-227.5,-227.5,220,557.5,83,Juniors,Raw,M,SBD
15,Matjaz Smrtnik,1996,Austria,81.02,180,190,200,200,117.5,125,-130,125,200,207.5,-212.5,207.5,532.5,83,Juniors,Raw,M,SBD
16,Jesper Jacobsen,1995,Denmark,81.84,220,230,,230,132.5,137.5,140,140,150,,,150,520,83,Juniors,Raw,M,SBD
1,Gustav Hedlund,1995,Sweden,89.38,260,275,282.5,282.5,180,187.5,-192.5,187.5,300,315,-327.5,315,785,93,Juniors,Raw,M,SBD
2,Knut Martin Haraldsen,1994,Norway,91.66,250,262.5,267.5,267.5,195,203,-205.5,203,270,285,300,300,770.5,93,Juniors,Raw,M,SBD
3,Teodor Radev,1994,Bulgaria,91.24,255,262.5,-267.5,262.5,182.5,187.5,-192.5,187.5,-290,300,302.5,302.5,752.5,93,Juniors,Raw,M,SBD
4,Bob van den Boogaard,1995,Netherlands,90.98,280,-287.5,-287.5,280,162.5,167.5,170,170,280,292.5,300,300,750,93,Juniors,Raw,M,SBD
5,Rocco Grillo,1994,Italy,91.78,250,262.5,270,270,165,175,-180,175,-260,270,292.5,292.5,737.5,93,Juniors,Raw,M,SBD
6,David Kulcsar,1996,Hungary,90.44,245,,,245,172.5,180,-185,180,285,300,305,305,730,93,Juniors,Raw,M,SBD
7,Joakim Joergensen,1994,Denmark,92.18,235,-242.5,245,245,160,165,-170,165,272.5,287.5,-300,287.5,697.5,93,Juniors,Raw,M,SBD
8,Yevhen Petren,1995,Ukraine,92.92,260,275,-280,275,135,142.5,-147.5,142.5,-275,275,-305,275,692.5,93,Juniors,Raw,M,SBD
9,Mathias Wallner,1994,Austria,92.38,225,240,-245,240,167.5,175,-180,175,235,252.5,267.5,267.5,682.5,93,Juniors,Raw,M,SBD
10,Jiří Váchal,1994,Czechia,91.62,225,240,247.5,247.5,140,-145,145,145,240,260,-265,260,652.5,93,Juniors,Raw,M,SBD
11,Emanuel Persson,1994,Sweden,93,240,-250,-250,240,150,-160,,150,260,,,260,650,93,Juniors,Raw,M,SBD
12,Kenneth Nwaezeigwe,1994,Ireland,91.54,-237.5,237.5,242.5,242.5,132.5,-137.5,137.5,137.5,252.5,260,265,265,645,93,Juniors,Raw,M,SBD
13,Rasmus Joergensen,1994,Denmark,88.7,200,212.5,225,225,142.5,150,155,155,215,230,240,240,620,93,Juniors,Raw,M,SBD
14,Shane Corbett,1998,Ireland,90.1,210,217.5,220,220,125,130,132.5,132.5,245,255,260,260,612.5,93,Juniors,Raw,M,SBD
15,Domen Sešel,1995,Slovenia,91.88,195,-207.5,-207.5,195,125,130,-132.5,130,227.5,240,245,245,570,93,Juniors,Raw,M,SBD
DQ,Rob Esselens,1994,Belgium,91.88,-245,-245,-245,,175,182.5,-190,182.5,255,262.5,-265,262.5,,93,Juniors,Raw,M,SBD
DQ,Sion Hughes,1994,UK,92.18,-260,-260,-260,,155,162.5,-165,162.5,265,277.5,287.5,287.5,,93,Juniors,Raw,M,SBD
1,Jokubas Stasiulis,1995,Lithuania,103.48,255,265,270,270,192.5,200,-202.5,200,270,285,295,295,765,105,Juniors,Raw,M,SBD
2,Sergii Kovalenko,1994,Ukraine,104.34,257.5,270,-277.5,270,170,177.5,182.5,182.5,275,290,295,295,747.5,105,Juniors,Raw,M,SBD
3,Alexander Vermetten,1994,Netherlands,102.18,240,250,-255,250,160,-170,-170,160,310,331,333,333,743,105,Juniors,Raw,M,SBD
4,Gergo Opra,1994,Hungary,102.02,-245,245,265,265,175,182.5,-187.5,182.5,275,290,295,295,742.5,105,Juniors,Raw,M,SBD
5,Josh Edwards #1,1994,UK,102.14,235,250,260,260,145,152.5,155,155,305,320,-330,320,735,105,Juniors,Raw,M,SBD
6,Alan Peeters,1994,Belgium,104.1,-245,245,-267.5,245,182.5,-190,190,190,275,292.5,-310,292.5,727.5,105,Juniors,Raw,M,SBD
7,Gilbertas Tamulevicius,1996,Lithuania,103.76,260,-267.5,-270,260,170,177.5,-182.5,177.5,272.5,285,-300,285,722.5,105,Juniors,Raw,M,SBD
8,Joshua Greenfield,1994,UK,104.82,267.5,-282.5,-282.5,267.5,157.5,160,-162.5,160,272.5,285,-302.5,285,712.5,105,Juniors,Raw,M,SBD
9,Lucas Hügerich,1994,Germany,102.08,250,265,272.5,272.5,162.5,167.5,-170,167.5,245,257.5,267.5,267.5,707.5,105,Juniors,Raw,M,SBD
10,Jaroslav Němec,1998,Czechia,99.9,250,257.5,-262.5,257.5,175,182.5,-185,182.5,265,-275,-282.5,265,705,105,Juniors,Raw,M,SBD
11,Ingvi Örn Friðriksson,1994,Iceland,102.5,237.5,250,255,255,137.5,-147.5,152.5,152.5,265,280,295,295,702.5,105,Juniors,Raw,M,SBD
12,Janne Marttila,1995,Finland,102.74,250,260,-270,260,160,165,-167.5,165,277.5,-285,-285,277.5,702.5,105,Juniors,Raw,M,SBD
13,Daniel Fischer,1995,Denmark,103.92,220,-230,230,230,155,165,170,170,265,282.5,-287.5,282.5,682.5,105,Juniors,Raw,M,SBD
14,Matic Hren,1994,Slovenia,104.12,215,225,230,230,150,155,,155,265,-275,-275,265,650,105,Juniors,Raw,M,SBD
1,Mark Macqueen,1994,UK,119.64,292.5,310,321,321,172.5,182.5,187.5,187.5,297.5,315,325,325,833.5,120,Juniors,Raw,M,SBD
2,Mehmet Kaya,1996,Sweden,114.42,275,295,312.5,312.5,175,180,182.5,182.5,285,-307.5,,285,780,120,Juniors,Raw,M,SBD
3,Ole Soerbo Borup,1994,Denmark,118.74,-235,245,257.5,257.5,165,-172.5,-172.5,165,295,-312.5,-312.5,295,717.5,120,Juniors,Raw,M,SBD
4,Benjamin Faal,1994,Netherlands,115.66,220,240,245,245,120,-135,-135,120,-275,-275,287.5,287.5,652.5,120,Juniors,Raw,M,SBD
1,Luke Richardson #1,1997,UK,126.46,305,322.5,-332.5,322.5,170,180,-185,180,310,325,332.5,332.5,835,120+,Juniors,Raw,M,SBD
2,Pavlo Nakonechnyy,1997,Ukraine,148.56,-305,305,-310,305,170,180,187.5,187.5,290,310,-345.5,310,802.5,120+,Juniors,Raw,M,SBD
3,Erik Røen,1996,Norway,132.1,275,290,-295,290,175,182.5,-187.5,182.5,302.5,317.5,-330,317.5,790,120+,Juniors,Raw,M,SBD
4,Toams Kral,1996,Czechia,138.34,240,250,-257.5,250,170,-177.5,-177.5,170,260,270,-280,270,690,120+,Juniors,Raw,M,SBD
5,Martin Stoevring Nielsen,1994,Denmark,136.44,220,227.5,232.5,232.5,150,162.5,170,170,245,260,267.5,267.5,670,120+,Juniors,Raw,M,SBD
1,Kristine Almroth,1988,Sweden,46.52,120,130,135,135,70,77.5,80,80,140,150,155,155,370,47,Open,Raw,F,SBD
2,Johanna Forsström,1988,Finland,46.9,100,105,-107.5,105,72.5,75,-77.5,75,145,-150,-150,145,325,47,Open,Raw,F,SBD
3,Noémie Allabert,1990,France,46.04,-107.5,107.5,-112.5,107.5,57.5,-62.5,-62.5,57.5,130,140,145,145,310,47,Open,Raw,F,SBD
4,Natallia Yakimuk,1990,Belarus,46.24,110,115,-117.5,115,57.5,60,-62.5,60,135,-140,-140,135,310,47,Open,Raw,F,SBD
5,Stéphanie Legard,1981,France,46.38,-115,115,-120,115,65,-67.5,-67.5,65,122.5,127.5,-137.5,127.5,307.5,47,Open,Raw,F,SBD
6,Rebecca Heath,1977,UK,46.32,100,105,110,110,62.5,65,67.5,67.5,115,125,-135,125,302.5,47,Open,Raw,F,SBD
7,Coline Sirman,1990,Switzerland,46.62,72.5,77.5,82.5,82.5,52.5,57.5,60,60,107.5,112.5,115,115,257.5,47,Open,Raw,F,SBD
1,Olga Golubeva,1970,Russia,51.44,135,140,145,145,95,100,102.5,102.5,162.5,170,177.5,177.5,425,52,Open,Raw,F,SBD
2,Hanna Rantala,1982,Finland,51.6,115,122.5,125,125,92.5,97.5,-100,97.5,140,147.5,-152.5,147.5,370,52,Open,Raw,F,SBD
3,Sophia Waldemarson,1988,Sweden,50.86,112.5,-117.5,117.5,117.5,87.5,92.5,-97.5,92.5,140,145,150,150,360,52,Open,Raw,F,SBD
4,Emma Goodwin,1987,UK,51.36,-110,110,-115,110,65,-67.5,67.5,67.5,160,-167.5,-170,160,337.5,52,Open,Raw,F,SBD
5,Katja Babič,1993,Slovenia,52,115,-125,127.5,127.5,55,62.5,65,65,125,140,142.5,142.5,335,52,Open,Raw,F,SBD
6,Maria Ushakova,1986,Russia,51.58,97.5,102.5,107.5,107.5,80,-85,-85,80,140,145,-152.5,145,332.5,52,Open,Raw,F,SBD
7,Silvia Prosperi,1992,Italy,51.26,100,105,110,110,62.5,65,67.5,67.5,120,130,140,140,317.5,52,Open,Raw,F,SBD
8,Laura Walsh,1984,Ireland,50.06,107.5,112.5,115,115,62.5,65,67.5,67.5,120,125,130,130,312.5,52,Open,Raw,F,SBD
1,Joy Nnamani,1992,UK,53.7,135,142.5,147.5,147.5,75,80,82.5,82.5,-182.5,-182.5,182.5,182.5,412.5,57,Open,Raw,F,SBD
2,Caroline Sune,1985,France,56.28,145,150,152.5,152.5,75,80,82.5,82.5,160,165,172.5,172.5,407.5,57,Open,Raw,F,SBD
3,Victoria Jeppsson,1993,Sweden,54.72,125,132.5,137.5,137.5,72.5,77.5,80,80,157.5,167.5,175,175,392.5,57,Open,Raw,F,SBD
4,Ellie Steel,1991,UK,56.56,130,-137.5,137.5,137.5,85,-90,-90,85,152.5,162.5,-170,162.5,385,57,Open,Raw,F,SBD
5,Elena Shcherbakova,1985,Russia,56.78,135,-140,140,140,85,90,92.5,92.5,147.5,152.5,-157.5,152.5,385,57,Open,Raw,F,SBD
6,Mélodie Anthouard,1988,France,56.46,130,-135,135,135,95,100,103,103,-145,145,-152.5,145,383,57,Open,Raw,F,SBD
7,Cornelia Larsen,1980,Denmark,54.86,-117.5,-120,120,120,92.5,97.5,100,100,132.5,142.5,150,150,370,57,Open,Raw,F,SBD
8,Hanna Seppä,1993,Finland,56.46,120,-125,125,125,60,67.5,72.5,72.5,-152.5,-162.5,162.5,162.5,360,57,Open,Raw,F,SBD
9,Marjaana Vähäsantanen,1976,Finland,56.82,125,130,132.5,132.5,70,72.5,-75,72.5,140,145,-150,145,350,57,Open,Raw,F,SBD
DQ,Sylwia Martyniuk,1980,Poland,56.12,-130,-130,-130,,70,72.5,75,75,145,-150,-150,145,,57,Open,Raw,F,SBD
1,Ivana Horná,1990,Slovakia,62.32,157.5,162.5,167.5,167.5,87.5,95,-100,95,200,210,215,215,477.5,63,Open,Raw,F,SBD
2,Tanja Stenholdt Olsen,1990,Denmark,61.74,142.5,150,155,155,75,80,-82.5,80,177.5,192.5,-197.5,192.5,427.5,63,Open,Raw,F,SBD
3,Stina Lindell,1988,Finland,62.08,152.5,160,-165,160,80,-85,-85,80,172.5,185,187.5,187.5,427.5,63,Open,Raw,F,SBD
4,Tamara Thomsen,1982,Germany,62.62,155,160,-165,160,85,-87.5,-87.5,85,175,-177.5,-182.5,175,420,63,Open,Raw,F,SBD
5,Sabrina Moore,1989,UK,62.66,132.5,140,-145,140,-85,-85,85,85,175,187.5,192.5,192.5,417.5,63,Open,Raw,F,SBD
6,Brónagh McPeake,1992,Ireland,62.1,150,157.5,-162.5,157.5,70,75,77.5,77.5,162.5,172.5,180,180,415,63,Open,Raw,F,SBD
7,Claire Mc Glynn,1987,Ireland,62.76,132.5,137.5,142.5,142.5,60,65,67.5,67.5,160,-167.5,-167.5,160,370,63,Open,Raw,F,SBD
8,Anne Daineffe,1982,Belgium,61.88,122.5,127.5,-132.5,127.5,70,75,77.5,77.5,142.5,147.5,152.5,152.5,357.5,63,Open,Raw,F,SBD
9,Eugenia Orlando,1989,Italy,62.08,110,115,120,120,75,80,-82.5,80,140,147.5,-152.5,147.5,347.5,63,Open,Raw,F,SBD
10,Lenka Strolená,1984,Czechia,62.04,120,-125,,120,70,-77.5,-77.5,70,130,140,,140,330,63,Open,Raw,F,SBD
1,Isabella von Weissenberg,1989,Sweden,71.54,180,190,192.5,192.5,95,-100,-100,95,200,207.5,-215,207.5,495,72,Open,Raw,F,SBD
2,Annika Zelander,1988,Sweden,71.62,167.5,172.5,177.5,177.5,110,115,-120,115,185,195,-205,195,487.5,72,Open,Raw,F,SBD
3,Ankie Timmers,1986,Netherlands,70.96,147.5,152.5,155,155,97.5,-100,-100,97.5,185,192.5,202.5,202.5,455,72,Open,Raw,F,SBD
4,Annemari Larsen Loeberg,1992,Norway,71.5,155,160,-162.5,160,70,-75,-75,70,185,195,202.5,202.5,432.5,72,Open,Raw,F,SBD
5,Gwen Mostert,1985,Netherlands,68.46,125,130,135,135,82.5,87.5,-90,87.5,167.5,177.5,-195,177.5,400,72,Open,Raw,F,SBD
6,Shannon Pollock,1987,Ireland,71.06,147.5,152.5,155,155,70,72.5,75,75,160,170,-177.5,170,400,72,Open,Raw,F,SBD
7,Karen Barry,1966,Ireland,69.74,137.5,145,150,150,77.5,80,82.5,82.5,150,157.5,-170,157.5,390,72,Open,Raw,F,SBD
8,Luisa Torrisi,1982,Italy,71.22,130,137.5,145,145,70,75,-77.5,75,130,-142.5,-142.5,130,350,72,Open,Raw,F,SBD
9,Ros Becker Birgit,1989,Iceland,71.32,157.5,162.5,165,165,72.5,77.5,-80,77.5,75,,,75,317.5,72,Open,Raw,F,SBD
10,Maria Letnes,1991,Norway,71.62,80,100,,100,107.5,112.5,-115,112.5,65,,,65,277.5,72,Open,Raw,F,SBD
1,Ielja Strik,1973,Netherlands,83.74,190,200,205,205,127.5,-132.5,132.5,132.5,180,190,200,200,537.5,84,Open,Raw,F,SBD
2,Sniazhana Zubko,1991,Belarus,81.34,187.5,-195,-197.5,187.5,90,95,97.5,97.5,200,210,217.5,217.5,502.5,84,Open,Raw,F,SBD
3,Clara Fridén,1992,Sweden,81.7,152.5,160,-165,160,107.5,112.5,-115,112.5,175,187.5,197.5,197.5,470,84,Open,Raw,F,SBD
4,Silvia Szarvas,1984,Germany,82.58,145,155,160,160,117.5,122.5,127.5,127.5,162.5,172.5,182.5,182.5,470,84,Open,Raw,F,SBD
5,Lise Frederiksen,1982,Denmark,81.38,145,155,160,160,80,87.5,-92.5,87.5,160,177.5,182.5,182.5,430,84,Open,Raw,F,SBD
6,Charlie Shotton-Gale,1983,UK,84,147.5,155,-160,155,90,95,-97.5,95,170,-180,180,180,430,84,Open,Raw,F,SBD
7,Anne Karlsen,1992,Denmark,77.48,130,140,145,145,72.5,77.5,-80,77.5,175,190,-197.5,190,412.5,84,Open,Raw,F,SBD
1,Emelie Pettersson,1980,Sweden,114.76,200,210,-215,210,120,125,-127.5,125,200,210,212.5,212.5,547.5,84+,Open,Raw,F,SBD
2,Johanna Laitinen,1986,Finland,102.38,165,172.5,177.5,177.5,105,110,112.5,112.5,185,202.5,210,210,500,84+,Open,Raw,F,SBD
3,Camille Holland,1988,UK,115.54,190,202.5,210,210,92.5,102.5,-110,102.5,170,180,-190,180,492.5,84+,Open,Raw,F,SBD
4,Rósa Birgisdóttir,1974,Iceland,135.04,147.5,152.5,160,160,-90,90,-92.5,90,165,170,-177.5,170,420,84+,Open,Raw,F,SBD
5,Caroline Stougaard,1991,Denmark,93.58,140,147.5,155,155,80,85,87.5,87.5,160,175,-185,175,417.5,84+,Open,Raw,F,SBD
6,Nelson Pia Skovborg,1963,Denmark,163.66,140,150,160,160,80,85,-90,85,155,165,-170,165,410,84+,Open,Raw,F,SBD
7,Zuzana Bitterová,1984,Czechia,112.44,145,155,160,160,82.5,-87.5,-90,82.5,145,157.5,-162.5,157.5,400,84+,Open,Raw,F,SBD
8,Lauren Rooney,1990,Ireland,116.1,137.5,142.5,147.5,147.5,75,80,82.5,82.5,152.5,-160,160,160,390,84+,Open,Raw,F,SBD
1,Alina Rassamahina,2001,Russia,42.52,80,90,-95,90,50,-55,-55,50,90,100,111,111,251,43,Sub-Juniors,Raw,F,SBD
2,Paulina Wojtyla,2001,Poland,42.3,55,65,67.5,67.5,35,40,42.5,42.5,70,80,85,85,195,43,Sub-Juniors,Raw,F,SBD
3,Ivanna Ivanyuk,1999,Ukraine,39.18,-52.5,52.5,57.5,57.5,32.5,37.5,-40,37.5,60,70,-75,70,165,43,Sub-Juniors,Raw,F,SBD
1,Olivia Kyösti,1999,Finland,46.66,-95,95,-102.5,95,52.5,55,-57.5,55,100,105,110,110,260,47,Sub-Juniors,Raw,F,SBD
2,Klaudia Poszwa,2000,Poland,46.88,80,-87.5,95,95,37.5,40,-42.5,40,-105,105,-127.5,105,240,47,Sub-Juniors,Raw,F,SBD
1,Fanny Lamminen,2002,Finland,51.6,-120,120,126,126,62.5,67.5,70,70,115,125,130,130,326,52,Sub-Juniors,Raw,F,SBD
2,Bethany Wylie,1999,UK,49.2,85,90,-92.5,90,37.5,40,42.5,42.5,117.5,120,122.5,122.5,255,52,Sub-Juniors,Raw,F,SBD
3,Mira Kamberg,2000,Finland,50.36,-75,75,80,80,50,57.5,62.5,62.5,90,97.5,102.5,102.5,245,52,Sub-Juniors,Raw,F,SBD
4,Victoria Katharina Nielsen,2002,Denmark,49.56,67.5,72.5,-77.5,72.5,35,37.5,-40,37.5,85,95,-100,95,205,52,Sub-Juniors,Raw,F,SBD
1,Kateryna Tkachuk,2000,Ukraine,56.74,100,107.5,115,115,72.5,-77.5,77.5,77.5,122.5,132.5,137.5,137.5,330,57,Sub-Juniors,Raw,F,SBD
2,Heini Lipponen,2000,Finland,56.42,122.5,127.5,131,131,70,72.5,75,75,115,120,122.5,122.5,328.5,57,Sub-Juniors,Raw,F,SBD
3,Lucy Robinson,2002,UK,56.4,105,110,-115,110,42.5,47.5,50,50,120,127.5,132.5,132.5,292.5,57,Sub-Juniors,Raw,F,SBD
1,Daria Rusanenko,2001,Ukraine,60.4,127.5,138,-146,138,75,-77.5,-77.5,75,125,135,142.5,142.5,355.5,63,Sub-Juniors,Raw,F,SBD
2,Sandra Soltyszewska,1999,Poland,62.96,115,122.5,130,130,55,62.5,65,65,120,132.5,137.5,137.5,332.5,63,Sub-Juniors,Raw,F,SBD
3,Razalia Churagulova,1999,Russia,61.42,100,105,110,110,72.5,77.5,80,80,120,127.5,-132.5,127.5,317.5,63,Sub-Juniors,Raw,F,SBD
4,Dolora Ramanauskaite,2000,Lithuania,59.96,107.5,117.5,120,120,57.5,62.5,-65,62.5,122.5,132.5,-137.5,132.5,315,63,Sub-Juniors,Raw,F,SBD
5,Amelia Maycock,2000,UK,58.66,77.5,85,-90,85,42.5,45,-47.5,45,125,132.5,140,140,270,63,Sub-Juniors,Raw,F,SBD
1,Smilla Hedström,1999,Sweden,71.3,145,155,-160,155,90,-92.5,92.5,92.5,170,175,-177.5,175,422.5,72,Sub-Juniors,Raw,F,SBD
2,Nuša Železnik,2000,Slovenia,69.98,145,-155.5,155.5,155.5,65,70,-75,70,150,157.5,162.5,162.5,388,72,Sub-Juniors,Raw,F,SBD
3,Sandra Augustiniok,1999,Germany,68.66,130,137.5,-142.5,137.5,77.5,82.5,85,85,145,160,-167.5,160,382.5,72,Sub-Juniors,Raw,F,SBD
4,Siiri Koskinen,1999,Finland,71.42,110,117.5,122.5,122.5,50,55,-57.5,55,125,135,145,145,322.5,72,Sub-Juniors,Raw,F,SBD
1,Henna Kaasalainen,1999,Finland,83.26,150,157.5,160.5,160.5,72.5,77.5,80,80,172.5,180.5,-183,180.5,421,84,Sub-Juniors,Raw,F,SBD
2,Deanna Dawkins,1999,UK,78.26,117.5,-125,125,125,55,60,62.5,62.5,145,155,160,160,347.5,84,Sub-Juniors,Raw,F,SBD
3,Nikola Spica,2001,Poland,75.12,100,110,117.5,117.5,55,60,-62.5,60,130,145,-147.5,145,322.5,84,Sub-Juniors,Raw,F,SBD
1,Natalia Gorbacheva,1997,Russia,42.48,80,85,87.5,87.5,40,45,-47.5,45,110,115,-117.5,115,247.5,43,Juniors,Raw,F,SBD
2,Dariia Brazhnyk,1997,Ukraine,41.78,70,77.5,85,85,40,45,47.5,47.5,85,-95,102.5,102.5,235,43,Juniors,Raw,F,SBD
3,Ekaterina Zhiltcova,1996,Russia,42.4,-70,70,-75,70,50,55,57.5,57.5,100,107.5,-110,107.5,235,43,Juniors,Raw,F,SBD
1,Andréa Durand,1994,France,46.64,107.5,112.5,115,115,67.5,72.5,-75,72.5,117.5,-122.5,122.5,122.5,310,47,Juniors,Raw,F,SBD
2,Tatsiana Damashyna,1998,Belarus,46.96,105,110,115,115,57.5,60,-62.5,60,120,127.5,-137.5,127.5,302.5,47,Juniors,Raw,F,SBD
3,Sabrina Shah,1996,UK,46.1,97.5,102.5,105,105,57.5,60,-62.5,60,112.5,117.5,-122.5,117.5,282.5,47,Juniors,Raw,F,SBD
4,Clara Barsoee,1994,Denmark,46.14,90,95,97.5,97.5,57.5,60,-62.5,60,112.5,115,117.5,117.5,275,47,Juniors,Raw,F,SBD
1,Oksana Hronovych,1994,Ukraine,51.02,110,-115,-115,110,65,70,72.5,72.5,145,157.5,-166,157.5,340,52,Juniors,Raw,F,SBD
2,Rebecka Karlsson,1997,Sweden,51.24,107.5,112.5,-115,112.5,50,52.5,-55,52.5,150,-155,-160,150,315,52,Juniors,Raw,F,SBD
3,Dewi van der Geugten,1994,Netherlands,50.3,92.5,100,105,105,57.5,62.5,65,65,115,122.5,127.5,127.5,297.5,52,Juniors,Raw,F,SBD
4,Victoria Pollastri,1994,France,52,105,110,-112.5,110,57.5,62.5,65,65,110,115,120,120,295,52,Juniors,Raw,F,SBD
5,Julie Fisker,1995,Denmark,51.94,95,,,95,60,62.5,65,65,120,125,130,130,290,52,Juniors,Raw,F,SBD
DQ,Mariia Tsudna,1994,Ukraine,51.56,105,110,-115,110,-55,55,57.5,57.5,-130,-130,-130,,,52,Juniors,Raw,F,SBD
1,Satu Pylväs,1994,Finland,56.48,130,135,-137.5,135,80,82.5,-85,82.5,165.5,170,175.5,175.5,393,57,Juniors,Raw,F,SBD
2,Anna Elizarova,1995,Russia,56.72,130,135,140,140,-82.5,85,90,90,150,157.5,162.5,162.5,392.5,57,Juniors,Raw,F,SBD
3,Hannah Chan,1994,UK,56.68,120,125,-127.5,125,62.5,65,67.5,67.5,140,145,150,150,342.5,57,Juniors,Raw,F,SBD
4,Elspeth McLeod,1995,UK,55.92,120,-125,-125,120,60,65,-70,65,142.5,150,-157.5,150,335,57,Juniors,Raw,F,SBD
5,Agnès Alves,1996,France,54.8,112.5,117.5,-122.5,117.5,67.5,72.5,-80,72.5,127.5,132.5,140,140,330,57,Juniors,Raw,F,SBD
6,Camilla Vestergaard Havsteen,1994,Denmark,55.7,110,115,120,120,65,67.5,70,70,125,135,-140,135,325,57,Juniors,Raw,F,SBD
7,Ida Boetker,1997,Denmark,56.28,100,110,117.5,117.5,45,-52.5,52.5,52.5,130,140,145,145,315,57,Juniors,Raw,F,SBD
8,Amy Donoghue,1997,Ireland,56.1,102.5,107.5,-110,107.5,50,-52.5,52.5,52.5,132.5,137.5,142.5,142.5,302.5,57,Juniors,Raw,F,SBD
9,Emily Mazilu,1997,Ireland,54.36,105,110,112.5,112.5,47.5,50,52.5,52.5,120,127.5,-132.5,127.5,292.5,57,Juniors,Raw,F,SBD
DQ,Adrianne Martinsson,1997,Sweden,55.16,95,102.5,107.5,107.5,-80,-80,-80,,130,137.5,-142.5,137.5,,57,Juniors,Raw,F,SBD
DQ,Astrid Talpe,1994,France,55.94,-110,110,-115,110,-62.5,-62.5,-62.5,,115,125,135,135,,57,Juniors,Raw,F,SBD
1,Carola Garra,1994,Italy,62.7,161,-170,-170,161,120,125,-127.5,125,160,-170,-170,160,446,63,Juniors,Raw,F,SBD
2,Jolien Dreesen,1994,Netherlands,61.18,140,-150,-150,140,65,70,-75,70,160,170,180,180,390,63,Juniors,Raw,F,SBD
3,Heli Jokela,1994,Finland,62.18,132.5,137.5,140,140,85,87.5,90,90,150,160,-165,160,390,63,Juniors,Raw,F,SBD
4,Katrine Sundal Haune,1995,Norway,61.64,132.5,137.5,-140,137.5,80,85,-87.5,85,127.5,137.5,142.5,142.5,365,63,Juniors,Raw,F,SBD
5,Julianna Löllö,1995,Finland,62.34,115,120,-122.5,120,85,-90,90,90,132.5,140,-145,140,350,63,Juniors,Raw,F,SBD
6,Dakota Reich,1998,Austria,60.48,100,110,115,115,65,-70,70,70,140,150,160,160,345,63,Juniors,Raw,F,SBD
7,Aoife O'Sullivan,1995,Ireland,62.36,112.5,117.5,122.5,122.5,57.5,60,-62.5,60,142.5,150,157.5,157.5,340,63,Juniors,Raw,F,SBD
8,Katinka Van Baalen,1996,Netherlands,62.3,105,-112.5,-112.5,105,72.5,77.5,-80,77.5,140,147.5,-155,147.5,330,63,Juniors,Raw,F,SBD
9,Tinna Charlotte Heiberg Olgeirsson,1995,Denmark,60.54,120,127.5,-135,127.5,-60,65,-67.5,65,115,125,132.5,132.5,325,63,Juniors,Raw,F,SBD
10,Channe Hviid,1994,Denmark,61.04,105,110,112.5,112.5,62.5,65,-67.5,65,115,127.5,-130,127.5,305,63,Juniors,Raw,F,SBD
DQ,Julia Kunzner,1994,Germany,61.9,-127.5,-127.5,-127.5,,62.5,65,-67.5,65,145,150,155,155,,63,Juniors,Raw,F,SBD
1,Sofiia Rud,1997,Ukraine,65.88,-140,140,-145,140,75,82.5,85,85,155,160,165,165,390,72,Juniors,Raw,F,SBD
2,Mariia Erohina,1995,Russia,71.42,-137.5,137.5,142.5,142.5,87.5,-92.5,-92.5,87.5,150,155,160,160,390,72,Juniors,Raw,F,SBD
3,Petra Olsson,1994,Sweden,65.36,130,135,140,140,75,-80,80,80,142.5,150,155,155,375,72,Juniors,Raw,F,SBD
4,Essi Laakso,1995,Finland,67.12,125,130,135,135,85,87.5,-90,87.5,135,140,145,145,367.5,72,Juniors,Raw,F,SBD
5,Magdalena Gromowska,1996,Poland,71.94,-135,-135,140,140,75,80,82.5,82.5,135,145,-150,145,367.5,72,Juniors,Raw,F,SBD
6,Silje Haube,1994,Norway,69.24,117.5,-125,-125,117.5,-87.5,90,92.5,92.5,140,150,-155,150,360,72,Juniors,Raw,F,SBD
7,Tuulia Lohivuo,1997,Finland,67.96,125,130,135,135,80,82.5,-85,82.5,135,140,-142.5,140,357.5,72,Juniors,Raw,F,SBD
8,Maaike De Vries,1994,Netherlands,70.48,127.5,135,140,140,75,80,82.5,82.5,120,127.5,132.5,132.5,355,72,Juniors,Raw,F,SBD
9,Suzanne Gray,1995,Ireland,69.46,115,120,122.5,122.5,67.5,70,-72.5,70,145,-152.5,-155,145,337.5,72,Juniors,Raw,F,SBD
10,Jolana Moravcová,1994,Czechia,69.26,-112.5,112.5,125,125,52.5,57.5,-62.5,57.5,125,135,152.5,152.5,335,72,Juniors,Raw,F,SBD
11,Alexandra Lutsch,1994,Austria,71.12,115,120,-125,120,60,65,-67.5,65,140,150,-155,150,335,72,Juniors,Raw,F,SBD
12,Kathrine Holm Dahl,1995,Denmark,69.94,107.5,112.5,117.5,117.5,60,-65,65,65,120,130,135,135,317.5,72,Juniors,Raw,F,SBD
1,Chrystal Williams,1995,UK,81.32,155,-167.5,167.5,167.5,90,-95,95,95,197.5,-205,-205,197.5,460,84,Juniors,Raw,F,SBD
2,Alina Davletshina,1996,Russia,83,145,152.5,157.5,157.5,87.5,92.5,95,95,150,157.5,160,160,412.5,84,Juniors,Raw,F,SBD
3,Natasha Tranter,1994,UK,80.64,145,152.5,157.5,157.5,65,-75,75,75,160,170,-172.5,170,402.5,84,Juniors,Raw,F,SBD
4,Paulina Lechowicz,1996,Poland,80.78,135,140,142.5,142.5,92.5,-97.5,97.5,97.5,150,157.5,-165,157.5,397.5,84,Juniors,Raw,F,SBD
5,Romy Toonen,1995,Netherlands,83.56,135,140,145,145,65,67.5,-70,67.5,165,172.5,-182.5,172.5,385,84,Juniors,Raw,F,SBD
6,Mirka Valo,1997,Finland,83.2,110,-120,120,120,67.5,72.5,75,75,160,175,180,180,375,84,Juniors,Raw,F,SBD
7,Dominique van Deursen,1995,Netherlands,80.46,130,137.5,-142.5,137.5,62.5,67.5,-70,67.5,155,165,-172.5,165,370,84,Juniors,Raw,F,SBD
1,Leigh Wetheridge,1994,UK,103.06,170,-185,-185,170,97.5,102.5,107.5,107.5,185,197.5,210,210,487.5,84+,Juniors,Raw,F,SBD
2,Charlie Chester,1996,UK,101.94,160,172.5,180,180,90,95,-97.5,95,167.5,177.5,-185,177.5,452.5,84+,Juniors,Raw,F,SBD
