Place,Name,State,WeightClassKg,BodyweightKg,Age,Best3SquatKg,Best3BenchKg,Best3DeadliftKg,TotalKg,Sex,Division,Equipment,Event
1,Amanda Strobl,NY,56,55.05,22,102.5,50,115,267.5,F,Junior 20-23,Raw,SBD
1,Gabby Morreale,NY,60,59.85,21,110,67.5,132.5,310,F,Junior 20-23,Raw,SBD
1,Giliana Miranda,NY,67.5,60.45,14,102.5,35,112.5,250,F,Junior 13-15,Raw,SBD
1,Gabriella Farrell,NY,75,73.95,21,135,70,170,375,F,Junior 20-23,Raw,SBD
2,Melissa Mulholland,NY,75,72,22,107.5,47.5,132.5,287.5,F,Junior 20-23,Raw,SBD
1,Brianna Schmidt,NY,52,50.3,27,100,70,130,300,F,Open,Raw,SBD
1,Amanda Strobl,NY,56,55.05,22,102.5,50,115,267.5,F,Open,Raw,SBD
1,Gabby Morreale,NY,60,59.85,21,110,67.5,132.5,310,F,Open,Raw,SBD
2,Demmie Akins,NY,60,59.85,23,87.5,45,105,237.5,F,Open,Raw,SBD
1,Kristen Reiche,NY,75,74,26,160,77.5,177.5,415,F,Open,Raw,SBD
2,Jacquelyn Hastings,NY,75,74.45,26,125,62.5,200,387.5,F,Open,Raw,SBD
3,Gabriella Farrell,NY,75,73.95,21,135,70,170,375,F,Open,Raw,SBD
4,Brittany Kittle,CT,75,71.8,25,132.5,70,140,342.5,F,Open,Raw,SBD
5,Melissa Mulholland,NY,75,72,22,107.5,47.5,132.5,287.5,F,Open,Raw,SBD
1,Daniela Krooks,NY,90,85.5,25,150,77.5,175,402.5,F,Open,Raw,SBD
2,Heidi Washburn,NY,90,87.9,49,85,62.5,130,277.5,F,Open,Raw,SBD
1,Stephanie Kershner,NY,56,55.3,36,85,45,98.5,228.5,F,Submaster 35-39,Raw,SBD
1,Ryan Sokol,NY,67.5,67.2,14,102.5,70,142.5,315,M,Junior 13-15,Raw,SBD
1,Theodore Patricio,NY,67.5,65.85,17,137.5,85,182.5,405,M,Junior 16-17,Raw,SBD
1,Christopher Heras,NY,67.5,66.35,19,170,105,192.5,467.5,M,Junior 18-19,Raw,SBD
2,Siddhartha Rana,NY,67.5,60.6,19,135,85,167.5,387.5,M,Junior 18-19,Raw,SBD
1,Adrian Lass,NY,75,72.5,20,117.5,75,147.5,340,M,Junior 20-23,Raw,SBD
1,Delaney Wallace,NY,82.5,81.8,23,235,178.5,255,668.5,M,Junior 20-23,Raw,SBD
1,Eric Frullaney,NY,90,86.6,19,190,120,200,510,M,Junior 18-19,Raw,SBD
1,Raymund Viado,NJ,100,97.9,19,195,150,230,575,M,Junior 18-19,Raw,SBD
2,Felix Paredes,NY,100,98.5,19,147.5,115,190,452.5,M,Junior 18-19,Raw,SBD
1,Shane Pires,NY,110,106.45,22,265,182.5,295,742.5,M,Junior 20-23,Raw,SBD
1,Christopher Heras,NY,67.5,66.35,19,170,105,192.5,467.5,M,Open,Raw,SBD
2,Theodore Patricio,NY,67.5,65.85,17,137.5,85,182.5,405,M,Open,Raw,SBD
1,Jeffrey Correia,NY,75,74.3,28,192.5,117.5,255,565,M,Open,Raw,SBD
2,Ivan Chekalin,CT,75,74.2,30,190,145,227.5,562.5,M,Open,Raw,SBD
3,Leo Jourdain,NY,75,73.55,27,197.5,137.5,212.5,547.5,M,Open,Raw,SBD
4,Gavin Osorio,NY,75,74.1,31,165,85,187.5,437.5,M,Open,Raw,SBD
5,Adrian Lass,NY,75,72.5,20,117.5,75,147.5,340,M,Open,Raw,SBD
1,Delaney Wallace,NY,82.5,81.8,23,235,178.5,255,668.5,M,Open,Raw,SBD
2,Seth Davis,PA,82.5,82.35,35,227.5,145,242.5,615,M,Open,Raw,SBD
3,Braily Bernaber,NY,82.5,79.35,26,192.5,102.5,207.5,502.5,M,Open,Raw,SBD
1,Brad Ettinger,NY,90,89,28,257.5,200,317.5,775,M,Open,Raw,SBD
2,Chris Policastro,NY,90,86.5,33,195,140,240,575,M,Open,Raw,SBD
3,Nicholas Weber,MA,90,87.8,25,217.5,132.5,222.5,572.5,M,Open,Raw,SBD
4,Jack DeMinno,NY,90,85.1,22,187.5,132.5,250,570,M,Open,Raw,SBD
5,Chad Adams,NY,90,90,33,137.5,122.5,170,430,M,Open,Raw,SBD
1,Raymund Viado,NJ,100,97.9,19,195,150,230,575,M,Open,Raw,SBD
2,Daniel Tuzzio,NY,100,93.8,47,180,125,207.5,512.5,M,Open,Raw,SBD
1,Jose Mondolis,NY,110,106.05,31,255,157.5,255,667.5,M,Open,Raw,SBD
2,John Massaro,NY,110,108.9,36,260,162.5,245,667.5,M,Open,Raw,SBD
3,Stephen Clark,NY,110,108.5,38,195,140,240,575,M,Open,Raw,SBD
1,Gary Basciano,CT,125,118.25,36,215,157.5,260,632.5,M,Open,Raw,SBD
1,Seth Davis,PA,82.5,82.35,35,227.5,145,242.5,615,M,Submaster 35-39,Raw,SBD
1,John Massaro,NY,110,108.9,36,260,162.5,245,667.5,M,Submaster 35-39,Raw,SBD
1,Gary Basciano,CT,125,118.25,36,215,157.5,260,632.5,M,Submaster 35-39,Raw,SBD
1,Kevin Woodruff,NY,67.5,64.95,44,140,90,190,420,M,Master 40-44,Raw,SBD
1,Brian Ettinger,NY,82.5,80.55,59,140,95,185,420,M,Master 55-59,Raw,SBD
1,Michael Novak Jr,NY,100,97.95,45,185,145,237.5,567.5,M,Master 45-49,Raw,SBD
2,Daniel Tuzzio,NY,100,93.8,47,180,125,207.5,512.5,M,Master 45-49,Raw,SBD
1,Richard Whitman,CT,100,97.6,54,182.5,152.5,182.5,517.5,M,Master 50-54,Raw,SBD
1,Joey Madia,NY,100,98.7,21,175,112.5,215,502.5,M,Junior 20-23,Wraps,SBD
1,Christopher Rodgers,NY,75,73.5,38,205,115,235,555,M,Open,Wraps,SBD
1,Ray Dunn,MA,82.5,82.1,50,167.5,110,205,482.5,M,Master 50-54,Wraps,SBD
DQ,John Backos,NJ,110,108.65,56,197.5,110,,,M,Master 55-59,Wraps,SBD
1,Daniel Longo,NJ,90,89.45,25,,217.5,,217.5,M,Open,Raw,B
1,Michael Chekalin,CT,110,106.9,30,,197.5,,197.5,M,Open,Raw,B
1,Abner Nazario,NJ,82.5,82.2,25,,,322.5,322.5,M,Open,Raw,D
1,Matt MacKenzie,CT,125,111.3,27,,140,275,415,M,Open,Raw,BD
