Place,Name,Division,Country,BodyweightKg,Squat1Kg,Squat2Kg,Squat3Kg,Best3SquatKg,Squat4Kg,Bench1Kg,Bench2Kg,Bench3Kg,Best3BenchKg,Bench4Kg,Deadlift1Kg,Deadlift2Kg,Deadlift3Kg,Best3DeadliftKg,Deadlift4Kg,TotalKg,WeightClassKg,Sex,CyrillicName,BirthYear,Equipment,Event
1,Irina Pomerantsev,O,Israel,42.60,70,-75,75,75,,57.5,62.5,65,65,66,95,102.5,-105,102.5,,242.5,44,F,,1970,Wraps,SBD
1,Irina Pomerantsev,M2,Israel,42.60,70,-75,75,75,,57.5,62.5,65,65,66,95,102.5,-105,102.5,,242.5,44,F,,1970,Wraps,SBD
1,Neami Bheemah,O,UK,48.00,-90,-90,90,90,,50,55,-60,55,,117.5,122.5,-125,122.5,,267.5,48,F,,1981,Wraps,SBD
1,Yulia Yevstratova,J,Kazakhstan,51.40,-90,90,100,100,,50,60,-70,60,,90,100,110,110,,270.0,52,F,,1994,Wraps,SBD
1,Laurane Gardiner,T3,France,55.90,80,90,100,100,-105.5,50,55.5,60,60,-65,90,100,112.5,112.5,,272.5,56,F,,1997,Wraps,SBD
1,Alena Yurechko,T1,Kazakhstan,58.90,75,80,85,85,,30,-35,35,35,,90,100,110,110,,230.0,60,F,,2001,Wraps,SBD
1,Elina Ponamareva,T2,Kazakhstan,58.80,110,120,130,130,,55,62.5,67.5,67.5,,150,160,,160,,357.5,60,F,,1998,Wraps,SBD
1,Rhianon Lovelace,T3,UK,57.20,-115,115,-125,115,,65,-70,-70,65,,125,135,-150,135,,315.0,60,F,,1996,Wraps,SBD
1,Radostina Lulova,J,Bulgaria,59.90,120,-127.5,130,130,,55,-60,-65,55,,145,-155,-155,145,,330.0,60,F,,1993,Wraps,SBD
2,Nicola Bennett,J,UK,59.10,-100,100,-105,100,,55,60,-65,60,,122.5,-132.5,140,140,,300.0,60,F,,1992,Wraps,SBD
1,Marianna Gasparyan,O,Kazakhstan,59.60,190,205,-215,205,,110,120,-125,120,,180,190,-200,190,,515.0,60,F,,1989,Wraps,SBD
2,Kathryn Osborn,O,UK,58.00,95,105,110,110,,50,52.5,-55,52.5,,125,-135,,125,,287.5,60,F,,1977,Wraps,SBD
DQ,Marisa Franco,O,Portugal,57.80,-140,-140,-140,,,,,,,,,,,,,,60,F,,1990,Wraps,SBD
1,Joanne Nood,M2,UK,57.40,65,77.5,-80,77.5,,40,50,-55,50,,102.5,-122.5,-122.5,102.5,,230.0,60,F,,1967,Wraps,SBD
1,Anna-Marie Harding,T2,UK,66.10,97.5,105,107.5,107.5,,47.5,-52.5,-52.5,47.5,,132.5,140,145,145,,300.0,67.5,F,,1998,Wraps,SBD
2,Csilla Sipos,T2,Hungary,61.00,-80,80,-90,80,,40,42.5,-45,42.5,,105,115,120,120,,242.5,67.5,F,,1997,Wraps,SBD
1,Enikő Serfőző,T3,Hungary,61.70,65,75,80,80,,52.5,-57.5,-57.5,52.5,,95,100,105,105,,237.5,67.5,F,,1997,Wraps,SBD
1,Svetlana Nazarenko,O,Kazakhstan,67.50,130,140,150,150,,95,105,-110,105,,160,170,180,180,,435.0,67.5,F,,1965,Wraps,SBD
2,Naomi Sheppard,O,UK,67.00,-115,120,130,130,,65,70,75,75,,125,140,-145,140,,345.0,67.5,F,,1991,Wraps,SBD
1,Beverly Stanforth,T3,UK,75.00,115,-125,-125,115,,47.5,-55,-55,47.5,,125,135,-140,135,,297.5,75,F,,1997,Wraps,SBD
1,Dawn Barlow,J,UK,72.80,140,150,-155,150,,75,80,82.5,82.5,,155,162.5,-167.5,162.5,,395.0,75,F,,1994,Wraps,SBD
2,Kristina Titlinova,J,Kazakhstan,74.40,130,137.5,-145,137.5,,60,67.5,-72.5,67.5,,155,-160,,155,,360.0,75,F,,1993,Wraps,SBD
1,Kayla Heal,O,USA,74.40,145,155,162.5,162.5,,75,85,90,90,,172.5,-182.5,-182.5,172.5,,425.0,75,F,,1990,Wraps,SBD
2,Dora Lontro,O,Portugal,73.70,110,-115,-115,110,,60,-65,-65,60,,125,-135,-135,125,,295.0,75,F,,1987,Wraps,SBD
1,Patricia Wetton,M3,UK,72.00,75,-85,-90,75,,55,-60,62.5,62.5,,100,115,125,125,,262.5,75,F,,1962,Wraps,SBD
1,Gi'Anna Cheairs,O,USA,77.70,-65,65,70,70,,45,50,-55,50,,110,117.5,-127.5,117.5,,237.5,82.5,F,,1981,Wraps,SBD
2,Ann Estabrooks Margaret,O,Canada,80.70,42.5,45,47.5,47.5,,35,-42.5,,35,,90,95,97.5,97.5,,180.0,82.5,F,,1947,Wraps,SBD
1,Ann Estabrooks Margaret,M6,Canada,80.70,42.5,45,47.5,47.5,,35,-42.5,,35,,90,95,97.5,97.5,,180.0,82.5,F,,1947,Wraps,SBD
1,Aziza Abduraimova,O,Kazakhstan,97.20,160,170,180,180,,110,120,-125,120,,180,190,200,200,,500.0,90+,F,,1989,Wraps,SBD
2,Roberta Lee Lindsey,O,USA,104.20,160,-172.5,-177.5,160,,85,-97.5,-97.5,85,,170,-182.5,182.5,182.5,,427.5,90+,F,,1981,Wraps,SBD
3,Rachel Zipsie,O,USA,119.00,90,-107.5,-107.5,90,,52.5,57.5,-72.5,57.5,,145,157.5,-167.5,157.5,,305.0,90+,F,,1970,Wraps,SBD
1,Rachel Zipsie,M2,USA,119.00,90,-107.5,-107.5,90,,52.5,57.5,-72.5,57.5,,145,157.5,-167.5,157.5,,305.0,90+,F,,1970,Wraps,SBD
1,Kirill Litvinov,T1,Kazakhstan,52.00,100,115,120,120,,-70,70,72.5,72.5,,140,150,-160,150,,342.5,52,M,,2002,Wraps,SBD
1,Kirill Litvinov,O,Kazakhstan,52.00,100,115,120,120,,-70,70,72.5,72.5,,140,150,-160,150,,342.5,52,M,,2002,Wraps,SBD
1,Dmitriy Vykhodtsev,O,Kazakhstan,55.80,170,-182.5,182.5,182.5,,125,135,140,140,,190,200,210,210,,532.5,56,M,,1989,Wraps,SBD
1,Islam Aripov,T3,Kazakhstan,58.30,130,140,-148,140,,105,-115,117.5,117.5,,140,150,,150,,407.5,60,M,,1997,Wraps,SBD
1,Mauro Franklin,J,Portugal,59.00,150,160,-170,160,,87.5,95,-100,95,,185,195,-207.5,195,,450.0,60,M,,1993,Wraps,SBD
1,Hugo Batista,O,Portugal,58.90,-145,-145,145,145,,110,120,125,125,,170,180,190,190,,460.0,60,M,,1985,Wraps,SBD
2,Mauro Franklin,O,Portugal,59.00,150,160,-170,160,,87.5,95,-100,95,,185,195,-207.5,195,,450.0,60,M,,1993,Wraps,SBD
3,Islam Aripov,O,Kazakhstan,58.30,130,140,-147.5,140,,105,-115,117.5,117.5,,140,150,,150,,407.5,60,M,,1997,Wraps,SBD
1,Artem Mesha,T2,Kazakhstan,66.60,110,120,130,130,,90,100,-105,100,,120,,,120,,350.0,67.5,M,,1998,Wraps,SBD
1,Bernardo Machado,T3,Portugal,65.80,90,105,130,130,,65,75,-85,75,,140,160,-175,160,,365.0,67.5,M,,1997,Wraps,SBD
1,Andrey Kim,O,Kazakhstan,63.30,190,200,210,210,,150,-160,160,160,,230,245,-266,245,,615.0,67.5,M,,1986,Wraps,SBD
2,Natanael Vieira,O,Portugal,65.90,150,165,170,170,,85,95,-100,95,,180,-200,-200,180,,445.0,67.5,M,,1990,Wraps,SBD
1,Budgie Mullan,M7,UK,66.90,80,-100,-100,80,,50,70,-75,70,,100,135,150,150,,300.0,67.5,M,,1943,Wraps,SBD
1,Louis Chard,T1,France,74.30,80,100,110,110,,55,60,-65,60,,110,120,132.5,132.5,,302.5,75,M,,1999,Wraps,SBD
1,Vincent Falzetta,T3,USA,71.40,175,185,-190,185,,125,-132.5,-132.5,125,,245,260,-272.5,260,,570.0,75,M,,1997,Wraps,SBD
1,Benjamin Legg,J,UK,74.80,185,195,-200,195,,130,-140,-140,130,,210,-220,220,220,,545.0,75,M,,1994,Wraps,SBD
3,David Miller,J,UK,74.20,165,170,-175,170,,130,137.5,-145,137.5,,225,232.5,-240,232.5,,540.0,75,M,,1992,Wraps,SBD
2,Jimmy Latchman,J,Canada,74.10,177.5,190,200,200,,102.5,112.5,-117.5,112.5,,220,225,-230,225,,537.5,75,M,,1993,Wraps,SBD
4,Killian Hamilton,J,Canada,69.10,162.5,-165,-167.5,162.5,,102.5,105,110,110,,212.5,215,-220,215,,487.5,75,M,,1992,Wraps,SBD
5,Bruno Teixeira,J,Portugal,73.20,155,165,-172.5,165,,92.5,-97.5,-97.5,92.5,,200,215,-222.5,215,,472.5,75,M,,1993,Wraps,SBD
DQ,Mitchell Horrocks,J,UK,69.20,-190,-195,-200,,,-120,-120,-120,,,,,,,,,75,M,,1994,Wraps,SBD
1,Mushfig Aliyev,O,Azerbaijan,74.50,-210,210,-225,210,,140,150,160,160,,200,220,240,240,,610.0,75,M,,1977,Wraps,SBD
2,Scott Govier,O,UK,72.70,175,187.5,197.5,197.5,,117.5,-125,-125,117.5,,200,210,-215,210,,525.0,75,M,,1991,Wraps,SBD
3,Pedro Roseiro,O,Portugal,73.00,165,172.5,180,180,,90,-102.5,,90,,210,225,235,235,,505.0,75,M,,1984,Wraps,SBD
4,Jose Conceicão,O,Portugal,73.20,140,-150,-150,140,,125,135,-140,135,,200,210,-220,210,,485.0,75,M,,1982,Wraps,SBD
5,Ivan Claro,O,Portugal,73.50,150,160,170,170,,105,-115,-115,105,,185,200,-215,200,,475.0,75,M,,1987,Wraps,SBD
1,Nik Ponamarev,T1,Kazakhstan,78.90,150,160,172.5,172.5,,100,110,115,115,,180,195,202.5,202.5,,490.0,82.5,M,,2001,Wraps,SBD
1,Hajdu Balazs,T3,Hungary,81.20,180,200,220,220,-228,150,160,167.5,167.5,170,220,242.5,250,250,-256,637.5,82.5,M,,1997,Wraps,SBD
2,Kevin Hesse,T3,Germany,82.30,180,190,195,195,,115,122.5,127.5,127.5,,230,253,255,255,255.5,577.5,82.5,M,,1996,Wraps,SBD
3,Eduard Mirzoyants,T3,Portugal,79.00,170,180,-185,180,,110,117.5,120,120,,210,220,-225,220,,520.0,82.5,M,,1996,Wraps,SBD
DQ,Torge Trieglaff,T3,Germany,82.00,-175,-175,-175,,,,,,,,,,,,,,82.5,M,,1997,Wraps,SBD
1,Francesco Catalano,J,Canada,81.60,-227.5,-235,235,235,,155,172.5,177.5,177.5,,250,267.5,-275,267.5,,680.0,82.5,M,,1992,Wraps,SBD
2,Hayden Bowe,J,Canada,82.20,230,,,230,,150,160,170,170,,250,-260,-260,250,,650.0,82.5,M,,1992,Raw,SBD
3,Nataniel Robinson,J,UK,80.70,-170,170,-180,170,,120,125,-130,125,,210,220,-230,220,,515.0,82.5,M,,1993,Wraps,SBD
1,Nikolay Zemtsov,O,Kazakhstan,80.20,225,240,250,250,,165,175,185,185,,300,315,-326,315,,750.0,82.5,M,,1992,Wraps,SBD
2,Clifford Richards,O,UK,82.20,235,245,250,250,,195,205,210.5,210.5,-212.5,240,250,260,260,,720.5,82.5,M,,1978,Wraps,SBD
3,Valikhan Ten,O,Kazakhstan,81.90,230,245,252.5,252.5,,155,165,-170,165,,250,260,-272.5,260,,677.5,82.5,M,,1979,Wraps,SBD
4,Joäo Manaia,O,Portugal,81.60,230,-242.5,-252.5,230,,150,160,165,165,,255,267.5,272.5,272.5,,667.5,82.5,M,,1982,Wraps,SBD
5,Jérémy Babin,O,France,82.50,212.5,-220,-220,212.5,,147.5,155,157.5,157.5,,245,255,265,265,,635.0,82.5,M,,1990,Wraps,SBD
6,Stanislav Simeonov,O,Bulgaria,81.50,215,-225,-225,215,,155,165,-167.5,165,,245,-255,-255,245,,625.0,82.5,M,,1989,Wraps,SBD
7,James Chapman,O,UK,81.90,225,235,-240,235,,150,160,165,165,,215,220,-225,220,,620.0,82.5,M,,1976,Wraps,SBD
8,Robert Harniman,O,Australia,81.50,170,180,-190,180,,140,150,157.5,157.5,,220,230,-235,230,,567.5,82.5,M,,1984,Wraps,SBD
9,John Warburton,O,UK,82.50,195,207.5,-215,207.5,,115,122.5,-127.5,122.5,,225,235,-245,235,,565.0,82.5,M,,1987,Wraps,SBD
10,Sergio Pires,O,Portugal,81.80,-160,160,185,185,,115,125,-140,125,,210,220,-230,220,,530.0,82.5,M,,1982,Wraps,SBD
1,Colin Mullaney,M4,Canada,81.70,140,150,-160,150,,125,-130,132.5,132.5,,180,200.5,-210,200.5,,483.0,82.5,M,,1959,Wraps,SBD
2,José Fleury,M4,Switzerland,80.40,130,140,150,150,,95,100,105,105,,160,170,-180,170,,425.0,82.5,M,,1959,Wraps,SBD
1,Rui Faria,M5,Portugal,81.80,140,150,-170,150,,85,90,-100,90,,160,170,-180,170,,410.0,82.5,M,,1951,Wraps,SBD
1,Kerekes Balazs,T2,Hungary,89.90,145,152.5,157.5,157.5,,85,92.5,-95,92.5,,182.5,195,-200,195,,445.0,90,M,,1999,Wraps,SBD
1,Viktor Timorskiy,T3,Kazakhstan,90.00,210,232.5,-245,232.5,,135,142.5,145,145,,-270,270,300,300,,677.5,90,M,,1996,Wraps,SBD
2,Tim Hapke,T3,Germany,85.30,-180,-180,180,180,,130,137.5,140,140,,200,215,-225,215,,535.0,90,M,,1996,Wraps,SBD
3,Dinislam Mukhametali,T3,Kazakhstan,87.20,-165,165,-180,165,,162.5,170,-175.5,170,,185,200,-207.5,200,,535.0,90,M,,1997,Wraps,SBD
1,Yevgeny Likhachev,J,Kazakhstan,89.30,210,-215,215,215,,170,180,185,185,,250,-260,260,260,,660.0,90,M,,1993,Wraps,SBD
2,Jordan Men,J,France,90.00,180,205,210,210,,165,175,-185,175,,220,232.5,-240,232.5,,617.5,90,M,,1993,Wraps,SBD
3,Renato Santos,J,Portugal,88.10,165,175,-180,175,,120,127.5,-130,127.5,,200,215,222.5,222.5,,525.0,90,M,,1994,Wraps,SBD
1,Erbol Nauanov,O,Kazakhstan,89.50,275,-290,,275,,220,,,220,,280,300,,300,,795.0,90,M,,1989,Wraps,SBD
2,Wylie Sung,O,UK,87.20,230,245,-255,245,,140,150,155,155,,280,290,-300,290,,690.0,90,M,,1988,Wraps,SBD
3,Mitchell Ravenscroft,O,UK,89.60,-220,235,250,250,,160,-170,-172.5,160,,220,240,252.5,252.5,,662.5,90,M,,1989,Wraps,SBD
4,Ricardo Monteiro,O,Portugal,89.30,200,210,220,220,,135,-142.5,142.5,142.5,,265,277.5,-300,277.5,,640.0,90,M,,1987,Wraps,SBD
5,Gerald Stuecher,O,USA,89.40,177.5,192.5,-200,192.5,,150,155,-160,155,,237.5,250,-255,250,,597.5,90,M,,1986,Wraps,SBD
6,Rafael Rui,O,Portugal,88.00,180,-200,200,200,,150,-170,-170,150,,230,-250,-250,230,,580.0,90,M,,1981,Wraps,SBD
7,Luis Simão,O,Portugal,83.60,150,-170,-180,150,,125,135,-150,135,,200,-220,-220,200,,485.0,90,M,,1987,Wraps,SBD
DQ,Vyacheslav Kondrashov,O,Portugal,88.50,-210,-220,-225,,,-160,-165,-165,,,,,,,,,90,M,,1991,Wraps,SBD
DQ,Andreas Dürst,O,Switzerland,86.50,-180,-180,-180,,,-140,-140,-140,,,,,,,,,90,M,,1979,Wraps,SBD
1,David Summers,M3,USA,88.40,170,-185,185,185,,145,160,-172.5,160,,192.5,215,227.5,227.5,,572.5,90,M,,1961,Wraps,SBD
1,Victor Gomez,M4,Mexico,88.70,-205,205,216,216,,135,143,150,150,,225,-251,,225,,591.0,90,M,,1960,Wraps,SBD
2,Richard Kemp,M4,UK,87.30,130,140,150,150,,-75,75,-90,75,,170,192.5,200,200,,425.0,90,M,,1960,Wraps,SBD
1,Jose Neves Antonio,M5,Portugal,88.20,110,-150,150,150,,110,125,-135,125,,110,150,165,165,,440.0,90,M,,1955,Wraps,SBD
2,John Harp,M5,USA,89.60,80,105,-115,105,,-115,115,130,130,,130,170,-192.5,170,,405.0,90,M,,1952,Wraps,SBD
1,Nuno Santos,T2,Portugal,98.10,230,240,245,245,,130,137.5,140,140,142.5,275,287.5,-295,287.5,-295,672.5,100,M,,1998,Wraps,SBD
1,Stanislav Karatitskiy,T3,Kazakhstan,98.60,232.5,240,245,245,,165,172.5,-178,172.5,,270,275,-295,275,,692.5,100,M,,1996,Wraps,SBD
2,Israel Hernandez Laguna,T3,Mexico,98.60,210.5,220,-225,220,,135,142.5,-147.5,142.5,,265,275,-280,275,-280.5,637.5,100,M,,1996,Wraps,SBD
1,Burkit Muratkhanuly,J,Kazakhstan,97.60,-270,-270,270,270,-286,180,190,195,195,,300,-315,315,315,324,780.0,100,M,,1995,Wraps,SBD
2,Adam Riman,J,UK,99.00,215,227.5,235,235,,142.5,147.5,150,150,,272.5,292.5,-300,292.5,,677.5,100,M,,1993,Wraps,SBD
3,Miles Hutchinson,J,UK,97.40,-220,220,-230,220,,170,-180,-180,170,,-280,280,-295,280,,670.0,100,M,,1992,Wraps,SBD
4,Thomas Sheppard,J,UK,98.60,-180,180,200,200,,140,155,-165,155,,230,245,265,265,,620.0,100,M,,1992,Wraps,SBD
1,Aleksandr Pankratyev,O,Russia,99.30,267.5,282.5,290,290,,205,217.5,225,225,,300,320,330,330,,845.0,100,M,Александр Панкратьев,1987,Wraps,SBD
2,Burkit Muratkhanuly,O,Kazakhstan,97.60,-270,-270,270,270,,180,190,195,195,,300,-315,315,315,,780.0,100,M,,1995,Wraps,SBD
3,Alik Aghayev,O,Azerbaijan,98.90,290,-305,-305,290,,190,-202.5,-202.5,190,,290,-305,-305,290,,770.0,100,M,,1983,Wraps,SBD
4,Ilya Maslov,O,Kazakhstan,99.50,260,-267.5,270,270,,195,-205,-205,195,,-300,302.5,-307.5,302.5,,767.5,100,M,,1989,Wraps,SBD
5,Filippo Ingrosso,O,Italy,98.10,235,250,-260,250,,170,175,-180,175,,280,300,-305,300,,725.0,100,M,,1985,Wraps,SBD
6,Matias Suominen Ville,O,Finland,99.80,240,250,-255,250,,155,162.5,170,170,,280,290,300,300,,720.0,100,M,,1982,Wraps,SBD
7,Marcin Kuklis,O,Poland,98.00,-225,225,-232.5,225,,150,-157.5,-157.5,150,,247.5,-255,-255,247.5,,622.5,100,M,,1982,Wraps,SBD
8,Antony Rouxel,O,France,99.80,-180,180,-210,180,,180,-200,-200,180,,220,240,255,255,,615.0,100,M,,1991,Wraps,SBD
DQ,David Beakley,O,Canada,98.00,-255,-260,-260,,,,,,,,,,,,,,100,M,,1981,Wraps,SBD
1,Stefano Cellario,M1,Italy,95.10,260,270,-285,270,,185,-187.5,-187.5,185,,260,275,282.5,282.5,,737.5,100,M,,1972,Wraps,SBD
2,Steven Middleton-Lowes,M1,UK,100.00,230,252.5,262.5,262.5,,60,75,-90,75,,240,-272.5,,240,,577.5,100,M,,1971,Wraps,SBD
3,Scott Chafer,M1,UK,98.20,185,-195,-195,185,,110,115,120,120,,200,210,-215,210,,515.0,100,M,,1974,Wraps,SBD
1,Urs Auf Der Maur,M2,Switzerland,99.30,220,230,240,240,,165,170,-180,170,,260,-280,280,280,,690.0,100,M,,1968,Wraps,SBD
2,Imangali Kurbanov,M2,Kazakhstan,98.90,-160,160,-170,160,,115,125,-140,125,,140,150,170,170,,455.0,100,M,,1965,Wraps,SBD
1,Valeriy Razdorozhnyy,M3,Ukraine,95.30,170,180,,180,,140,150,160,160,,150,170,190,190,,530.0,100,M,Валерий Раздорожный,1965,Wraps,SBD
2,Murat Jaitabarov,M3,Kazakhstan,97.30,140,-160,170,170,,135,142.5,150,150,,140,170,-192.5,170,,490.0,100,M,,1963,Wraps,SBD
1,Stefan Sochański,M6,Poland,90.00,175,185,,185,,97.5,105,,105,,205,225,-232.5,225,,515.0,100,M,,1948,Wraps,SBD
2,Raymond Hunter,M6,UK,96.70,-80,-80,80,80,,55,60,-62.5,60,,130,-142.5,142.5,142.5,,282.5,100,M,,1947,Wraps,SBD
1,Leonardo De Roeck,T1,Portugal,107.40,190,200,-210,200,,145,155,157.5,157.5,-160,220,230,242.5,242.5,,600.0,110,M,,2000,Wraps,SBD
1,Knyaz Makhmudov,T3,Kazakhstan,110.00,225,232.5,240,240,-258,135,,,135,,285,-300,-300,285,,660.0,110,M,,1996,Wraps,SBD
1,Jordan Hanna,J,Canada,107.50,260,270,285,285,,170,177.5,185,185,,310,325,-340.5,325,,795.0,110,M,,1992,Wraps,SBD
2,András Szilágyi,J,Hungary,108.40,240,250,257.5,257.5,,180,190,197.5,197.5,,270,275,280,280,,735.0,110,M,,1992,Wraps,SBD
3,Erlan Aldiyar,J,Kazakhstan,108.00,240,-250,-250,240,,170,180,-190,180,,-200,200,,200,,620.0,110,M,,1995,Wraps,SBD
1,Vyacheslav Starkov,O,Kazakhstan,105.10,280,-300,,280,,215,220,-227.5,220,,315,330,-340,330,,830.0,110,M,,1987,Wraps,SBD
2,Simon Norcup,O,UK,108.30,275,290,,290,,-180,180,200,200,-207.5,280,300,-321,300,,790.0,110,M,,1968,Wraps,SBD
3,Ramin Huseynov,O,Azerbaijan,105.60,-300,300,,300,,155,165,170,170,,300,-320,-320,300,,770.0,110,M,,1981,Wraps,SBD
4,Vagif Ahmadzade Orkhan,O,Azerbaijan,108.10,265,-280,-280,265,,190,200,-210,200,,275,290,-307.5,290,,755.0,110,M,,1988,Wraps,SBD
5,Santiago Fernandez Linares,O,Spain,103.00,240,-260,-260,240,,200,212.5,-220,212.5,,280,-300,,280,,732.5,110,M,,1981,Wraps,SBD
6,Daniele Pauli,O,Switzerland,102.70,220,240,-260,240,,170,180,-190,180,,280,,,280,,700.0,110,M,,1978,Wraps,SBD
7,Paul Hammond Darren,O,UK,108.70,230,-245,245,245,,132.5,-142.5,,132.5,,290,-305,,290,,667.5,110,M,,1972,Wraps,SBD
8,Bruno Martins,O,Portugal,106.50,200,220,-240,220,,140,-145,-145,140,,260,285,-290,285,,645.0,110,M,,1982,Wraps,SBD
9,Steven Thresher,O,UK,106.70,200,215,-227.5,215,,145,150,-152.5,150,,280,-300,-300,280,,645.0,110,M,,1976,Wraps,SBD
1,Daniel Martinez,M1,Spain,105.00,280,300,310,310,,170,180,190,190,,300,-330.5,330.5,330.5,,830.5,110,M,,1975,Wraps,SBD
2,Paul Hammond Darren,M1,UK,108.70,230,-245,245,245,,132.5,-142.5,,132.5,,290,-305,,290,,667.5,110,M,,1972,Wraps,SBD
1,Simon Norcup,M2,UK,108.30,275,290,,290,,-180,180,200,200,-207.5,280,300,-321,300,,790.0,110,M,,1968,Wraps,SBD
2,Pedro Madureira,M2,Portugal,108.70,200,225,-235,225,,135,-147.5,,135,,220,250,-270,250,,610.0,110,M,,1969,Wraps,SBD
1,Kamran AliZada,M3,Azerbaijan,102.20,150,160,165,165,,130,137.5,-142.5,137.5,142.5,200,217.5,220,220,,522.5,110,M,,1964,Wraps,SBD
1,Joaquim Morais,M4,Portugal,108.40,150,170,190,190,210.5,155,163,165,165,-167.5,200,233,235,235,,590.0,110,M,,1958,Wraps,SBD
2,Marat Jailaybaev,M4,Kazakhstan,103.90,140,160,-170,160,,-135,135,-150,135,,140,,,140,,435.0,110,M,,1956,Wraps,SBD
1,Roman Denikaev,M5,Russia,105.70,160,-170,-170,160,,120,130,-140,130,,170,180,190,190,,480.0,110,M,Роман Деникаев,1955,Wraps,SBD
1,Nikolay Fesanyuk,O,Russia,120.10,340,360,-370,360,,200,210,217.5,217.5,,320,340,357.5,357.5,,935.0,125,M,Николай Фесанюк,1984,Wraps,SBD
2,Vladimir Golubev,O,Kazakhstan,119.50,320,335,-342.5,335,,-225,235,240,240,,330,342.5,-360,342.5,,917.5,125,M,,1986,Wraps,SBD
3,Artur Chrzaszcz,O,UK,125.00,320,335,-345,335,,200,210,-220,210,,330,345,-355,345,,890.0,125,M,,1983,Wraps,SBD
4,Hristo Muskov Dimitrov,O,Bulgaria,119.00,-280,280,-290,280,,215,225,232.5,232.5,,330,-362.5,,330,,842.5,125,M,,1985,Wraps,SBD
5,Norbert Váczi,O,Hungary,113.60,260,270,-280,270,,195,205,210,210,,255,265,-270,265,,745.0,125,M,,1990,Wraps,SBD
1,Tony Chard,M2,France,119.40,-200,-200,200,200,,160,170,175,175,,230,250,,250,,625.0,125,M,,1968,Wraps,SBD
1,David Earp,M3,USA,121.20,-215,215,230,230,,145,152.5,160,160,,250,-267.5,,250,,640.0,125,M,,1963,Wraps,SBD
1,Alexander Burlakov,M4,Russia,123.30,200,210,215,215,,185,-197.5,-197.5,185,,190,200,210,210,,610.0,125,M,Александр Бурлаков,1959,Wraps,SBD
1,Mikhail Nagaybekov,M5,Kazakhstan,111.80,130,,,130,,130,,,130,,130,-140,140,140,,400.0,125,M,,1953,Wraps,SBD
1,Anton Solovey,J,Kazakhstan,128.00,270,280,292.5,292.5,,200,210,217.5,217.5,,290,300,-310,300,,810.0,140,M,,1993,Wraps,SBD
2,Frankie Kemp,J,UK,133.50,210,222.5,235,235,,150,160,170,170,,240,262.5,-275,262.5,,667.5,140,M,,1993,Wraps,SBD
1,Kamil Kamiński,O,UK,137.90,280,305,-312.5,305,,210,227.5,235,235,,280,305,312.5,312.5,,852.5,140,M,,1988,Wraps,SBD
2,Tofig Eyvazov Shakhin,O,Azerbaijan,127.10,280,292.5,300,300,,190,200,-205,200,,300,320,,320,,820.0,140,M,,1982,Wraps,SBD
3,Renato Soares,O,Portugal,125.10,240,-260,260,260,,190,205,-220,205,,270,-300,-300,270,,735.0,140,M,,1978,Wraps,SBD
DQ,Dmitry Smirnov,O,Russia,130.80,260,,,260,,,,,,,,,,,,,140,M,Дмитрий Смирнов,1978,Wraps,SBD
1,Michael Schrott,M1,Germany,125.80,300,315,,315,,190,200,210,210,,290,305,315,315,,840.0,140,M,,1972,Wraps,SBD
1,Emmanuel Jos Pierre,O,France,158.10,255,265,270,270,,195,-205,,195,,300,-335,,300,,765.0,140+,M,,1980,Wraps,SBD
1,Wiebke Hinrichsen,O,Germany,65.50,140,-150,-150,140,,110,117.5,125,125,,140,-152.5,152.5,152.5,,417.5,67.5,F,,1983,Multi-ply,SBD
DQ,Breanna Gurzynski,T3,USA,144.00,-240,-240,-240,,,,,,,,,,,,,,90+,F,,1996,Multi-ply,SBD
1,Tomáš Siska,T1,Slovakia,67.50,130,140,145,145,,60,65,-67.5,65,,110,125,,125,,335.0,67.5,M,,2000,Multi-ply,SBD
1,Asif Beliyev,O,Azerbaijan,66.30,220,240,-250,240,,-120,130,-140,130,,200,215,-230,215,,585.0,67.5,M,,1986,Multi-ply,SBD
2,Gary Reichert,O,USA,67.40,-210,210,-220,210,,100,-142.5,-142.5,100,,227.5,240,-272.5,240,,550.0,67.5,M,,1960,Multi-ply,SBD
1,Gary Bobrovitz,M5,Canada,66.10,60,,,60,,140,147.5,150,150,-152.5,60,,,60,,270.0,67.5,M,,1952,Multi-ply,SBD
1,Martins Rei Andre,J,Portugal,73.00,-230,-230,230,230,,160,172.5,180,180,,220,240,245,245,,655.0,75,M,,1993,Multi-ply,SBD
1,Martins Rei Andre,O,Portugal,73.00,-230,-230,230,230,,160,172.5,180,180,,220,240,245,245,,655.0,75,M,,1993,Multi-ply,SBD
2,Vagif Musayev Rustam,O,Azerbaijan,75.00,280,-300,315,315,,80,,,80,,237.5,257.5,-262.5,257.5,,652.5,75,M,,1978,Multi-ply,SBD
1,Bayram Aliev,O,Azerbaijan,82.50,150,,,150,,-200,200,-250,200,,150,,,150,,500.0,82.5,M,,1985,Multi-ply,SBD
DQ,Shahram Forutan,M2,Germany,78.90,-240,-240,,,,,,,,,,,,,,,82.5,M,,1968,Multi-ply,SBD
1,Rihards Chiapas Tomass,T1,Latvia,88.20,-200,-210,210,210,,110,120,-130,120,,-190,200,210,210,,540.0,90,M,,2000,Multi-ply,SBD
1,Vladimir Zhabin,O,Russia,89.40,-330,-330,330,330,,220,-230,230,230,,330,-352.5,352.5,352.5,,912.5,90,M,Владимир Жабин,1980,Multi-ply,SBD
2,Andre Silva,O,Portugal,86.90,-300,300,-320,300,,160,170,-180,170,,240,260,275,275,,745.0,90,M,,1989,Multi-ply,SBD
DQ,Eric Athias,M1,France,87.30,-300,-300,-300,,,,,,,,,,,,,,90,M,,1971,Multi-ply,SBD
DQ,Scott Kuderieck,M1,USA,89.60,-305,-305,-305,,,,,,,,,,,,,,90,M,,1974,Multi-ply,SBD
1,Didier Theux,M4,France,88.20,200,230,,230,,-225,-225,225,225,,200,230,-245,230,,685.0,90,M,,1958,Multi-ply,SBD
1,James Taylor,J,UK,98.90,280,-300,-310,280,,190,-210,220,220,,225,250,260,260,,760.0,100,M,,1991,Multi-ply,SBD
1,Paulo Santos #1,O,Portugal,99.70,335,355,365,365,,220,232.5,242.5,242.5,,-320,320,337.5,337.5,,945.0,100,M,,1988,Multi-ply,SBD
2,Hassan Zaid,O,UK,97.70,350,-370,-380,350,,190,200,210,210,,-310,310,-330,310,,870.0,100,M,,1987,Multi-ply,SBD
1,Steven Plunkett,M1,UK,90.80,280,300,325,325,,200,210,-217.5,210,,230,250,-265,250,,785.0,100,M,,1973,Multi-ply,SBD
DQ,Bradley Trommel Kenneth,M2,Canada,97.40,-270,-290,-290,,,-170,-170,-170,,,,,,,,,100,M,,1969,Multi-ply,SBD
1,Ricardo Alves Ruela Bruno,O,Portugal,108.90,325,350,-360,350,,255,265,-272.5,265,,280,-300,-300,280,,895.0,110,M,,1988,Multi-ply,SBD
DQ,Filipe Lavandeira,O,Portugal,101.80,-405,-405,-430.5,,,-235,-235,-235,,,,,,,,,110,M,,1985,Multi-ply,SBD
1,Pedro Madureira,M2,Portugal,109.00,240,270,280,280,,130,-170,-200,130,,240,,,240,,650.0,110,M,,1969,Multi-ply,SBD
1,Sándor Bordás,O,Hungary,111.10,360,370,-380,370,,-300,300,320,320,,280,-300,-300,280,,970.0,125,M,,1990,Multi-ply,SBD
DQ,Sergio Silva,O,Portugal,119.80,-305,-305,-305,,,,,,,,,,,,,,125,M,,1977,Multi-ply,SBD
1,Ondrej Hudák,M1,Slovakia,110.80,-330,-330,330,330,,220,250,260,260,,270,300,310,310,,900.0,125,M,,1975,Multi-ply,SBD
1,Tony Chard,M2,France,119.10,240,260,270,270,,150,190,-200,190,,-250,260,300,300,,760.0,125,M,,1968,Multi-ply,SBD
DQ,Richard Zenzen,M5,USA,116.20,-263,-263,-263,,,,,,,,,,,,,,125,M,,1952,Multi-ply,SBD
1,Haidi Chaparro,O,Mexico,52.00,140,150,155,155,,70,80,85,85,-90,140,150,-155,150,,390.0,52,F,,1986,Single-ply,SBD
1,Irina Selivanova,O,Kazakhstan,54.30,160,170,,170,,90,95,-100,95,,150,167.5,,167.5,,432.5,56,F,,1973,Single-ply,SBD
DQ,Yuliya Vins,T3,Russia,66.10,-220,-220,-220,,,,,,,,,,,,,,67.5,F,Юлия Винс,1996,Single-ply,SBD
1,Svetlana Nazarenko,O,Kazakhstan,66.60,160,170,180,180,,120,130,-140,130,,160,170,180,180,185,490.0,67.5,F,,1965,Single-ply,SBD
1,Boyan Stoyanov,O,Bulgaria,59.60,145,155,-170,155,,100,-112.5,112.5,112.5,,150,160,-191,160,,427.5,60,M,,1986,Single-ply,SBD
1,Pedro Pontes,O,Portugal,67.40,220,235,-242.5,235,,150,160,165,165,167.5,-215,215,222.5,222.5,-225,622.5,67.5,M,,1982,Single-ply,SBD
1,Carlos Quintero,J,Mexico,76.30,-215,215,240,240,,120,150,-170,150,,225,240,-252,240,,630.0,82.5,M,,,Single-ply,SBD
1,Stanislav Pryakhin,O,Russia,82.50,-260,270,,270,,170,180,187.5,187.5,,250,265,-270,265,,722.5,82.5,M,Станислав Пряхин,1975,Single-ply,SBD
DQ,João Henriques,O,Portugal,77.80,-220,-220,-220,,,,,,,,,,,,,,82.5,M,,1987,Single-ply,SBD
DQ,Roman Durnov,O,Russia,82.20,-260,-280,-292.5,,,,,,,,,,,,,,82.5,M,Роман Дурнов,1986,Single-ply,SBD
1,Stanislav Pryakhin,M1,Russia,82.50,-260,270,,270,,170,180,187.5,187.5,,250,265,-270,265,,722.5,82.5,M,Станислав Пряхин,1975,Single-ply,SBD
1,Gabriele Calista,O,Italy,88.60,-280,-280,280,280,,190,-197.5,-197.5,190,,305,-320,-320,305,,775.0,90,M,,1979,Single-ply,SBD
2,Seif Hamza,O,Egypt,89.30,180,220,-260,220,,140,160,180,180,,220,-240,260,260,,660.0,90,M,,,Single-ply,SBD
DQ,Jordan McKenzie,O,UK,90.00,-180,-200,-200,,,,,,,,,,,,,,90,M,,1991,Single-ply,SBD
1,Stefan Sochański,M6,Poland,90.00,225,245,-260,245,,115,125,-132.5,125,,230,257.5,,257.5,,627.5,90,M,,1948,Single-ply,SBD
1,Jamie Burke,O,UK,99.80,-280,280,300,300,,-180,180,200,200,,250,,,250,,750.0,100,M,,1975,Single-ply,SBD
2,Mikko Matikainem,O,Finland,98.20,260,280,-300,280,,-160,160,-180,160,,-230,230,-262.5,230,,670.0,100,M,,1990,Single-ply,SBD
1,Daniel Martinez,M1,Spain,105.00,350,355,,355,,170,,,170,,280,300,305,305,310,830.0,110,M,,1975,Single-ply,SBD
DQ,Ricardo Pereira,M1,Portugal,104.90,-200,-210,-215,,,,,,,,,,,,,,110,M,,1972,Single-ply,SBD
1,Vitaly Khan,O,Kazakhstan,129.10,-350,350,365,365,,235,250,260,260,,270,290,300,300,,925.0,140,M,,1984,Single-ply,SBD
1,Richard Frickner,M3,UK,151.20,230,260,275,275,,150,165,185,185,,230,260,280,280,,740.0,140+,M,,1961,Single-ply,SBD
1,Alexandra Gorbacheva,T1,Russia,39.60,,,,,,-27.5,30,-35,30,,,,,,,30.0,44,F,,2004,Raw,B
1,Bianca Helmdach,O,Germany,42.50,,,,,,55,60,65,65,-66,,,,,,65.0,44,F,,1989,Raw,B
2,Irina Pomerantsev,O,Israel,42.80,,,,,,57.5,62.5,65,65,66,,,,,,65.0,44,F,,1970,Raw,B
3,Leslie Watson,O,UK,43.50,,,,,,55,57.5,60,60,,,,,,,60.0,44,F,,1948,Raw,B
1,Irina Pomerantsev,M2,Israel,42.80,,,,,,57.5,62.5,65,65,66,,,,,,65.0,44,F,,1970,Raw,B
1,Viktoriya Yultsova,T1,Russia,51.30,,,,,,72.5,75.5,77.5,77.5,,,,,,,77.5,52,F,Виктория Юльцова,2002,Raw,B
1,Dóra Schopf,O,Hungary,50.40,,,,,,72.5,77.5,80,80,82.5,,,,,,80.0,52,F,,1974,Raw,B
2,Evgenia Gilinskaya,O,Kazakhstan,51.40,,,,,,65,75,80,80,,,,,,,80.0,52,F,,1986,Raw,B
1,Dóra Schopf,M1,Hungary,50.40,,,,,,72.5,77.5,80,80,82.5,,,,,,80.0,52,F,,1974,Raw,B
1,Irina Selivanova,O,Kazakhstan,55.50,,,,,,70,75,-80,75,,,,,,,75.0,56,F,,1973,Raw,B
2,Mariya Yultsova,O,Russia,55.20,,,,,,65,-70,-70,65,,,,,,,65.0,56,F,Мария Юльцова,1982,Raw,B
3,Stephanie Taylor,O,UK,53.50,,,,,,45,47.5,-50,47.5,,,,,,,47.5,56,F,,1986,Raw,B
1,Ilona Egri,M1,Hungary,55.00,,,,,,57.5,60,-62.5,60,,,,,,,60.0,56,F,,1972,Raw,B
1,Galiya Aymagambetova,M4,Kazakhstan,54.00,,,,,,30,35,-40,35,,,,,,,35.0,56,F,,1959,Raw,B
1,Csilla Sipos,T2,Hungary,59.00,,,,,,40,42.5,-45,42.5,,,,,,,42.5,60,F,,1997,Raw,B
1,Laurane Gardiner,T3,France,57.10,,,,,,50,-62.5,-62.5,50,,,,,,,50.0,60,F,,1997,Raw,B
1,Xeniya Khan,O,Kazakhstan,66.30,,,,,,130,135,-137.5,135,,,,,,,135.0,67.5,F,,1987,Raw,B
1,Rita Nagy,O,Hungary,65.00,,,,,,120,125,128,128,130,,,,,,128.0,67.5,F,,1974,Raw,B
1,Nelly Herrmann,M7,Switzerland,65.90,,,,,,52.5,55,-57.5,55,,,,,,,55.0,67.5,F,,1944,Raw,B
1,Svetlana Nazarenko,O,Kazakhstan,69.20,,,,,,95,105,-110,105,,,,,,,105.0,75,F,,1965,Raw,B
1,Holly Ware,O,UK,73.10,,,,,,90,95,100,100,110.5,,,,,,100.0,75,F,,1987,Raw,B
1,Svetlana Sinacheva,M2,Russia,75.00,,,,,,110,115,-117.5,115,,,,,,,115.0,75,F,Светлана Синачева,1966,Raw,B
DQ,Hella Schuster,M9,Germany,70.00,,,,,,-45,-45,-45,,,,,,,,,75,F,,1935,Raw,B
1,Elena Pastler,O,Kazakhstan,75.30,,,,,,90,-92.5,,90,,,,,,,90.0,82.5,F,,1980,Raw,B
1,Ann Estabrooks Margaret,M6,Canada,81.60,,,,,,35,37.5,40,40,,,,,,,40.0,82.5,F,,1947,Raw,B
1,Aziza Abduraimova,O,Kazakhstan,95.30,,,,,,105,115,120,120,,,,,,,120.0,90+,F,,1989,Raw,B
1,Janet Sink,M7,USA,90.90,,,,,,45,47.5,-50,47.5,,,,,,,47.5,90+,F,,1942,Raw,B
1,Kirill Litvinov,T1,Kazakhstan,51.60,,,,,,60,67.5,70,70,,,,,,,70.0,52,M,,2002,Raw,B
1,Maxym Novichenko,J,Ukraine,39.20,,,,,,110,-120,-120,110,,,,,,,110.0,52,M,Максим Новиченко,1993,Raw,B
1,Maxym Novichenko,O,Ukraine,39.20,,,,,,110,-120,-120,110,,,,,,,110.0,52,M,Максим Новиченко,1993,Raw,B
1,Islam Aripov,T3,Kazakhstan,57.40,,,,,,106,115,-120,115,,,,,,,115.0,60,M,,1997,Raw,B
1,Meyrambek Sabyrbek,J,Kazakhstan,58.90,,,,,,115,120,-128,120,,,,,,,120.0,60,M,,1993,Raw,B
1,Islam Aripov,O,Kazakhstan,57.40,,,,,,106,115,-120,115,,,,,,,115.0,60,M,,1997,Raw,B
DQ,Aleksandr Romanichev,O,Israel,59.60,,,,,,-92.5,-92.5,-92.5,,,,,,,,,60,M,,1963,Raw,B
1,Jean-Claude Camicas,M7,France,58.90,,,,,,75,-80,,75,,,,,,,75.0,60,M,,1943,Raw,B
1,Mihails Rapoports,T2,Latvia,64.10,,,,,,102.5,107.5,110,110,,,,,,,110.0,67.5,M,,1999,Raw,B
2,Artem Mestra,T2,Kazakhstan,66.20,,,,,,90,100,-105,100,,,,,,,100.0,67.5,M,,1998,Raw,B
1,Antoni Kaliński,M5,Switzerland,67.30,,,,,,107.5,113,-115,113,,,,,,,113.0,67.5,M,,1953,Raw,B
1,Rui Carreira,J,Portugal,74.20,,,,,,165,-173.5,-173.5,165,,,,,,,165.0,75,M,,1994,Raw,B
1,Ramin Rzayev,O,Azerbaijan,75.00,,,,,,180,185,-187.5,185,,,,,,,185.0,75,M,,1980,Raw,B
2,Alim Unembaev,O,Kazakhstan,74.40,,,,,,170,175,-185,175,,,,,,,175.0,75,M,,1982,Raw,B
3,Rui Carreira,O,Portugal,74.20,,,,,,165,-173.5,-173.5,165,,,,,,,165.0,75,M,,1994,Raw,B
4,Tamar Choudhury Abu,O,UK,70.10,,,,,,140,147.5,-152.5,147.5,,,,,,,147.5,75,M,,1991,Raw,B
5,Fábio Brás,O,Portugal,71.30,,,,,,130,140,-145,140,,,,,,,140.0,75,M,,1990,Raw,B
6,Ricardo Silva,O,Portugal,72.40,,,,,,-132.5,135,-137.5,135,,,,,,,135.0,75,M,,,Raw,B
1,Vincent Eldin,M1,France,73.90,,,,,,130,135,-142.5,135,,,,,,,135.0,75,M,,1972,Raw,B
2,Denis Tomsin,M1,France,74.90,,,,,,127.5,135,-142.5,135,,,,,,,135.0,75,M,,1974,Raw,B
1,Pedro Claro,M2,Portugal,74.20,,,,,,110,120,-130,120,,,,,,,120.0,75,M,,1965,Raw,B
1,Anatoliy Nefedov,M3,Russia,69.10,,,,,,130,140,150,150,,,,,,,150.0,75,M,Анатолий Нефедов,1963,Raw,B
2,Nigel Orme,M3,UK,73.70,,,,,,90,95,-100,95,,,,,,,95.0,75,M,,1961,Raw,B
1,József Németh,M4,Hungary,73.80,,,,,,100,110,115,115,,,,,,,115.0,75,M,,1958,Raw,B
1,Joël Tartare,M5,France,73.90,,,,,,95,103,-105,103,,,,,,,103.0,75,M,,1951,Raw,B
1,Sergey Nikiforov,M6,Russia,74.40,,,,,,120,-130,130,130,-141,,,,,,130.0,75,M,Сергей Никифоров,1947,Raw,B
1,Evgeniy Vyborov,M8,Russia,70.70,,,,,,80,-90,-90,80,,,,,,,80.0,75,M,Евгений Выборов,1939,Raw,B
1,Torge Trieglaff,T3,Germany,80.10,,,,,,-110,110,117.5,117.5,,,,,,,117.5,82.5,M,,1997,Raw,B
1,Agasafar Gafarov Kamil,O,Azerbaijan,81.50,,,,,,195,205,-215,205,,,,,,,205.0,82.5,M,,1984,Raw,B
2,Attila Gembiczki,O,Hungary,80.30,,,,,,185,190,192.5,192.5,,,,,,,192.5,82.5,M,,1986,Raw,B
3,Gerrit Scheel,O,Germany,82.00,,,,,,180,185,-192.5,185,,,,,,,185.0,82.5,M,,1991,Raw,B
4,Bob Body,O,USA,79.10,,,,,,175,180,-190,180,,,,,,,180.0,82.5,M,,1974,Raw,B
5,Fellag Mohamed,O,France,79.10,,,,,,150,157.5,162.5,162.5,,,,,,,162.5,82.5,M,,1977,Raw,B
1,Bob Body,M1,USA,79.10,,,,,,175,180,-190,180,,,,,,,180.0,82.5,M,,1974,Raw,B
1,Attila Nyikos Kiss,M2,Hungary,81.30,,,,,,120,-125,125,125,,,,,,,125.0,82.5,M,,1970,Raw,B
1,Colin Mullaney,M4,Canada,82.00,,,,,,110,117.5,120,120,,,,,,,120.0,82.5,M,,1959,Raw,B
1,Vilho Määttä,M5,Finland,81.40,,,,,,90,100,110,110,,,,,,,110.0,82.5,M,,1952,Raw,B
2,Rui Faria,M5,Portugal,80.30,,,,,,85,90,-100,90,,,,,,,90.0,82.5,M,,1951,Raw,B
1,Aimo Mursu,M7,Finland,82.10,,,,,,60,70,80,80,,,,,,,80.0,82.5,M,,1942,Raw,B
1,Paul Radelat,M9,USA,76.60,,,,,,75,80,82.5,82.5,84,,,,,,82.5,82.5,M,,1933,Raw,B
DQ,Batyrkhan Yermagambetov,T2,Kazakhstan,89.60,,,,,,-170,-170,,,,,,,,,,90,M,,1999,Raw,B
1,Dinislam Mukhametali,T3,Kazakhstan,88.20,,,,,,155,162.5,170,170,,,,,,,170.0,90,M,,1997,Raw,B
2,Tim Hapke,T3,Germany,83.30,,,,,,135,-140,140,140,,,,,,,140.0,90,M,,1996,Raw,B
3,Andrey Gabuev,T3,Russia,88.70,,,,,,130,-135,135,135,,,,,,,135.0,90,M,Андрей Габуев,1996,Raw,B
1,Yevgeny Likhachev,J,Kazakhstan,90.00,,,,,,170,180,-190,180,,,,,,,180.0,90,M,,1993,Raw,B
1,Kent Spires,O,USA,88.30,,,,,,232.5,-238,-238,232.5,,,,,,,232.5,90,M,,1970,Raw,B
2,Christoph Scheel,O,Germany,89.60,,,,,,-205,205,-207.5,205,,,,,,,205.0,90,M,,1985,Raw,B
3,Filipe Simoes Luis,O,Portugal,87.70,,,,,,190,200,-202.5,200,,,,,,,200.0,90,M,,1981,Raw,B
4,Dawid Deptuch,O,Poland,89.40,,,,,,180,192.5,-202.5,192.5,,,,,,,192.5,90,M,,1986,Raw,B
5,Ŀukasz Kozłowski,O,Poland,87.20,,,,,,190,-200,-200,190,,,,,,,190.0,90,M,,1985,Raw,B
6,Nikolay Sarafanov,O,Russia,89.90,,,,,,190,-200,-205,190,,,,,,,190.0,90,M,Николай Сарафанов,1983,Raw,B
7,Luigi Simpere,O,France,86.60,,,,,,-165,165,175,175,,,,,,,175.0,90,M,,1986,Raw,B
8,Ruben Oliveira,O,Portugal,86.10,,,,,,170,,,170,,,,,,,170.0,90,M,,1981,Raw,B
9,Agil Humbatov,O,Azerbaijan,89.70,,,,,,170,-182.5,-182.5,170,,,,,,,170.0,90,M,,1985,Raw,B
10,Przemyslaw Komarski,O,Poland,86.10,,,,,,140,-145,-145,140,,,,,,,140.0,90,M,,1985,Raw,B
1,Kent Spires,M2,USA,88.30,,,,,,232.5,-238,-238,232.5,,,,,,,232.5,90,M,,1970,Raw,B
1,Helmut Silberbauer,M3,Austria,87.50,,,,,,130,140,-150,140,,,,,,,140.0,90,M,,1964,Raw,B
2,Martin Randall,M3,UK,87.60,,,,,,122.5,125,-130,125,,,,,,,125.0,90,M,,1965,Raw,B
3,Petri Kalevi Mäkinen,M3,Finland,88.20,,,,,,110,125,-130,125,,,,,,,125.0,90,M,,1963,Raw,B
1,Heinz Buhl,M4,Austria,87.70,,,,,,140,150,-157.5,150,,,,,,,150.0,90,M,,1956,Raw,B
1,John Harp,M5,USA,89.10,,,,,,-110,110,120,120,,,,,,,120.0,90,M,,1952,Raw,B
1,Valērijs Petrovs,M6,Latvia,89.60,,,,,,120,125,,125,,,,,,,125.0,90,M,,1946,Raw,B
1,Arystan Sharipov,T2,Kazakhstan,94.00,,,,,,70,-80,-80,70,,,,,,,70.0,100,M,,1999,Raw,B
1,Stanislav Karatitskiy,T3,Kazakhstan,97.70,,,,,,157.5,167.5,175,175,,,,,,,175.0,100,M,,1996,Raw,B
1,Florindo Figueiredo Pinheiro,O,Portugal,91.00,,,,,,235,240,-250.5,240,,,,,,,240.0,100,M,,1973,Raw,B
2,Ruslan Greev,O,Kazakhstan,98.80,,,,,,230,237.5,-250,237.5,,,,,,,237.5,100,M,,1986,Raw,B
3,Anton Mandziy,O,Spain,96.20,,,,,,217.5,225,230,230,,,,,,,230.0,100,M,Антон Мандзій,1987,Raw,B
4,Krzysztof Zakrzewski,O,Poland,99.00,,,,,,190,195,202.5,202.5,,,,,,,202.5,100,M,,1977,Raw,B
5,Xavier Levalois,O,France,92.10,,,,,,190,200,-205,200,,,,,,,200.0,100,M,,1979,Raw,B
6,Andrew Whittaker,O,UK,95.90,,,,,,185,195,200,200,,,,,,,200.0,100,M,,1983,Raw,B
7,Sergey Timchenko,O,Russia,93.60,,,,,,185,-200,,185,,,,,,,185.0,100,M,Сергей Тимченко,1979,Raw,B
8,Aftandil Abdullayev,O,Kazakhstan,99.30,,,,,,165,180,185,185,,,,,,,185.0,100,M,,1986,Raw,B
9,Aaron Fillery,O,UK,93.60,,,,,,150,-155,-155,150,,,,,,,150.0,100,M,,1987,Raw,B
10,Rui Rosado,O,Portugal,91.40,,,,,,130,-150,-150,130,,,,,,,130.0,100,M,,1980,Raw,B
1,Florindo Figueiredo Pinheiro,M1,Portugal,91.00,,,,,,235,240,-250.5,240,,,,,,,240.0,100,M,,1973,Raw,B
2,Randall Crooks,M1,UK,94.80,,,,,,160,170,175,175,,,,,,,175.0,100,M,,1973,Raw,B
1,Igor Sergeev,M2,Russia,100.00,,,,,,222.5,227.5,232.5,232.5,,,,,,,232.5,100,M,Игорь Сергеев,1966,Raw,B
2,Martin Gibson,M2,UK,92.10,,,,,,137.5,142.5,145,145,147.5,,,,,,145.0,100,M,,1966,Raw,B
1,Johann Delueg,M3,Austria,96.30,,,,,,150,157.5,-162.5,157.5,,,,,,,157.5,100,M,,1965,Raw,B
2,Bill Trimble,M3,USA,97.80,,,,,,135,145,-152.5,145,,,,,,,145.0,100,M,,1965,Raw,B
3,Murat Jaitabarov,M3,Kazakhstan,96.80,,,,,,135,-145,-145,135,,,,,,,135.0,100,M,,1963,Raw,B
1,Alexander Petrov,M4,Russia,90.50,,,,,,185,195,200,200,,,,,,,200.0,100,M,Александр Петров,1960,Raw,B
2,Valeriy Akentyev,M4,Russia,98.90,,,,,,162.5,170,172.5,172.5,,,,,,,172.5,100,M,Валерий Акентьев,1958,Raw,B
3,Franciszek Szabluk,M4,Poland,96.00,,,,,,155,162.5,-170,162.5,,,,,,,162.5,100,M,,1956,Raw,B
4,Eduard Weber,M4,Germany,99.20,,,,,,130,140,142.5,142.5,,,,,,,142.5,100,M,,1957,Raw,B
1,Artur Schoula Kurt,M5,Germany,99.20,,,,,,155,165,-170,165,,,,,,,165.0,100,M,,1952,Raw,B
1,Hans-Jurgen Borkowski,M6,Germany,93.60,,,,,,125,,,125,,,,,,,125.0,100,M,,1950,Raw,B
1,Leonardo De Roeck,T1,Portugal,103.60,,,,,,142.5,150,155,155,-157.5,,,,,,155.0,110,M,,2000,Raw,B
1,Vlastimil Kužel,O,Czechia,107.00,,,,,,235,240,-242.5,240,,,,,,,240.0,110,M,,1977,Raw,B
2,Eduard Kabdeshev,O,Kazakhstan,107.40,,,,,,220,240,-245,240,,,,,,,240.0,110,M,,1989,Raw,B
3,Josh Cannon,O,UK,108.80,,,,,,230,240,-252.5,240,,,,,,,240.0,110,M,,1986,Raw,B
4,Oleksiy Solovyov,O,Ukraine,105.00,,,,,,215,230,-240,230,,,,,,,230.0,110,M,Олексій Соловйов,1975,Raw,B
5,Vyacheslav Berezin,O,Russia,109.30,,,,,,210,220,230,230,,,,,,,230.0,110,M,Вячеслав Березин,1981,Raw,B
6,Andrey Sazonov,O,Kazakhstan,105.80,,,,,,220,-230,,220,,,,,,,220.0,110,M,,1980,Raw,B
7,Santiago Fernandes,O,Spain,104.10,,,,,,210,-220,-220,210,,,,,,,210.0,110,M,,1981,Raw,B
8,Cory Henry,O,USA,105.80,,,,,,207.5,-220,-220,207.5,,,,,,,207.5,110,M,,1976,Raw,B
9,Vladislavs Sems,O,Latvia,107.50,,,,,,190,197.5,-200,197.5,,,,,,,197.5,110,M,,1978,Raw,B
10,Iván Kozári,O,Hungary,107.50,,,,,,182.5,190,195,195,,,,,,,195.0,110,M,,1976,Raw,B
11,Tsvetan Velin,O,Bulgaria,104.70,,,,,,-160,-160,170,170,,,,,,,170.0,110,M,,1988,Raw,B
1,Dmitriy Tenetko,M1,Russia,109.40,,,,,,230,245,-257.5,245,,,,,,,245.0,110,M,Дмитрий Тенетко,1975,Raw,B
2,Oleksiy Solovyov,M1,Ukraine,105.00,,,,,,215,230,-240,230,,,,,,,230.0,110,M,Олексій Соловйов,1975,Raw,B
3,Gennadiy Krechin,M1,Kazakhstan,105.60,,,,,,187.5,197.5,-202.5,197.5,,,,,,,197.5,110,M,,1974,Raw,B
4,Ivan Solntsev,M1,Russia,100.60,,,,,,185,195,-200,195,,,,,,,195.0,110,M,Иван Солнцев,1974,Raw,B
5,Eric Platel,M1,France,107.00,,,,,,180,190,-200,190,,,,,,,190.0,110,M,,1971,Raw,B
6,Jose Serrador,M1,Spain,102.90,,,,,,-145,145,-150,145,,,,,,,145.0,110,M,,,Raw,B
1,István Hegedüs,M2,Hungary,108.20,,,,,,205,215,-230,215,,,,,,,215.0,110,M,,1967,Raw,B
2,Pedro Madureira,M2,Portugal,107.30,,,,,,-135,135,145,145,,,,,,,145.0,110,M,,1969,Raw,B
1,Alexey Neklyudov,M3,Russia,108.80,,,,,,200,-211,,200,,,,,,,200.0,110,M,Алексей Неклюдов,1964,Raw,B
1,Joaquim Morais,M4,Portugal,108.20,,,,,,145,155,157.5,157.5,,,,,,,157.5,110,M,,1958,Raw,B
2,Marat Jailaybaev,M4,Kazakhstan,102.20,,,,,,135,145,-155,145,,,,,,,145.0,110,M,,1956,Raw,B
1,Mikhail Nagaybekov,M5,Kazakhstan,108.80,,,,,,-140,145,-150,145,,,,,,,145.0,110,M,,1953,Raw,B
2,Roman Denikaev,M5,Russia,104.70,,,,,,130,140,-145,140,,,,,,,140.0,110,M,Роман Деникаев,1955,Raw,B
1,Anastas Solovyev,J,Kazakhstan,118.90,,,,,,200,210,217.5,217.5,,,,,,,217.5,125,M,,1992,Raw,B
1,Rustam Yulchiev,O,Kazakhstan,117.60,,,,,,230,240,,240,,,,,,,240.0,125,M,,1977,Raw,B
2,Vladimir Golubev,O,Kazakhstan,119.40,,,,,,220,230,,230,,,,,,,230.0,125,M,,1986,Raw,B
3,Abilfaz Jafarov,O,Azerbaijan,115.20,,,,,,200,215,222.5,222.5,,,,,,,222.5,125,M,,1982,Raw,B
4,Mehdi Aliyev,O,Azerbaijan,113.00,,,,,,160,175,185,185,,,,,,,185.0,125,M,,1985,Raw,B
1,Mirosław Zakrzewski,M1,Poland,112.90,,,,,,200,-210,215,215,,,,,,,215.0,125,M,,1974,Raw,B
2,Erik Susztay,M1,Slovakia,123.10,,,,,,205,212.5,-220,212.5,,,,,,,212.5,125,M,,1972,Raw,B
3,Mariks Daugavets,M1,Latvia,120.00,,,,,,205,212.5,-220,212.5,,,,,,,212.5,125,M,,1971,Raw,B
4,Oliver Kopp Dr. Marc,M1,Germany,117.10,,,,,,190,205,-215,205,,,,,,,205.0,125,M,,1972,Raw,B
1,Dmitry Gorbachev,M2,Russia,116.70,,,,,,215,222.5,,222.5,,,,,,,222.5,125,M,Дмитрий Горбачев,1970,Raw,B
2,Mikhail Shumikhin,M2,Kazakhstan,118.80,,,,,,215,222.5,-227.5,222.5,,,,,,,222.5,125,M,,1968,Raw,B
1,Jiří Hájek,M3,Czechia,119.20,,,,,,160,170,177.5,177.5,,,,,,,177.5,125,M,,1962,Raw,B
1,Carlos García,M4,Spain,117.50,,,,,,175,-180,-180,175,,,,,,,175.0,125,M,,1959,Raw,B
2,Anatoliy Evgrafov,M4,Russia,119.50,,,,,,160,,,160,,,,,,,160.0,125,M,Анатолий Евграфов,1960,Raw,B
1,Josef Hakl,M6,Czechia,114.90,,,,,,155,160,-165,160,,,,,,,160.0,125,M,,1950,Raw,B
1,Denis Borcha,T1,Slovakia,126.40,,,,,,105,115,-120,115,,,,,,,115.0,140,M,,2000,Raw,B
1,Pavel Redkin,O,Russia,126.10,,,,,,240,-242.5,-242.5,240,,,,,,,240.0,140,M,Павел Редькин,1985,Raw,B
2,Aidar Koshkarov,O,Kazakhstan,126.60,,,,,,225,232.5,-242.5,232.5,,,,,,,232.5,140,M,,1976,Raw,B
3,Ryan Hough,O,UK,139.80,,,,,,170,185,192.5,192.5,,,,,,,192.5,140,M,,1984,Raw,B
4,Vasif Guliyev,O,Azerbaijan,125.90,,,,,,180,-190,192.5,192.5,,,,,,,192.5,140,M,,1982,Raw,B
5,Andrejs Greņs,O,Latvia,126.50,,,,,,180,-185,185,185,,,,,,,185.0,140,M,,1981,Raw,B
1,Peter Diethalm,M1,Switzerland,128.00,,,,,,207.5,217.5,222.5,222.5,,,,,,,222.5,140,M,,1974,Raw,B
2,Alexey Brazhkin,M1,Russia,135.70,,,,,,190,-210,,190,,,,,,,190.0,140,M,Алексей Бражкин,1971,Raw,B
1,Alexander Kovalevsky,M3,Russia,138.20,,,,,,210,230,240.5,240.5,,,,,,,240.5,140,M,Александр Ковалевский,1963,Raw,B
1,Rankyn Freyded Bejerano,M1,Spain,191.40,,,,,,220,235,-240,235,,,,,,,235.0,140+,M,,1975,Raw,B
1,Viktor Kochmar,M2,Ukraine,140.70,,,,,,190,200,-210,200,,,,,,,200.0,140+,M,Віктор Кочмар,1970,Raw,B
1,Julio Garcia Avelino,M3,Spain,150.20,,,,,,210,238,,238,,,,,,,238.0,140+,M,,1964,Raw,B
2,László Vass,M3,Hungary,140.50,,,,,,170,180,185,185,,,,,,,185.0,140+,M,,1964,Raw,B
1,Júlia Kostúrová,O,Slovakia,72.80,,,,,,150,160,-170,160,,,,,,,160.0,75,F,,1989,Multi-ply,B
1,Dagmar Liptáková,O,Slovakia,65.10,,,,,,130,-140,-140,130,,,,,,,130.0,67.5,F,,1976,Multi-ply,B
2,Wiebke Hinrichsen,O,Germany,65.80,,,,,,110,117.5,125,125,,,,,,,125.0,67.5,F,,1983,Multi-ply,B
1,Emma Ylitalo-James,O,UK,80.30,,,,,,180,-191,191,191,,,,,,,191.0,82.5,F,,1969,Single-ply,B
2,Zdenka Hudíková,O,Slovakia,82.20,,,,,,130,140,-150,140,,,,,,,140.0,82.5,F,,1980,Multi-ply,B
1,Linda Koos,M5,USA,95.10,,,,,,45,50,-57.5,50,,,,,,,50.0,90+,F,,1954,Multi-ply,B
1,Marek Herák,T3,Slovakia,60.00,,,,,,170,180,-190,180,,,,,,,180.0,60,M,,1995,Multi-ply,B
1,Marek Herák,O,Slovakia,60.00,,,,,,170,180,-190,180,,,,,,,180.0,60,M,,1995,Multi-ply,B
1,Gary Bobrovitz,M5,Canada,65.50,,,,,,140,145,-150,145,,,,,,,145.0,67.5,M,,1952,Multi-ply,B
1,Agshin Ismayilov,O,Azerbaijan,75.00,,,,,,215,232.5,237.5,237.5,,,,,,,237.5,75,M,,1978,Multi-ply,B
DQ,Roman Pelykh,O,Ukraine,74.10,,,,,,-230,-235,-235,,,,,,,,,75,M,Роман Пелих,1985,Multi-ply,B
1,Michel Faugue,M4,France,74.70,,,,,,145,-150,152.5,152.5,,,,,,,152.5,75,M,,1959,Multi-ply,B
1,Gabriel Kováč,J,Slovakia,78.30,,,,,,250,-260,-265,250,,,,,,,250.0,82.5,M,,1995,Multi-ply,B
2,Bendix Piepenhagen,J,Germany,80.70,,,,,,185,-202.5,-202.5,185,,,,,,,185.0,82.5,M,,1993,Multi-ply,B
1,Gabriel Kováč,O,Slovakia,78.30,,,,,,250,-260,-265,250,,,,,,,250.0,82.5,M,,1995,Multi-ply,B
2,Valentin Cacici,O,France,82.00,,,,,,230,237.5,-242.5,237.5,,,,,,,237.5,82.5,M,,1989,Multi-ply,B
3,Steffen Hackbart,O,Germany,80.10,,,,,,225,232.5,-240,232.5,,,,,,,232.5,82.5,M,,1984,Multi-ply,B
4,Nikolay Klass,O,Germany,75.60,,,,,,150,165,-175,165,,,,,,,165.0,82.5,M,,1987,Multi-ply,B
DQ,Bayram Aliev,O,Azerbaijan,82.50,,,,,,-240,-245,-245,,,,,,,,,82.5,M,,1985,Multi-ply,B
1,Miroslav Čaba,J,Slovakia,88.10,,,,,,240,-250,250,250,,,,,,,250.0,90,M,,1993,Multi-ply,B
1,Dmitriy Lomeyko,O,Ukraine,88.40,,,,,,255,265,-270,265,,,,,,,265.0,90,M,Дмитро Ломейко,1983,Multi-ply,B
DQ,Didier Theux,O,France,88.00,,,,,,-235,-235,-235,,,,,,,,,90,M,,1958,Multi-ply,B
1,Alexander Petrov,M4,Russia,89.50,,,,,,-240,,255,255,,,,,,,255.0,90,M,Александр Петров,1960,Multi-ply,B
DQ,Didier Theux,M4,France,88.00,,,,,,-235,-235,-235,,,,,,,,,90,M,,1958,Multi-ply,B
1,Alain-Francis Mattei,M5,France,88.00,,,,,,-160,160,167.5,167.5,,,,,,,167.5,90,M,,1955,Multi-ply,B
1,Valērijs Petrovs,M6,Latvia,89.30,,,,,,135,140,145,145,,,,,,,145.0,90,M,,1946,Multi-ply,B
1,Konrad Merta,M8,Germany,87.60,,,,,,107.5,-125,-125,107.5,,,,,,,107.5,90,M,,1938,Multi-ply,B
1,Marcus Hever,J,Germany,99.90,,,,,,265,-280,-292.5,265,,,,,,,265.0,100,M,,,Multi-ply,B
1,Eldar Mammadov,O,Azerbaijan,99.40,,,,,,250,270,-287.5,270,,,,,,,270.0,100,M,,1978,Multi-ply,B
DQ,Steve Gameiro Barros,O,France,96.70,,,,,,-280,-280,-285,,,,,,,,,100,M,,1978,Multi-ply,B
1,Vagif Mammadov,M1,Azerbaijan,95.50,,,,,,-170,170,200,200,,,,,,,200.0,100,M,,1972,Multi-ply,B
1,Helmut Silberbauer,M3,Austria,92.80,,,,,,160,-180,180,180,,,,,,,180.0,100,M,,1964,Multi-ply,B
1,Valeriy Akentyev,M4,Russia,99.30,,,,,,-245,245,-252.5,245,,,,,,,245.0,100,M,Валерий Акентьев,1958,Multi-ply,B
1,Hans-Jurgen Borkowski,M6,Germany,93.90,,,,,,140,-150,150,150,,,,,,,150.0,100,M,,1950,Multi-ply,B
1,Dominik Gabriel,T2,Slovakia,109.30,,,,,,150,160,170,170,,,,,,,170.0,110,M,,1998,Multi-ply,B
1,Ricardo Alves Ruela Bruno,O,Portugal,108.30,,,,,,255,270,-280,270,,,,,,,270.0,110,M,,1988,Multi-ply,B
DQ,Eric Platel,M1,France,108.30,,,,,,-250,-250,-250,,,,,,,,,110,M,,1971,Multi-ply,B
1,Pedro Madureira,M2,Portugal,108.30,,,,,,130,-150,-160,130,,,,,,,130.0,110,M,,1969,Multi-ply,B
1,Eemeli Ylitalo-James Kalle,O,Finland,117.10,,,,,,-300,300,-315,300,,,,,,,300.0,125,M,,1983,Multi-ply,B
2,Sami Huhtala,O,Finland,118.70,,,,,,280,300,-315,300,,,,,,,300.0,125,M,,1974,Multi-ply,B
3,Sergio Silva,O,Portugal,119.40,,,,,,-210,220,230,230,,,,,,,230.0,125,M,,1977,Multi-ply,B
DQ,Dmitry Gorbachev,O,Russia,118.30,,,,,,-310,-320,-320,,,,,,,,,125,M,Дмитрий Горбачев,1970,Multi-ply,B
DQ,Steve Macneil,O,UK,123.90,,,,,,-345,-360,-370,,,,,,,,,125,M,,1984,Multi-ply,B
1,Sami Huhtala,M1,Finland,118.70,,,,,,280,300,-315,300,,,,,,,300.0,125,M,,1974,Multi-ply,B
DQ,Dmitry Gorbachev,M2,Russia,118.30,,,,,,-310,-320,-320,,,,,,,,,125,M,Дмитрий Горбачев,1970,Multi-ply,B
1,Krystian Slosarek,M4,Germany,115.00,,,,,,185,207.5,-220,207.5,,,,,,,207.5,125,M,,1958,Multi-ply,B
1,Josef Hakl,M6,Czechia,114.50,,,,,,185,-195,-195,185,,,,,,,185.0,125,M,,1950,Multi-ply,B
1,Denis Borcha,T1,Slovakia,125.60,,,,,,120,135,145,145,,,,,,,145.0,140,M,,2000,Multi-ply,B
1,Alexey Brazhkin,M1,Russia,135.50,,,,,,260,280,-300,280,,,,,,,280.0,140,M,Алексей Бражкин,1971,Multi-ply,B
1,Péter Mihály,M4,Slovakia,160.40,,,,,,200,,,200,,,,,,,200.0,140+,M,,1958,Multi-ply,B
1,Bianca Helmdach,O,Germany,42.30,,,,,,65,70,75,75,-80,,,,,,75.0,44,F,,1989,Single-ply,B
1,Evgenia Gilinskaya,O,Kazakhstan,51.60,,,,,,70,80,,80,,,,,,,80.0,52,F,,1986,Single-ply,B
1,Irina Selivanova,O,Kazakhstan,55.70,,,,,,90,95,100,100,103,,,,,,100.0,56,F,,1973,Single-ply,B
1,Rita Nagy,O,Hungary,64.90,,,,,,145,-152.5,152.5,152.5,155,,,,,,152.5,67.5,F,,1974,Single-ply,B
2,Xeniya Khan,O,Kazakhstan,67.40,,,,,,125,132.5,,132.5,,,,,,,132.5,67.5,F,,1987,Single-ply,B
1,Linda Broom,M3,UK,67.10,,,,,,82.5,87.5,-92.5,87.5,,,,,,,87.5,67.5,F,,1963,Single-ply,B
1,Emma Ylitalo-James,O,UK,74.80,,,,,,180,-192.5,192.5,192.5,200,,,,,,192.5,75,F,,1969,Single-ply,B
1,Emma Ylitalo-James,M2,UK,74.80,,,,,,180,-192.5,192.5,192.5,200,,,,,,192.5,75,F,,1969,Single-ply,B
1,Elena Pastler,O,Kazakhstan,75.10,,,,,,112.5,117.5,122.5,122.5,,,,,,,122.5,82.5,F,,1980,Single-ply,B
1,Ann Estabrooks Margaret,M6,Canada,81.90,,,,,,35,-40,-42.5,35,,,,,,,35.0,82.5,F,,1947,Single-ply,B
1,Linda Koos,M5,USA,94.90,,,,,,35,42.5,-48,42.5,,,,,,,42.5,90+,F,,1954,Single-ply,B
1,Aziza Abduraimova,O,Kazakhstan,95.20,,,,,,130,137.5,,137.5,,,,,,,137.5,90+,F,,1989,Single-ply,B
1,Islam Aripov,T3,Kazakhstan,58.60,,,,,,125,135,-140,135,,,,,,,135.0,60,M,,1997,Single-ply,B
1,Islam Aripov,O,Kazakhstan,58.60,,,,,,125,135,-140,135,,,,,,,135.0,60,M,,1997,Single-ply,B
1,Krzysztof Wolszczak,O,Poland,64.40,,,,,,105,115,130,130,,,,,,,130.0,67.5,M,,1985,Single-ply,B
1,Ramin Rzayev,O,Azerbaijan,75.00,,,,,,210,220,-230,220,,,,,,,220.0,75,M,,1980,Single-ply,B
2,Aleksi Wahlström Arttu,O,Finland,74.70,,,,,,180,-200,-200,180,,,,,,,180.0,75,M,,1986,Single-ply,B
1,Vincent Eldin,M1,France,74.60,,,,,,165,175,180,180,-200,,,,,,180.0,75,M,,1972,Single-ply,B
2,Denis Tomsin,M1,France,74.80,,,,,,145,155,-165,155,,,,,,,155.0,75,M,,1974,Single-ply,B
1,Rafał Żarnowski,J,Poland,81.90,,,,,,170,-177.5,177.5,177.5,,,,,,,177.5,82.5,M,,1992,Single-ply,B
2,Pedro Rocha,J,Portugal,81.00,,,,,,-110,-110,110,110,,,,,,,110.0,82.5,M,,1992,Single-ply,B
1,Alim Unembaev,O,Kazakhstan,75.80,,,,,,195,205,217.5,217.5,,,,,,,217.5,82.5,M,,1982,Single-ply,B
2,Gerrit Scheel,O,Germany,81.60,,,,,,195,200,-217.5,200,,,,,,,200.0,82.5,M,,1991,Single-ply,B
3,Fellag Mohamed,O,France,79.50,,,,,,175,-185,185,185,,,,,,,185.0,82.5,M,,1977,Single-ply,B
4,João Henriques,O,Portugal,79.20,,,,,,-175,175,-185,175,,,,,,,175.0,82.5,M,,1987,Single-ply,B
1,Attila Nyikos Kiss,M2,Hungary,82.30,,,,,,140,-150,-150,140,,,,,,,140.0,82.5,M,,1970,Single-ply,B
1,Christoph Scheel,O,Germany,88.90,,,,,,-240,-240,240,240,,,,,,,240.0,90,M,,1985,Single-ply,B
2,Daniel Fonseca,O,Portugal,88.70,,,,,,200,215,220,220,,,,,,,220.0,90,M,,1981,Single-ply,B
3,Roman Yakovlev,O,Kazakhstan,90.00,,,,,,190,205,-217.5,205,,,,,,,205.0,90,M,,1989,Single-ply,B
4,Diogo Acurcio,O,Portugal,88.30,,,,,,-165,-165,165,165,,,,,,,165.0,90,M,,1990,Single-ply,B
DQ,Patrick Bevan,M2,France,87.00,,,,,,-160,-160,-160,,,,,,,,,90,M,,1967,Single-ply,B
1,Milan Surkoš,M3,Slovakia,86.50,,,,,,125,135,-150,135,,,,,,,135.0,90,M,,1964,Single-ply,B
1,Ilya Maslov,O,Kazakhstan,99.90,,,,,,-270,270,290,290,,,,,,,290.0,100,M,,1989,Single-ply,B
2,Dawid Deptuch,O,Poland,93.80,,,,,,220,230,-240,230,,,,,,,230.0,100,M,,1986,Single-ply,B
3,Timur Lutfullaev,O,Kazakhstan,99.90,,,,,,160,180,-200,180,,,,,,,180.0,100,M,,1988,Single-ply,B
1,Juliusz Zbierski,M1,Poland,95.40,,,,,,205,-212.5,-212.5,205,,,,,,,205.0,100,M,,1974,Single-ply,B
1,Franciszek Szabluk,M4,Poland,96.40,,,,,,190,-200,200,200,-217.5,,,,,,200.0,100,M,,1956,Single-ply,B
1,Jan Mráz,M5,Slovakia,98.80,,,,,,160,180,-190,180,,,,,,,180.0,100,M,,1955,Single-ply,B
1,Hans-Jurgen Borkowski,M6,Germany,92.20,,,,,,-140,140,-150,140,,,,,,,140.0,100,M,,1950,Single-ply,B
1,Dominik Gabriel,T2,Slovakia,109.30,,,,,,120,140,-160,140,,,,,,,140.0,110,M,,1998,Single-ply,B
1,Todor Kapashikov,O,Ghana,110.00,,,,,,280,290,-300,290,,,,,,,290.0,110,M,,1984,Single-ply,B
2,Andrey Sazonov,O,Kazakhstan,105.60,,,,,,240,250,-290,250,,,,,,,250.0,110,M,,1980,Single-ply,B
3,Vladimir Menshikov,O,Kazakhstan,104.30,,,,,,-232.5,-232.5,237.5,237.5,,,,,,,237.5,110,M,,1985,Single-ply,B
4,Ivan Solntsev,O,Russia,101.60,,,,,,225,-235,-235,225,,,,,,,225.0,110,M,Иван Солнцев,1974,Single-ply,B
5,Igor Kalyamin,O,Kazakhstan,103.40,,,,,,220,225,-230,225,,,,,,,225.0,110,M,,1973,Single-ply,B
DQ,Ruben Tagliaferro,O,Portugal,108.30,,,,,,-210,-210,-210,,,,,,,,,110,M,,,Single-ply,B
DQ,Ismayil Ganjali,O,Azerbaijan,102.20,,,,,,-200,-225,-230,,,,,,,,,110,M,,1976,Single-ply,B
1,Gennadiy Krechin,M1,Kazakhstan,106.10,,,,,,215,230,237.5,237.5,,,,,,,237.5,110,M,,1974,Single-ply,B
2,Ivan Solntsev,M1,Russia,101.60,,,,,,225,-235,235,235,,,,,,,235.0,110,M,Иван Солнцев,1974,Single-ply,B
3,Igor Kalyamin,M1,Kazakhstan,103.40,,,,,,220,225,-230,225,,,,,,,225.0,110,M,,1973,Single-ply,B
4,Marián Milý,M1,Slovakia,108.40,,,,,,180,195,-210,195,,,,,,,195.0,110,M,,1973,Single-ply,B
1,Alizada Kamran,M3,Azerbaijan,101.50,,,,,,130,,,130,,,,,,,130.0,110,M,,1964,Single-ply,B
DQ,Ruben Tagliaferro,M3,Portugal,108.30,,,,,,-210,-210,-210,,,,,,,,,110,M,,,Single-ply,B
1,Hans-Ulrich Vetter,M5,Germany,104.80,,,,,,182.5,192.5,202.5,202.5,,,,,,,202.5,110,M,,1952,Single-ply,B
1,Denis Borcha,T1,Slovakia,124.30,,,,,,120,130,140,140,,,,,,,140.0,125,M,,2000,Single-ply,B
1,Aleksandr Sykmenyov,O,Russia,113.00,,,,,,350,365,375,375,,,,,,,375.0,125,M,Александр Сыкменёв,1978,Single-ply,B
2,Grzegorz Wałga,O,Poland,116.50,,,,,,340,-350.5,352.5,352.5,,,,,,,352.5,125,M,,1987,Single-ply,B
3,Rustam Yulchiev,O,Kazakhstan,116.70,,,,,,320,-350.5,-355,320,,,,,,,320.0,125,M,,1977,Single-ply,B
4,Sami Huhtala,O,Finland,118.70,,,,,,260,270,272.5,272.5,,,,,,,272.5,125,M,,1974,Single-ply,B
1,Sami Huhtala,M1,Finland,118.70,,,,,,260,270,272.5,272.5,,,,,,,272.5,125,M,,1974,Single-ply,B
2,Mirosław Zakrzewski,M1,Poland,115.00,,,,,,-240,240,270,270,,,,,,,270.0,125,M,,1974,Single-ply,B
1,Carlos Garcia Perez,M4,Spain,119.60,,,,,,230,-250.5,-250.5,230,,,,,,,230.0,125,M,,1959,Single-ply,B
1,Aidar Koshkarov,O,Kazakhstan,127.50,,,,,,220,240,255,255,,,,,,,255.0,140,M,,1976,Single-ply,B
1,Rankyn Freyded Bejerano,M1,Spain,191.70,,,,,,-270,-290,295,295,,,,,,,295.0,140+,M,,1975,Single-ply,B
1,Irina Pomerantsev,O,Israel,42.80,,,,,,,,,,,95,100,106,106,,106.0,44,F,,1970,Raw,D
1,Irina Pomerantsev,M2,Israel,42.80,,,,,,,,,,,95,100,106,106,,106.0,44,F,,1970,Raw,D
1,Sara Silva,J,Portugal,51.90,,,,,,,,,,,105,115,-125,115,,115.0,52,F,,1993,Raw,D
1,Mariya Yultsova,O,Russia,55.40,,,,,,,,,,,115,122.5,130,130,,130.0,56,F,Мария Юльцова,1982,Raw,D
2,Stephanie Taylor,O,UK,53.50,,,,,,,,,,,105,115,-120,115,,115.0,56,F,,1986,Raw,D
1,Galiya Aymagambetova,M4,Kazakhstan,54.00,,,,,,,,,,,90,-95,97.5,97.5,,97.5,56,F,,1959,Raw,D
1,Csilla Sipos,T2,Hungary,59.00,,,,,,,,,,,105,115,-120,115,,115.0,60,F,,1997,Raw,D
1,Laurane Gardiner,T3,France,57.10,,,,,,,,,,,90,100,110,110,,110.0,60,F,,1997,Raw,D
1,Marisa Franco,O,Portugal,58.00,,,,,,,,,,,140,147.5,157.5,157.5,,157.5,60,F,,1990,Raw,D
1,Anna-Marie Harding,T2,UK,65.90,,,,,,,,,,,130,137.5,-142.5,137.5,,137.5,67.5,F,,1998,Raw,D
1,Etelvina Neves,O,Portugal,67.40,,,,,,,,,,,160,170,177.5,177.5,,177.5,67.5,F,,1986,Raw,D
2,Erica Rodriguez,O,Spain,63.50,,,,,,,,,,,90,105,112.5,112.5,,112.5,67.5,F,,1983,Raw,D
1,Kristina Titlinova,J,Kazakhstan,74.60,,,,,,,,,,,150,-160,,150,,150.0,75,F,,1993,Raw,D
1,Holly Ware,O,UK,73.10,,,,,,,,,,,170,-182.5,-190,170,,170.0,75,F,,1987,Raw,D
1,Ann Estabrooks Margaret,O,Canada,81.60,,,,,,,,,,,90,92.5,100,100,,100.0,82.5,F,,1947,Raw,D
1,Ann Estabrooks Margaret,M6,Canada,81.60,,,,,,,,,,,90,92.5,100,100,,100.0,82.5,F,,1947,Raw,D
1,Kirill Litvinov,T1,Kazakhstan,51.60,,,,,,,,,,,120,130,145,145,,145.0,52,M,,2002,Raw,D
1,Gonçalo Teixeira,T1,Portugal,35.70,,,,,,,,,,,45,50,-55,50,,50.0,52,M,,2006,Raw,D
1,Kirill Litvinov,O,Kazakhstan,51.60,,,,,,,,,,,120,130,145,145,,145.0,52,M,,2002,Raw,D
1,Lavikka Sampo Tapio,O,Finland,53.80,,,,,,,,,,,105,110,-112.5,110,,110.0,56,M,,1982,Raw,D
1,Batyrkhan Yermagambetov,T2,Kazakhstan,60.00,,,,,,,,,,,130,140,150,150,,150.0,60,M,,1999,Raw,D
1,Aleksandr Romanichev,M3,Israel,59.60,,,,,,,,,,,170,190,195,195,,195.0,60,M,,1963,Raw,D
1,Carlos Cadenas Borraz,T2,Mexico,66.50,,,,,,,,,,,150,160,-165,160,,160.0,67.5,M,,1999,Raw,D
1,Louis Chard,T1,France,73.80,,,,,,,,,,,-100,120,-150,120,,120.0,75,M,,1999,Raw,D
1,Mitchell Horrocks,J,UK,68.80,,,,,,,,,,,262.5,-272.5,-272.5,262.5,,262.5,75,M,,1994,Raw,D
1,Mitchell Horrocks,O,UK,68.80,,,,,,,,,,,262.5,-272.5,-272.5,262.5,,262.5,75,M,,1994,Raw,D
2,Pavel Eliseev,O,Russia,74.60,,,,,,,,,,,230,-245,245,245,,245.0,75,M,Павел Елисеев,1986,Raw,D
DQ,Alim Unembaev,O,Kazakhstan,74.40,,,,,,,,,,,-180,,,,,,75,M,,1982,Raw,D
DQ,Carlos Vidas,O,Portugal,74.70,,,,,,,,,,,-230,-230,,,,,75,M,,1983,Raw,D
1,Nigel Orme,M3,UK,73.70,,,,,,,,,,,150,155,162.5,162.5,,162.5,75,M,,1961,Raw,D
1,Torge Trieglaff,T3,Germany,80.70,,,,,,,,,,,-185,185,-190,185,,185.0,82.5,M,,1997,Raw,D
1,Nikolay Zemtsov,J,Kazakhstan,82.30,,,,,,,,,,,300,312.5,326,326,,326.0,82.5,M,,1992,Raw,D
2,Pedro Rocha,J,Portugal,79.20,,,,,,,,,,,190,200,215,215,,215.0,82.5,M,,1992,Raw,D
1,Nikolay Zemtsov,O,Kazakhstan,82.30,,,,,,,,,,,300,312.5,326,326,,326.0,82.5,M,,1992,Raw,D
1,Valikhan Ten,O,Kazakhstan,80.00,,,,,,,,,,,260,280,-290,280,,280.0,82.5,M,,1979,Raw,D
2,John Warburton,O,UK,80.20,,,,,,,,,,,225,235,242.5,242.5,,242.5,82.5,M,,1987,Raw,D
3,Douglas Lisle,O,UK,80.70,,,,,,,,,,,220,-230,230,230,,230.0,82.5,M,,1980,Raw,D
4,Diogo Menino,O,Portugal,79.60,,,,,,,,,,,200,-225,,200,,200.0,82.5,M,,1977,Raw,D
1,Colin Mullaney,M4,Canada,82.00,,,,,,,,,,,170,190,207,207,,207.0,82.5,M,,1959,Raw,D
2,Ismael Barrio,M4,Spain,79.50,,,,,,,,,,,190,206.5,-207,206.5,,206.5,82.5,M,,1959,Raw,D
1,Vilho Määttä,M5,Finland,81.40,,,,,,,,,,,170,190,200,200,,200.0,82.5,M,,1952,Raw,D
2,Rui Faria,M5,Portugal,80.30,,,,,,,,,,,160,170,-180,170,,170.0,82.5,M,,1951,Raw,D
1,Birchmans Pereira,M6,Canada,79.00,,,,,,,,,,,192.5,210,,210,,210.0,82.5,M,,1946,Raw,D
2,Ladislau Kiss,M6,Hungary,81.30,,,,,,,,,,,195,-207.5,-212.5,195,,195.0,82.5,M,,1948,Raw,D
1,Krisztian Balazs,T2,Hungary,90.00,,,,,,,,,,,180,190,-200,190,,190.0,90,M,,1999,Raw,D
1,Viktor Timorskiy,T3,Kazakhstan,89.60,,,,,,,,,,,280,295,-297.5,295,,295.0,90,M,,1996,Raw,D
1,Tim Hapke,T3,Germany,83.30,,,,,,,,,,,195,205,-215.5,205,,205.0,90,M,,1996,Raw,D
2,Andrey Gabuev,T3,Russia,88.70,,,,,,,,,,,160,170,175,175,,175.0,90,M,Андрей Габуев,1996,Raw,D
1,Yevgeny Likhachev,J,Kazakhstan,90.00,,,,,,,,,,,260,270,-280,270,,270.0,90,M,,1993,Raw,D
1,Renato Santos,J,Portugal,87.60,,,,,,,,,,,190,210,220,220,,220.0,90,M,,1994,Raw,D
1,Cristian Sardon Ajala,O,Spain,88.10,,,,,,,,,,,280,290,297.5,297.5,,297.5,90,M,,,Raw,D
2,Viktor Timorskiy,O,Kazakhstan,89.60,,,,,,,,,,,280,295,-297.5,295,,295.0,90,M,,1996,Raw,D
3,Ricardo Monteiro,O,Portugal,89.20,,,,,,,,,,,270,-285,-285,270,,270.0,90,M,,1987,Raw,D
4,José Blanco,O,Portugal,86.90,,,,,,,,,,,260,-280,-280,260,,260.0,90,M,,1987,Raw,D
5,Jose Teixeira Fuentes,O,Portugal,89.90,,,,,,,,,,,250,-265,,250,,250.0,90,M,,1970,Raw,D
1,Jose Teixeira Fuentes,M2,Portugal,89.90,,,,,,,,,,,250,-265,,250,,250.0,90,M,,1970,Raw,D
1,Helmut Silberbauer,M3,Austria,87.50,,,,,,,,,,,220,240,250,250,,250.0,90,M,,1964,Raw,D
2,Petri Kalevi Mäkinen,M3,Finland,88.20,,,,,,,,,,,150,170,-175,170,,170.0,90,M,,1963,Raw,D
1,Heinz Buhl,M4,Austria,87.70,,,,,,,,,,,200,230,,230,,230.0,90,M,,1956,Raw,D
1,Ferenc Smuck,M5,Hungary,87.60,,,,,,,,,,,230,237.5,-242.5,237.5,,237.5,90,M,,1952,Raw,D
1,Evgeniy Khudoleev,M6,Russia,88.40,,,,,,,,,,,220,230,240,240,,240.0,90,M,Евгений Худолеев,1946,Raw,D
2,William Allen,M6,USA,85.50,,,,,,,,,,,115,125,137.5,137.5,,137.5,90,M,,1946,Raw,D
1,Aimo Mursu,M7,Finland,82.70,,,,,,,,,,,150,170,180,180,,180.0,90,M,,1942,Raw,D
1,Arystan Sharipov,T2,Kazakhstan,94.00,,,,,,,,,,,140,150,160,160,,160.0,100,M,,1999,Raw,D
1,Israel Laguna,T3,Mexico,97.90,,,,,,,,,,,265,275,-280,275,,275.0,100,M,,1996,Raw,D
1,Fabio Varela,O,Portugal,97.70,,,,,,,,,,,310,322.5,-325,322.5,,322.5,100,M,,1984,Raw,D
2,Aaron Fillery,O,UK,93.60,,,,,,,,,,,250,255,-260,255,,255.0,100,M,,1987,Raw,D
1,Randall Crooks,M1,UK,94.80,,,,,,,,,,,260,280,,280,,280.0,100,M,,1973,Raw,D
1,Imangali Kurbanov,M2,Kazakhstan,97.50,,,,,,,,,,,140,,,140,,140.0,100,M,,1965,Raw,D
1,Johann Delueg,M3,Austria,96.30,,,,,,,,,,,220,245,-255,245,,245.0,100,M,,1965,Raw,D
2,Murat Jaitabarov,M3,Kazakhstan,96.80,,,,,,,,,,,130,,,130,,130.0,100,M,,1963,Raw,D
1,Antonin Adamov,M4,Russia,98.70,,,,,,,,,,,200,220,240,240,,240.0,100,M,Антонин Адамов,1958,Raw,D
2,Valeriy Akentyev,M4,Russia,98.90,,,,,,,,,,,190,205,225,225,,225.0,100,M,Валерий Акентьев,1958,Raw,D
1,Bernal Rodriguez,M6,Portugal,91.70,,,,,,,,,,,230,240,-250,240,,240.0,100,M,,,Raw,D
2,Stefan Sochański,M6,Poland,90.10,,,,,,,,,,,197.5,222.5,-240,222.5,,222.5,100,M,,1948,Raw,D
1,Leonardo De Roeck,T1,Portugal,102.90,,,,,,,,,,,210,230,235,235,,235.0,110,M,,2000,Raw,D
1,Knyaz Makhmudov,T3,Kazakhstan,107.50,,,,,,,,,,,285,300,-320,300,,300.0,110,M,,1996,Raw,D
1,Yevgeniy Rakhimov,O,Kazakhstan,107.40,,,,,,,,,,,305,310,-315,310,,310.0,110,M,,1987,Raw,D
2,Santiago Fernandez Linares,O,Spain,104.10,,,,,,,,,,,-280,282.5,292.5,292.5,,292.5,110,M,,1981,Raw,D
3,Alexandar Pelovski,O,Bulgaria,105.10,,,,,,,,,,,270,282.5,292.5,292.5,,292.5,110,M,,1991,Raw,D
4,Mikhail Grinko,O,Russia,107.10,,,,,,,,,,,290,-310,-310,290,,290.0,110,M,Михаил Гринько,1978,Raw,D
5,Bruno Martins,O,Portugal,107.50,,,,,,,,,,,-230,260,-285,260,,260.0,110,M,,1982,Raw,D
1,Bogdans Topcijs,M2,Latvia,107.40,,,,,,,,,,,250,265,270,270,,270.0,110,M,,1968,Raw,D
2,Pedro Madureira,M2,Portugal,107.30,,,,,,,,,,,230,250,265,265,,265.0,110,M,,1969,Raw,D
1,Alizada Kamran,M3,Azerbaijan,102.90,,,,,,,,,,,200,,,200,,200.0,110,M,,1964,Raw,D
1,Arevalillo Gonzalez,M4,Spain,101.90,,,,,,,,,,,300,-320,-325,300,,300.0,110,M,,1957,Raw,D
2,Joaquim Morais,M4,Portugal,108.20,,,,,,,,,,,200,215,225,225,,225.0,110,M,,1958,Raw,D
3,Marat Jailaybaev,M4,Kazakhstan,102.20,,,,,,,,,,,140,,,140,,140.0,110,M,,1956,Raw,D
1,Anastas Solovyev,J,Kazakhstan,118.90,,,,,,,,,,,280,,,280,,280.0,125,M,,1992,Raw,D
1,Vladimir Golubev,O,Kazakhstan,119.40,,,,,,,,,,,-332.5,342.5,352.5,352.5,,352.5,125,M,,1986,Raw,D
2,Hristo Muskov Dimitrov,O,Bulgaria,119.40,,,,,,,,,,,330,340,-350,340,,340.0,125,M,,1985,Raw,D
1,Jean-Philippe Caren,M1,France,119.60,,,,,,,,,,,-290,290,300,300,,300.0,125,M,,1975,Raw,D
1,Antonio Russo,M4,Italy,112.80,,,,,,,,,,,300,310,320,320,,320.0,125,M,,1958,Raw,D
2,Anatoliy Evgrafov,M4,Russia,119.50,,,,,,,,,,,275,-285,-285,275,,275.0,125,M,Анатолий Евграфов,1960,Raw,D
3,Carlos Garcia Perez,M4,Spain,117.50,,,,,,,,,,,230,240,250,250,,250.0,125,M,,1959,Raw,D
1,Tofig Eivazov Shahin,O,Azerbaijan,126.50,,,,,,,,,,,300,320,-332.5,320,,320.0,140,M,,1977,Raw,D
2,Ryan Hough,O,UK,139.80,,,,,,,,,,,300,320,-332.5,320,,320.0,140,M,,1984,Raw,D
1,Anton Solovey,O,Kazakhstan,125.30,,,,,,,,,,,280,,,280,,280.0,140,M,,1993,Raw,D
1,Emmanuel Jos Pierre,O,France,157.60,,,,,,,,,,,310,-330,-330,310,,310.0,140+,M,,1980,Raw,D
1,Rankyn Freyded Bejerano,M1,Spain,191.40,,,,,,,,,,,320,340,,340,,340.0,140+,M,,1975,Raw,D
1,Linda Broom,M3,UK,67.30,,,,,,,,,,,145,155,-160,155,,155.0,67.5,F,,1963,Multi-ply,D
1,Aleksandr Romanichev,O,Israel,59.40,,,,,,,,,,,200,-220,,200,,200.0,60,M,,1963,Multi-ply,D
1,Aleksandr Romanichev,M3,Israel,59.40,,,,,,,,,,,200,-220,,200,,200.0,60,M,,1963,Multi-ply,D
1,Martins Rei Andre,J,Portugal,72.80,,,,,,,,,,,220,235,242.5,242.5,,242.5,75,M,,1993,Multi-ply,D
1,Vagif Musayev Rustam,O,Azerbaijan,75.00,,,,,,,,,,,230,-250,,230,,230.0,75,M,,1978,Multi-ply,D
1,Birchmans Pereira,M6,Canada,79.40,,,,,,,,,,,185,190,-200,190,,190.0,82.5,M,,1946,Multi-ply,D
1,Rihards Chiapas Tomass,T1,Latvia,86.60,,,,,,,,,,,190,201,205,205,,205.0,90,M,,2000,Multi-ply,D
1,Didier Theux,M4,France,88.00,,,,,,,,,,,200,225,,225,,225.0,90,M,,1958,Multi-ply,D
1,Vladimir Zhabin,O,Russia,95.10,,,,,,,,,,,345,-355,-355,345,,345.0,100,M,Владимир Жабин,1980,Multi-ply,D
2,Paulo Santos #1,O,Portugal,98.70,,,,,,,,,,,330,-342.5,-347.5,330,,330.0,100,M,,1988,Multi-ply,D
1,Mikhail Grinko,O,Russia,106.40,,,,,,,,,,,240,280,300,300,,300.0,110,M,Михаил Гринько,1978,Multi-ply,D
1,Kjell Nyhagebråten,M2,Norway,106.10,,,,,,,,,,,-280,300.5,,300.5,,300.5,110,M,,1966,Multi-ply,D
2,Pedro Madureira,M2,Portugal,108.30,,,,,,,,,,,220,240,260,260,,260.0,110,M,,1969,Multi-ply,D
1,Steve Macneil,O,UK,123.90,,,,,,,,,,,240,277.5,-300,277.5,,277.5,125,M,,1984,Multi-ply,D
1,Tony Chard,M2,France,118.20,,,,,,,,,,,250,300,,300,,300.0,125,M,,1968,Multi-ply,D
1,Ann Estabrooks Margaret,M6,Canada,81.90,,,,,,,,,,,100,,,100,,100.0,82.5,F,,1947,Single-ply,D
1,Aleksandr Romanichev,M3,Israel,59.50,,,,,,,,,,,190,210,220,220,,220.0,60,M,,1963,Single-ply,D
1,Batyrkhan Yermagambetov,T2,Kazakhstan,61.40,,,,,,,,,,,145,155,160,160,,160.0,67.5,M,,1999,Single-ply,D
DQ,Artem Mesha,T2,Kazakhstan,66.50,,,,,,,,,,,-147.5,-147.5,,,,,67.5,M,,1998,Single-ply,D
1,Valikhan Ten,O,Kazakhstan,80.70,,,,,,,,,,,-240,240,-290,240,,240.0,82.5,M,,1979,Single-ply,D
2,Birchmans Pereira,O,Canada,79.80,,,,,,,,,,,190,200,207.5,207.5,210,207.5,82.5,M,,1946,Single-ply,D
1,Patrick Breton,M4,France,80.70,,,,,,,,,,,260,-280,-280,260,,260.0,82.5,M,,1960,Single-ply,D
1,Agil Humbatov,O,Azerbaijan,88.70,,,,,,,,,,,200,230,-260,230,,230.0,90,M,,1985,Single-ply,D
1,Stefan Sochański,M6,Poland,90.00,,,,,,,,,,,230,262.5,,262.5,,262.5,90,M,,1948,Single-ply,D
1,Arystan Sharipov,T2,Kazakhstan,93.60,,,,,,,,,,,140,160,-180,160,,160.0,100,M,,1999,Single-ply,D
1,Jose Teixeira Fuentes,O,Portugal,91.00,,,,,,,,,,,260,270,277.5,277.5,-282.5,277.5,100,M,,1970,Single-ply,D
2,Khalig Ismayilov,O,Azerbaijan,99.10,,,,,,,,,,,220,235,240,240,,240.0,100,M,,1985,Single-ply,D
3,Timur Lutfullaev,O,Kazakhstan,99.90,,,,,,,,,,,210,222.5,-237,222.5,,222.5,100,M,,1988,Single-ply,D
1,Jose Teixeira Fuentes,M2,Portugal,91.00,,,,,,,,,,,260,270,277.5,277.5,-282.5,277.5,100,M,,1970,Single-ply,D
1,Antonin Adamov,M4,Russia,99.60,,,,,,,,,,,220,250,-275,250,,250.0,100,M,Антонин Адамов,1958,Single-ply,D
1,Yevgeniy Rakhimov,O,Kazakhstan,109.50,,,,,,,,,,,305,317.5,332.5,332.5,,332.5,110,M,,1987,Single-ply,D
2,Alberto Palacios,O,Spain,105.40,,,,,,,,,,,300,315,-332.5,315,,315.0,110,M,,1989,Single-ply,D
3,Vladimir Menshikov,O,Kazakhstan,104.30,,,,,,,,,,,260,-275,-275,260,,260.0,110,M,,1985,Single-ply,D
1,Kamran AliZada,M3,Azerbaijan,101.50,,,,,,,,,,,200,,,200,,200.0,110,M,,1964,Single-ply,D
1,Antonio Russo,M4,Italy,113.50,,,,,,,,,,,310,330,-342,330,,330.0,125,M,,1958,Single-ply,D
1,Richard Zenzen,M5,USA,116.40,,,,,,,,,,,180,195,,195,,195.0,125,M,,1952,Single-ply,D
1,Rankyn Freyded Bejerano,M1,Spain,191.70,,,,,,,,,,,300,,,300,,300.0,140+,M,,1975,Single-ply,D
1,Richard Frickner,M3,UK,151.50,,,,,,,,,,,227.5,271,275,275,,275.0,140+,M,,1961,Single-ply,D
