Place,WeightClassKg,Name,Equipment,Team,BodyweightKg,Best3SquatKg,Best3BenchKg,Best3DeadliftKg,TotalKg,Division,Sex,Event
1,52,Bjørn Skogheim,Wraps,Oslo AK,49.3,80,45,125,250,Teen 14-18,M,SBD
1,75,Nicki Gargano,Wraps,Oslo AK,73.5,125,90,170,385,Teen 14-18,M,SBD
2,75,Geir Hestmann,Wraps,Oslo AK,70.2,110,67.5,140,317.5,Teen 14-18,M,SBD
1,75,Christian Robak,Wraps,Oslo AK,72.3,167.5,87.5,217.5,472.5,Junior 19-23,M,SBD
1,75,Erik Anton Andersen,Wraps,Oslo AK,74,170,125,215,510,Open,M,SBD
1,100,Dag Tom Kristiansen,Wraps,Oslo AK,96,200,150,,350,Open,M,SB
2,100,Johan Kallevik,Wraps,Oslo VK,92.4,210,130,,340,Open,M,SB
1,125,Herbjørn Braun,Wraps,Oslo AK,111,165,100,215,480,Open,M,SBD
