Division,WeightClassKg,Place,Name,Team,BodyweightKg,Best3SquatKg,Best3BenchKg,Best3DeadliftKg,TotalKg,Equipment,Event,Sex
Boys,52,1,Dalton Whiddon,Cleveland Tarkington,47.72,70.31,47.63,90.72,208.65,Single-ply,SBD,M
Boys,56,1,Garrett Hlavaty,Cleveland Tarkington,54.98,131.54,70.31,113.4,315.25,Single-ply,SBD,M
Boys,56,2,Preston Spoerle,Cleveland Tarkington,55.75,102.06,47.63,113.4,263.08,Single-ply,SBD,M
Boys,60,1,Qj Domio,Dayton,58.15,163.29,99.79,197.31,460.4,Single-ply,SBD,M
Boys,60,2,Chase McCain,Sour Lake Hardin-Jefferson,59.87,127.01,86.18,136.08,349.27,Single-ply,SBD,M
Boys,60,3,Logan Postert,Sour Lake Hardin-Jefferson,57.15,120.2,70.31,133.81,324.32,Single-ply,SBD,M
Boys,60,4,Brennan Pott,Cleveland Tarkington,58.83,111.13,65.77,131.54,308.44,Single-ply,SBD,M
Boys,60,5,Ruben Jaramillo,Winnie East Chambers,57.15,113.4,68.04,122.47,303.91,Single-ply,SBD,M
Boys,60,DQ,Kyle Jackson,Cleveland Tarkington,59.51,102.06,,,,Single-ply,SBD,M
Boys,67.5,1,Trinity Morris,Warren,67.13,165.56,120.2,176.9,462.66,Single-ply,SBD,M
Boys,67.5,2,Jacob Deplois,Cleveland Tarkington,64.55,151.95,77.11,174.63,403.7,Single-ply,SBD,M
Boys,67.5,3,Bryce Herrington,Warren,67.04,149.69,83.91,170.1,403.7,Single-ply,SBD,M
Boys,67.5,4,Caleb Munoz,La Porte,65.86,140.61,102.06,149.69,392.36,Single-ply,SBD,M
Boys,67.5,5,Coltin Anglin,Cleveland Tarkington,65.91,151.95,83.91,142.88,378.75,Single-ply,SBD,M
Boys,67.5,6,Colby Vauter,Dayton,67.04,133.81,77.11,149.69,360.61,Single-ply,SBD,M
Boys,67.5,7,Triton Manous,Hemphill,64.32,124.74,72.57,149.69,347,Single-ply,SBD,M
Boys,67.5,8,Jayden Landry,Anahuac,64.95,163.29,,,163.29,Single-ply,S,M
Boys,67.5,DQ,Ryan Hannah,Cleveland Tarkington,65.32,,,,,Single-ply,SBD,M
Boys,75,1,Trevor Howard,Cleveland Tarkington,72.67,185.97,92.99,199.58,478.54,Single-ply,SBD,M
Boys,75,2,Tristan Conner,Sour Lake Hardin-Jefferson,74.21,142.88,90.72,172.37,405.97,Single-ply,SBD,M
Boys,75,3,Jacob Galle,Sour Lake Hardin-Jefferson,70.94,136.08,79.38,174.63,390.09,Single-ply,SBD,M
Boys,75,4,Joseph Hlavaty,Cleveland Tarkington,71.3,154.22,81.65,149.69,385.55,Single-ply,SBD,M
Boys,75,5,Nate Nelson,Dayton,67.4,133.81,92.99,156.49,383.29,Single-ply,SBD,M
Boys,75,6,Anthony Ramirez,Anahuac,70.31,131.54,81.65,167.83,381.02,Single-ply,SBD,M
Boys,75,7,Chase Soignet,Warren,69.85,136.08,83.91,147.42,367.41,Single-ply,SBD,M
Boys,75,8,Alejandro Melendez,Dayton,74.66,99.79,74.84,129.27,303.91,Single-ply,SBD,M
Boys,75,9,Jacob Scholl,Sour Lake Hardin-Jefferson,70.13,136.08,,,136.08,Single-ply,S,M
Boys,75,10,Ke'Shawn Whittington,Anahuac,72.85,136.08,,,136.08,Single-ply,S,M
Boys,75,DQ,Christian Burns,Hemphill,72.03,,,,,Single-ply,SBD,M
Boys,82.5,1,River Lucy,Liberty,82.1,215.46,147.42,215.46,578.33,Single-ply,SBD,M
Boys,82.5,2,Perry Evans,Liberty,77.29,176.9,120.2,188.24,485.34,Single-ply,SBD,M
Boys,82.5,3,Chris Moulton,Anahuac,76.84,167.83,92.99,188.24,449.06,Single-ply,SBD,M
Boys,82.5,4,Ben Schepf,Winnie East Chambers,77.38,183.7,83.91,181.44,449.06,Single-ply,SBD,M
Boys,82.5,5,Cameron Kittman,Hemphill,77.66,156.49,111.13,181.44,449.06,Single-ply,SBD,M
Boys,82.5,6,Axel Castillo,Winnie East Chambers,80.74,179.17,83.91,181.44,444.52,Single-ply,SBD,M
Boys,82.5,7,Johnson Bricker,Cleveland Tarkington,80.47,151.95,83.91,163.29,399.16,Single-ply,SBD,M
Boys,82.5,8,Tristan Wagner,Hemphill,76.2,102.06,74.84,136.08,312.98,Single-ply,SBD,M
Boys,82.5,9,Cameron Hicks,Liberty,77.11,90.72,86.18,104.33,281.23,Single-ply,SBD,M
Boys,82.5,DQ,Sean Godkin,Cleveland Tarkington,81.83,,,,,Single-ply,SBD,M
Boys,90,1,Tim Flores,Sour Lake Hardin-Jefferson,88.99,244.94,161.03,229.06,635.03,Single-ply,SBD,M
Boys,90,2,Hunter McNair,Sour Lake Hardin-Jefferson,85.55,206.38,120.2,213.19,539.77,Single-ply,SBD,M
Boys,90,3,Waylon Daley,Dayton,88.9,183.7,154.22,167.83,505.76,Single-ply,SBD,M
Boys,90,4,Tyler Wolfe,La Porte,86.55,188.24,124.74,188.24,501.22,Single-ply,SBD,M
Boys,90,5,Dylan Jordan,Liberty,82.55,183.7,113.4,183.7,480.81,Single-ply,SBD,M
Boys,90,6,Brandon Haltom,Cleveland Tarkington,85.87,167.83,86.18,183.7,437.72,Single-ply,SBD,M
Boys,100,1,Kyler Loftin,Warren,96.52,233.6,120.2,206.38,560.19,Single-ply,SBD,M
Boys,100,2,Dylan Broussard,Anahuac,99.79,195.04,127.01,204.12,526.17,Single-ply,SBD,M
Boys,100,3,Aiden Humphrey,Dayton,98.43,222.26,122.47,174.63,519.36,Single-ply,SBD,M
Boys,100,4,Isaac McKnight,La Porte,99.61,165.56,102.06,192.78,460.4,Single-ply,SBD,M
Boys,100,5,Kole Leger,Warren,99.7,163.29,108.86,185.97,458.13,Single-ply,SBD,M
Boys,100,6,Shohn Alexander,Dayton,99.79,183.7,104.33,167.83,455.86,Single-ply,SBD,M
Boys,100,7,Thomas Marcrum,Warren,92.8,158.76,83.91,174.63,417.3,Single-ply,SBD,M
Boys,100,8,Nathan Greak,Cleveland Tarkington,93.08,170.1,79.38,165.56,415.04,Single-ply,SBD,M
Boys,100,9,Noah McGallion,Warren,92.99,154.22,92.99,147.42,394.63,Single-ply,SBD,M
Boys,100,10,Lane Dreher,Cleveland Tarkington,92.53,124.74,72.57,142.88,340.19,Single-ply,SBD,M
Boys,110,1,Michael Hoy,Dayton,106.68,208.65,140.61,256.28,605.55,Single-ply,SBD,M
Boys,110,2,Nick Kirbow,Hemphill,109.13,215.46,156.49,204.12,576.06,Single-ply,SBD,M
Boys,110,3,Peyton McCormick,Cleveland Tarkington,103.46,208.65,113.4,192.78,514.83,Single-ply,SBD,M
Boys,110,4,Brandon Hoskins,Anahuac,103.33,181.44,140.61,188.24,510.29,Single-ply,SBD,M
Boys,110,5,Brandon Romero,La Porte,108.5,165.56,124.74,185.97,476.27,Single-ply,SBD,M
Boys,110,6,Jacob Jones,Cleveland Tarkington,104.33,172.37,104.33,192.78,469.47,Single-ply,SBD,M
Boys,110,7,Glenn Anderson,La Porte,101.7,165.56,115.67,181.44,462.66,Single-ply,SBD,M
Boys,110,DQ,Dalton Patterson,Dayton,107.68,,,,,Single-ply,SBD,M
Boys,125,1,Robert Wyckoff,Liberty,119.2,226.8,113.4,222.26,562.45,Single-ply,SBD,M
Boys,125,2,Raul Gonzales,Liberty,115.76,231.33,117.93,210.92,560.19,Single-ply,SBD,M
Boys,125,3,Ryan Kendzior,La Porte,110.86,206.38,124.74,181.44,512.56,Single-ply,SBD,M
Boys,125,4,Kaegan Childree,Winnie East Chambers,113.85,206.38,115.67,188.24,510.29,Single-ply,SBD,M
Boys,125,5,Darren Lowe,Hemphill,113.94,188.24,115.67,183.7,487.61,Single-ply,SBD,M
Boys,125,6,Reese McGraw,Hemphill,118.02,195.04,102.06,179.17,476.27,Single-ply,SBD,M
Boys,125,7,Johnny Hoy,Dayton,115.3,195.04,108.86,167.83,471.74,Single-ply,SBD,M
Boys,125,8,Mason Phillips,Sour Lake Hardin-Jefferson,113.49,181.44,104.33,158.76,444.52,Single-ply,SBD,M
Boys,125,9,Anton Ray,La Porte,110.68,136.08,106.59,147.42,390.09,Single-ply,SBD,M
Boys,125,DQ,Keith Sobnosky,La Porte,120.02,174.63,131.54,165.56,,Single-ply,SBD,M
Boys,125,DQ,Alex Naim,Cleveland Tarkington,116.26,,,,,Single-ply,SBD,M
Boys,125+,1,Hunter Crooks,Dayton,134.44,274.42,154.22,288.03,716.68,Single-ply,SBD,M
Boys,125+,2,Bryan Hayes,La Porte,143.43,249.48,161.03,226.8,637.3,Single-ply,SBD,M
Boys,125+,3,Richard Bennett,Hemphill,142.52,256.28,158.76,219.99,635.03,Single-ply,SBD,M
Boys,125+,4,Michael Jauer,Sour Lake Hardin-Jefferson,152.04,229.06,163.29,208.65,601.01,Single-ply,SBD,M
Boys,125+,5,Brycen Boudreaux,La Porte,153.22,226.8,124.74,204.12,555.65,Single-ply,SBD,M
Boys,125+,6,Alex Smith,Anahuac,146.78,199.58,140.61,199.58,539.77,Single-ply,SBD,M
Boys,125+,7,Dawson Langham,La Porte,133.36,183.7,124.74,222.26,530.7,Single-ply,SBD,M
Boys,125+,8,William Orozco,Anahuac,126.19,176.9,124.74,185.97,487.61,Single-ply,SBD,M
Boys,125+,9,Hayden Lara,Winnie East Chambers,131.18,183.7,88.45,167.83,439.98,Single-ply,SBD,M
Boys,125+,10,Micah Hare,Cleveland Tarkington,127.5,151.95,102.06,158.76,412.77,Single-ply,SBD,M
Boys,125+,DQ,David McCoy,Sour Lake Hardin-Jefferson,126.46,226.8,133.81,,,Single-ply,SBD,M
Boys,,DQ,Thomas Lopez,Sour Lake Hardin-Jefferson,,,,,,Single-ply,SBD,M
Boys,,DQ,Tyler Murphy,Warren,,,,,,Single-ply,SBD,M
Boys,,DQ,Merel Bunfill,Liberty,,,,,,Single-ply,SBD,M
Boys,,DQ,James Tousha,Liberty,,,,,,Single-ply,SBD,M
Boys,,DQ,Alex Brown,Liberty,,,,,,Single-ply,SBD,M
Boys,,DQ,Chris Gobel,Liberty,,,,,,Single-ply,SBD,M
Boys,,DQ,Micheal Tinsley,Anahuac,,,,,,Single-ply,SBD,M
Boys,,DQ,James Henry,Anahuac,,,,,,Single-ply,SBD,M
Boys,,DQ,Zane Wheat,Winnie East Chambers,,,,,,Single-ply,SBD,M
Boys,,DQ,Cole Edwards,Anahuac,,,,,,Single-ply,SBD,M
Boys,,DQ,Logan Nichols,La Porte,,,,,,Single-ply,SBD,M
Boys,,DQ,Noah Switzer,La Porte,,,,,,Single-ply,SBD,M
Boys,,DQ,Chandler DeLeon,Hemphill,,,,,,Single-ply,SBD,M
Boys,,DQ,Jake Rueffer,Hemphill,,,,,,Single-ply,SBD,M
