Place,Name,Division,State,WeightClassKg,BodyweightKg,Age,Best3DeadliftKg,TotalKg,Sex,Equipment,Deadlift4Kg,Event
1,Alexandra Rutherford,Junior,CA,67.5,60.2,16,82.5,82.5,F,Raw,,D
1,Cristal Montes,Junior,CA,67.5,64.8,19,110,110,F,Raw,112.5,D
1,Kiegan Gibson,Junior,CA,75,73.4,15,87.5,87.5,F,Raw,,D
1,Gloria Luong,Open,CA,56,54.2,25,127.5,127.5,F,Raw,,D
1,Linda Mejia,Open,CA,60,57.8,26,120,120,F,Raw,,D
1,Alexandra Perry,Open,CA,67.5,67,26,160,160,F,Raw,,D
2,Christina Kassel,Open,CA,67.5,64.2,29,107.5,107.5,F,Raw,,D
1,Molly Mullikin,Open,CA,75,73.8,24,235,235,F,Raw,,D
2,Shawn Trevino,Open,CA,75,72,26,167.5,167.5,F,Raw,,D
1,Candice Urias,Open,CA,82.5,79,30,145,145,F,Raw,,D
2,Myra Balina,Open,CA,82.5,77.4,36,140,140,F,Raw,,D
1,Stephanie Biernacki,Open,CA,90,82.8,39,137.5,137.5,F,Raw,,D
1,Brittany Pryor,Open,NV,90+,99,30,255,255,F,Raw,,D
1,Olivia Guerrero,Submaster 35-39,CA,75,70.4,38,127.5,127.5,F,Raw,,D
1,Tong Brink,Master,CA,48,45,43,100,100,F,Raw,,D
1,Laurie Rowland,Master,CA,60,56.6,55,105,105,F,Raw,,D
1,Ileana Privetera,Master,CA,67.5,63.2,45,115,115,F,Raw,,D
1,Marie Tieck,Master,CA,75,70.8,40,100,100,F,Raw,,D
1,Valerie Muller,Master,CA,82.5,79.6,41,160,160,F,Raw,,D
1,DeeAnna Serna,Master,CA,82.5,80.6,48,110,110,F,Raw,,D
1,Tanya Reed,Master,CA,82.5,76.8,52,182.5,182.5,F,Raw,,D
1,Thalia Koumblis,Master,CA,90,87.4,41,122.5,122.5,F,Raw,,D
1,Tobias Fields,Junior,CA,52,50.6,13,72.5,72.5,M,Raw,,D
1,Charles A. LaMantia,Junior,CA,110,103.4,19,210,210,M,Raw,,D
1,Brian Rangel,Junior,CA,125,122.8,19,170,170,M,Raw,,D
1,Austin Johnson,Junior,CA,140,129.4,23,240,240,M,Raw,,D
1,Jeffrey Watkins,Open,CA,100,99.4,32,290,290,M,Raw,,D
2,Abraham Bevel,Open,CA,100,98.6,24,272.5,272.5,M,Raw,,D
1,Arturo Iribe,Open,CA,110,106.6,35,225,225,M,Raw,,D
1,Greg Mahin,Open,CA,125,120.2,24,310,310,M,Raw,,D
2,Matt Posselt,Open,CA,125,117.8,27,280,280,M,Raw,,D
3,Vithuran Arulmoli,Open,CA,125,112.4,27,255,255,M,Raw,,D
4,Eric Gonzalez,Open,CA,125,117.2,25,200,200,M,Raw,,D
1,Derek Collister,Open,CA,140,134.4,28,255,255,M,Raw,,D
1,Thang Nguyen,Submaster 35-39,CA,82.5,80.6,35,262.5,262.5,M,Raw,,D
1,Dennis Galanter,Master,CA,67.5,65.4,80,95,95,M,Raw,,D
1,Joshua Hyman,Master,CA,100,99.2,41,240,240,M,Raw,,D
2,Christopher Andrews,Master,CA,100,90.6,40,227.5,227.5,M,Raw,,D
1,Chris Flores,Master,CA,100,95,45,275,275,M,Raw,,D
1,Lothar Vallot,Master,CA,100,93.6,64,140,140,M,Raw,,D
1,Martin Vogt,Master,CA,100,97.4,71,112.5,112.5,M,Raw,,D
1,Karl Davenport,Master,CA,110,109.2,51,210,210,M,Raw,,D
1,Gerardo Torres,Master,CA,125,121.8,58,240,240,M,Raw,,D
1,Kate Hanson,Open,NV,90,89.2,32,192.5,192.5,F,Single-ply,,D
1,Bernice Fuss,Master,Canada,75,71.2,59,192.5,192.5,F,Single-ply,,D
1,Liz Freel,Open,CA,75,75,40,227.5,227.5,F,Single-ply,,D
